sim/block_dt_test_tb.vcd
$date
	Thu Jul 24 21:05:44 2025
$end
$version
	Icarus Verilog
$end
$timescale
	1ps
$end
$scope module block_dt_test_tb $end
$var wire 32 ! block_reg_rdata [31:0] $end
$var wire 16 " register_list [15:0] $end
$var wire 32 # mem_rdata [31:0] $end
$var wire 1 $ decode_valid $end
$var wire 1 % decode_set_flags $end
$var wire 4 & decode_rn [3:0] $end
$var wire 4 ' decode_rm [3:0] $end
$var wire 4 ( decode_rd [3:0] $end
$var wire 32 ) decode_pc [31:0] $end
$var wire 1 * decode_mem_writeback $end
$var wire 1 + decode_mem_up $end
$var wire 1 , decode_mem_pre $end
$var wire 1 - decode_mem_load $end
$var wire 1 . decode_mem_byte $end
$var wire 1 / decode_is_memory $end
$var wire 4 0 decode_instr_type [3:0] $end
$var wire 12 1 decode_immediate [11:0] $end
$var wire 1 2 decode_imm_en $end
$var wire 4 3 decode_condition [3:0] $end
$var wire 4 4 decode_alu_op [3:0] $end
$var wire 1 5 block_user_mode $end
$var wire 1 6 block_reg_we $end
$var wire 32 7 block_reg_wdata [31:0] $end
$var wire 4 8 block_reg_addr [3:0] $end
$var wire 1 9 block_mem_we $end
$var wire 32 : block_mem_wdata [31:0] $end
$var wire 1 ; block_mem_re $end
$var wire 32 < block_mem_rdata [31:0] $end
$var wire 32 = block_mem_addr [31:0] $end
$var wire 1 > block_complete $end
$var wire 1 ? block_base_reg_we $end
$var wire 32 @ block_base_reg_data [31:0] $end
$var wire 4 A block_base_reg_addr [3:0] $end
$var wire 1 B block_active $end
$var reg 32 C addr_offset [31:0] $end
$var reg 1 D block_en $end
$var reg 1 E clk $end
$var reg 1 F flush $end
$var reg 1 G instr_valid $end
$var reg 32 H instruction [31:0] $end
$var reg 32 I mem_addr [31:0] $end
$var reg 32 J mem_idx [31:0] $end
$var reg 1 K mem_re $end
$var reg 1 L mem_ready $end
$var reg 32 M mem_wdata [31:0] $end
$var reg 1 N mem_we $end
$var reg 32 O pc_in [31:0] $end
$var reg 32 P reg_count [31:0] $end
$var reg 32 Q reg_rn_data [31:0] $end
$var reg 1 R rst_n $end
$var reg 1 S stall $end
$var reg 1 T test_passed $end
$var reg 1 U thumb_mode $end
$var integer 32 V tests_passed [31:0] $end
$var integer 32 W tests_run [31:0] $end
$scope module u_block_dt $end
$var wire 32 X base_address [31:0] $end
$var wire 4 Y base_reg_addr [3:0] $end
$var wire 1 D block_en $end
$var wire 1 5 block_user_mode $end
$var wire 1 E clk $end
$var wire 32 Z mem_addr [31:0] $end
$var wire 32 [ mem_rdata [31:0] $end
$var wire 1 ; mem_re $end
$var wire 1 L mem_ready $end
$var wire 32 \ mem_wdata [31:0] $end
$var wire 1 9 mem_we $end
$var wire 4 ] reg_addr [3:0] $end
$var wire 32 ^ reg_rdata [31:0] $end
$var wire 32 _ reg_wdata [31:0] $end
$var wire 1 6 reg_we $end
$var wire 16 ` register_list [15:0] $end
$var wire 1 R rst_n $end
$var wire 1 * block_writeback $end
$var wire 1 + block_up $end
$var wire 1 , block_pre $end
$var wire 1 - block_load $end
$var wire 1 > block_complete $end
$var wire 1 B block_active $end
$var wire 4 a base_register [3:0] $end
$var wire 1 ? base_reg_we $end
$var reg 32 b base_reg_data [31:0] $end
$var reg 32 c current_addr [31:0] $end
$var reg 4 d current_reg [3:0] $end
$var reg 1 e first_transfer $end
$var reg 4 f next_reg [3:0] $end
$var reg 3 g next_state [2:0] $end
$var reg 5 h reg_count [4:0] $end
$var reg 16 i remaining_regs [15:0] $end
$var reg 3 j state [2:0] $end
$var reg 5 k total_regs [4:0] $end
$scope begin $ivl_for_loop0 $end
$var integer 32 l i [31:0] $end
$upscope $end
$scope begin $ivl_for_loop1 $end
$var integer 32 m i [31:0] $end
$upscope $end
$upscope $end
$scope module u_decode $end
$var wire 1 n branch_link $end
$var wire 24 o branch_offset [23:0] $end
$var wire 1 E clk $end
$var wire 4 p condition [3:0] $end
$var wire 1 $ decode_valid $end
$var wire 1 F flush $end
$var wire 1 2 imm_en $end
$var wire 12 q immediate [11:0] $end
$var wire 1 G instr_valid $end
$var wire 32 r instruction [31:0] $end
$var wire 1 / is_memory $end
$var wire 1 . mem_byte $end
$var wire 1 - mem_load $end
$var wire 1 , mem_pre $end
$var wire 1 + mem_up $end
$var wire 1 * mem_writeback $end
$var wire 32 s pc_in [31:0] $end
$var wire 32 t pc_out [31:0] $end
$var wire 1 u psr_immediate $end
$var wire 1 v psr_spsr $end
$var wire 1 w psr_to_reg $end
$var wire 4 x rd [3:0] $end
$var wire 4 y rm [3:0] $end
$var wire 4 z rn [3:0] $end
$var wire 1 R rst_n $end
$var wire 1 % set_flags $end
$var wire 1 { shift_reg $end
$var wire 2 | shift_type [1:0] $end
$var wire 1 S stall $end
$var wire 1 U thumb_mode $end
$var wire 1 } w_bit $end
$var wire 1 ~ u_bit $end
$var wire 2 !" shift_type_field [1:0] $end
$var wire 4 "" shift_rs [3:0] $end
$var wire 5 #" shift_amt_field [4:0] $end
$var wire 5 $" shift_amount [4:0] $end
$var wire 1 %" s_bit $end
$var wire 4 &" rn_field [3:0] $end
$var wire 4 '" rm_field [3:0] $end
$var wire 4 (" rd_field [3:0] $end
$var wire 1 )" p_bit $end
$var wire 6 *" op_code [5:0] $end
$var wire 2 +" op_class [1:0] $end
$var wire 1 ," l_bit_mem $end
$var wire 1 -" l_bit $end
$var wire 1 ." is_branch $end
$var wire 12 /" imm_field [11:0] $end
$var wire 1 0" i_bit $end
$var wire 4 1" cond_field [3:0] $end
$var wire 24 2" branch_offset_field [23:0] $end
$var wire 1 3" b_bit $end
$var wire 4 4" alu_op [3:0] $end
$var reg 1 5" cp_load $end
$var reg 4 6" cp_num [3:0] $end
$var reg 3 7" cp_op [2:0] $end
$var reg 3 8" cp_opcode1 [2:0] $end
$var reg 3 9" cp_opcode2 [2:0] $end
$var reg 4 :" cp_rd [3:0] $end
$var reg 4 ;" cp_rn [3:0] $end
$var reg 4 <" instr_type [3:0] $end
$var reg 32 =" pc_reg [31:0] $end
$var reg 5 >" thumb_imm5 [4:0] $end
$var reg 8 ?" thumb_imm8 [7:0] $end
$var reg 5 @" thumb_instr_type [4:0] $end
$var reg 11 A" thumb_offset11 [10:0] $end
$var reg 8 B" thumb_offset8 [7:0] $end
$var reg 3 C" thumb_rd [2:0] $end
$var reg 3 D" thumb_rn [2:0] $end
$var reg 3 E" thumb_rs [2:0] $end
$var reg 1 F" valid_reg $end
$upscope $end
$scope begin $ivl_for_loop5 $end
$var integer 32 G" i [31:0] $end
$upscope $end
$scope begin $unm_blk_138 $end
$var reg 32 H" addr [31:0] $end
$var reg 32 I" data [31:0] $end
$upscope $end
$scope task test_block_instruction $end
$var reg 32 J" base_addr [31:0] $end
$var reg 16 K" expected_regs [15:0] $end
$var reg 32 L" instr [31:0] $end
$var reg 1 M" is_load $end
$scope begin $ivl_for_loop2 $end
$var integer 32 N" i [31:0] $end
$upscope $end
$scope begin $ivl_for_loop3 $end
$var integer 32 O" i [31:0] $end
$upscope $end
$scope begin $ivl_for_loop4 $end
$var integer 32 P" i [31:0] $end
$upscope $end
$upscope $end
$upscope $end
$enddefinitions $end
#0
$dumpvars
b0 P"
b0 O"
b0 N"
xM"
bx L"
bx K"
bx J"
bx I"
bx H"
b100000000 G"
0F"
b0 E"
b0 D"
b0 C"
b0 B"
b0 A"
b1 @"
b0 ?"
b0 >"
b0 ="
b111 <"
b0 ;"
b0 :"
b0 9"
b0 8"
b0 7"
b0 6"
05"
bx 4"
x3"
bx 2"
bx 1"
x0"
bx /"
0."
x-"
x,"
bx +"
bx *"
x)"
bx ("
bx '"
bx &"
x%"
bx $"
bx #"
bx ""
bx !"
x~
x}
bx |
0{
bx z
bx y
bx x
0w
0v
0u
b0 t
b0 s
bx r
bx q
bx p
bx o
0n
b10000 m
b10000 l
b0 k
b0 j
b0 i
b0 h
b0 g
b0 f
0e
b0 d
b0 c
b11000000000000 b
bx a
bx `
b0 _
b10001000100010001000100010001 ^
b0 ]
b10001000100010001000100010001 \
b0 [
b0 Z
bx Y
b11000000000000 X
b0 W
b0 V
0U
xT
0S
0R
b11000000000000 Q
bx P
b0 O
xN
bx M
1L
xK
bx J
bx I
bx H
1G
0F
0E
0D
bx C
0B
bx A
b11000000000000 @
0?
0>
b0 =
b0 <
0;
b10001000100010001000100010001 :
09
b0 8
b0 7
06
x5
bx 4
bx 3
02
bx 1
b111 0
0/
x.
x-
x,
x+
x*
b0 )
bx (
bx '
bx &
0%
0$
bx #
bx "
b10001000100010001000100010001 !
$end
#5000
1E
#10000
0E
#15000
1$
1F"
1R
1E
#20000
0E
#25000
1E
#30000
0E
#35000
1/
b0 $"
b11000000001100 @
b11000000001100 b
b10000 l
b11 k
b10000 m
b111 "
b111 `
05
b1000 0
b1000 <"
b1110 3
b1110 p
b1110 1"
b10 +"
00"
b10000 *"
0%"
b0 A
b0 Y
b0 &
b0 a
b0 z
b0 &"
b0 (
b0 x
b0 ("
b111 '
b111 y
b111 '"
b111 1
b111 q
b111 /"
b0 |
b0 !"
b0 #"
0-"
b100000000000000000000111 o
b100000000000000000000111 2"
0,
0)"
1+
1~
0.
03"
0*
0}
0-
0,"
b100 4
b100 4"
b0 ""
b100000000 N"
b11101000100000000000000000000111 H
b11101000100000000000000000000111 r
b1 W
0M"
b111 K"
b11000000000000 J"
b11101000100000000000000000000111 L"
1E
#40000
0E
#45000
1E
#50000
0E
#55000
b1 f
b11000000000000 =
b11000000000000 Z
b11000000000000 c
1e
b11 h
b111 i
b1000 0
b1000 <"
b10000 l
b10000 m
b11 k
b1 g
1D
1E
#60000
0E
#65000
b1000 0
b1000 <"
b10000 l
b1 f
b10000 m
b11 k
b10 g
b100010001000100010001000100010 :
b100010001000100010001000100010 \
b100010001000100010001000100010 !
b100010001000100010001000100010 ^
b1 8
b1 ]
b1 d
1B
b1 j
1E
#70000
0E
#75000
b1000 0
b1000 <"
b10000 l
b1 f
b10000 m
b11 k
b1 g
19
0e
b10 j
1E
#80000
0E
#85000
b1000 0
b1000 <"
b10000 l
b10 f
b10000 m
b11 k
b10 g
09
b11000000000100 =
b11000000000100 Z
b11000000000100 c
b10 h
b101 i
b1 j
1E
#90000
0E
#95000
b1000 0
b1000 <"
b10000 l
b10 f
b10000 m
b11 k
b1 g
19
b110011001100110011001100110011 :
b110011001100110011001100110011 \
b110011001100110011001100110011 !
b110011001100110011001100110011 ^
b10 8
b10 ]
b10 d
b10 j
1E
#100000
0E
#105000
b1000 0
b1000 <"
b10000 l
b0 f
b10000 m
b11 k
b10 g
09
b11000000001000 =
b11000000001000 Z
b11000000001000 c
b1 h
b1 i
b1 j
1E
#110000
0E
#115000
b1000 0
b1000 <"
b10000 l
b10000 m
b11 k
b100 g
19
b10001000100010001000100010001 :
b10001000100010001000100010001 \
b10001000100010001000100010001 !
b10001000100010001000100010001 ^
b0 8
b0 ]
b0 d
b10 j
1E
#120000
0E
#125000
b1000 0
b1000 <"
b10000 l
b10000 m
b11 k
09
b11000000001100 =
b11000000001100 Z
b11000000001100 c
b0 h
b0 i
1>
b100 j
1E
#130000
0E
#135000
b1 $"
b11110000 "
b11110000 `
b0 '
b0 y
b0 '"
b11110000 1
b11110000 q
b11110000 /"
b11 |
b11 !"
b1 #"
b100000000000000011110000 o
b100000000000000011110000 2"
b11000000100000 @
b11000000100000 b
b1000 0
b1000 <"
b10000 l
b10000 m
b100 k
b0 g
b100000000 N"
b11101000100000000000000011110000 H
b11101000100000000000000011110000 r
b11000000010000 Q
b11000000010000 X
b10 W
b11110000 K"
b11000000010000 J"
b11101000100000000000000011110000 L"
b10000 P"
b110000000010 J
b11 P
b1100 C
0T
0D
1E
#140000
0E
#145000
b1000 0
b1000 <"
b10000 l
b10000 m
b100 k
0B
0>
b0 j
1E
#150000
0E
#155000
b100 f
b11000000010000 =
b11000000010000 Z
b11000000010000 c
1e
b100 h
b11110000 i
b1000 0
b1000 <"
b10000 l
b10000 m
b100 k
b1 g
1D
1E
#160000
0E
#165000
b1000 0
b1000 <"
b10000 l
b100 f
b10000 m
b100 k
b10 g
b1010101010101010101010101010101 :
b1010101010101010101010101010101 \
b1010101010101010101010101010101 !
b1010101010101010101010101010101 ^
b100 8
b100 ]
b100 d
1B
b1 j
1E
#170000
0E
#175000
b1000 0
b1000 <"
b10000 l
b100 f
b10000 m
b100 k
b1 g
19
0e
b10 j
1E
#180000
0E
#185000
b1000 0
b1000 <"
b10000 l
b101 f
b10000 m
b100 k
b10 g
09
b11000000010100 =
b11000000010100 Z
b11000000010100 c
b11 h
b11100000 i
b1 j
1E
#190000
0E
#195000
b1000 0
b1000 <"
b10000 l
b101 f
b10000 m
b100 k
b1 g
19
b1100110011001100110011001100110 :
b1100110011001100110011001100110 \
b1100110011001100110011001100110 !
b1100110011001100110011001100110 ^
b101 8
b101 ]
b101 d
b10 j
1E
#200000
0E
#205000
b1000 0
b1000 <"
b10000 l
b110 f
b10000 m
b100 k
b10 g
09
b11000000011000 =
b11000000011000 Z
b11000000011000 c
b10 h
b11000000 i
b1 j
1E
#210000
0E
#215000
b1000 0
b1000 <"
b10000 l
b110 f
b10000 m
b100 k
b1 g
19
b1110111011101110111011101110111 :
b1110111011101110111011101110111 \
b1110111011101110111011101110111 !
b1110111011101110111011101110111 ^
b110 8
b110 ]
b110 d
b10 j
1E
#220000
0E
#225000
b1000 0
b1000 <"
b10000 l
b111 f
b10000 m
b100 k
b10 g
09
b11000000011100 =
b11000000011100 Z
b11000000011100 c
b1 h
b10000000 i
b1 j
1E
#230000
0E
#235000
b1000 0
b1000 <"
b10000 l
b111 f
b10000 m
b100 k
b100 g
19
b10001000100010001000100010001000 :
b10001000100010001000100010001000 \
b10001000100010001000100010001000 !
b10001000100010001000100010001000 ^
b111 8
b111 ]
b111 d
b10 j
1E
#240000
0E
#245000
b1000 0
b1000 <"
b10000 l
b0 f
b10000 m
b100 k
09
b11000000100000 =
b11000000100000 Z
b11000000100000 c
b0 h
b0 i
1>
b100 j
1E
#250000
0E
#255000
b0 $"
b11 "
b11 `
b11 '
b11 y
b11 '"
b11 1
b11 q
b11 /"
b0 |
b0 !"
b0 #"
b100000000000000000000011 o
b100000000000000000000011 2"
b11000000101000 @
b11000000101000 b
b1000 0
b1000 <"
b10000 l
b10000 m
b10 k
b0 g
b100000000 N"
b11101000100000000000000000000011 H
b11101000100000000000000000000011 r
b11000000100000 Q
b11000000100000 X
b11 W
b11 K"
b11000000100000 J"
b11101000100000000000000000000011 L"
b110000000111 J
b10000 P"
b100 P
b10000 C
0T
0D
1E
#260000
0E
#265000
b1000 0
b1000 <"
b10000 l
b10000 m
b10 k
0B
0>
b0 j
1E
#270000
0E
#275000
b1 f
1e
b10 h
b10001000100010001000100010001 :
b10001000100010001000100010001 \
b10001000100010001000100010001 !
b10001000100010001000100010001 ^
b0 8
b0 ]
b0 d
b11 i
b1000 0
b1000 <"
b10000 l
b10000 m
b10 k
b1 g
1D
1E
#280000
0E
#285000
b1000 0
b1000 <"
b10000 l
b1 f
b10000 m
b10 k
b10 g
b100010001000100010001000100010 :
b100010001000100010001000100010 \
b100010001000100010001000100010 !
b100010001000100010001000100010 ^
b1 8
b1 ]
b1 d
1B
b1 j
1E
#290000
0E
#295000
b1000 0
b1000 <"
b10000 l
b1 f
b10000 m
b10 k
b1 g
19
0e
b10 j
1E
#300000
0E
#305000
b1000 0
b1000 <"
b10000 l
b0 f
b10000 m
b10 k
b10 g
09
b11000000100100 =
b11000000100100 Z
b11000000100100 c
b1 h
b1 i
b1 j
1E
#310000
0E
#315000
b1000 0
b1000 <"
b10000 l
b10000 m
b10 k
b100 g
19
b10001000100010001000100010001 :
b10001000100010001000100010001 \
b10001000100010001000100010001 !
b10001000100010001000100010001 ^
b0 8
b0 ]
b0 d
b10 j
1E
#320000
0E
#325000
b1000 0
b1000 <"
b10000 l
b10000 m
b10 k
09
b11000000101000 =
b11000000101000 Z
b11000000101000 c
b0 h
b0 i
1>
b100 j
1E
#330000
0E
#335000
b111 "
b111 `
b10010 *"
1%"
b111 '
b111 y
b111 '"
b111 1
b111 q
b111 /"
b100100000000000000000111 o
b100100000000000000000111 2"
1-
1,"
b11000001001100 @
b11000001001100 b
b1000 0
b1000 <"
b10000 l
b10000 m
b11 k
b0 g
b10000 O"
b100000000 N"
b11101000100100000000000000000111 H
b11101000100100000000000000000111 r
b11000001000000 Q
b11000001000000 X
b100 W
1M"
b111 K"
b11000001000000 J"
b11101000100100000000000000000111 L"
b110000010010 J
b10000 P"
b10 P
b1100 C
0T
0D
1E
#340000
0E
#345000
b1000 0
b1000 <"
b10000 l
b10000 m
b11 k
0B
0>
b0 j
1E
#350000
0E
#355000
b1 f
b11000001000000 =
b11000001000000 Z
b11000001000000 c
1e
b11 h
b111 i
b1000 0
b1000 <"
b10000 l
b10000 m
b11 k
b1 g
1D
1E
#360000
0E
#365000
b1000 0
b1000 <"
b10000 l
b1 f
b10000 m
b11 k
b10 g
b100010001000100010001000100010 :
b100010001000100010001000100010 \
b100010001000100010001000100010 !
b100010001000100010001000100010 ^
b1 8
b1 ]
b1 d
1B
b1 j
1E
#370000
0E
#375000
b10001000100010001000100010001 7
b10001000100010001000100010001 _
b10001000100010001000100010001 <
b10001000100010001000100010001 [
16
b1000 0
b1000 <"
b10000 l
b1 f
b10000 m
b11 k
b1 g
1;
0e
b10 j
1E
#380000
0E
#385000
b0 7
b0 _
b0 <
b0 [
06
b1000 0
b1000 <"
b10000 l
b10 f
b10000 m
b11 k
b10 g
0;
b11000001000100 =
b11000001000100 Z
b11000001000100 c
b10 h
b101 i
b1 j
1E
#390000
0E
#395000
b100010001000100010001000100010 7
b100010001000100010001000100010 _
b100010001000100010001000100010 <
b100010001000100010001000100010 [
16
b1000 0
b1000 <"
b10000 l
b10 f
b10000 m
b11 k
b1 g
1;
b110011001100110011001100110011 :
b110011001100110011001100110011 \
b110011001100110011001100110011 !
b110011001100110011001100110011 ^
b10 8
b10 ]
b10 d
b10 j
1E
#400000
0E
#405000
b0 7
b0 _
b0 <
b0 [
06
b1000 0
b1000 <"
b10000 l
b0 f
b10000 m
b11 k
b10 g
0;
b11000001001000 =
b11000001001000 Z
b11000001001000 c
b1 h
b1 i
b1 j
1E
#410000
0E
#415000
b110011001100110011001100110011 7
b110011001100110011001100110011 _
b110011001100110011001100110011 <
b110011001100110011001100110011 [
16
b1000 0
b1000 <"
b10000 l
b10000 m
b11 k
b100 g
1;
b10001000100010001000100010001 :
b10001000100010001000100010001 \
b10001000100010001000100010001 !
b10001000100010001000100010001 ^
b0 8
b0 ]
b0 d
b10 j
1E
#420000
0E
#425000
b0 7
b0 _
b0 <
b0 [
06
b1000 0
b1000 <"
b10000 l
b10000 m
b11 k
0;
b11000001001100 =
b11000001001100 Z
b11000001001100 c
b0 h
b0 i
1>
b100 j
1E
#430000
0E
#435000
b1 $"
b11110000 "
b11110000 `
b0 '
b0 y
b0 '"
b11110000 1
b11110000 q
b11110000 /"
b11 |
b11 !"
b1 #"
b100100000000000011110000 o
b100100000000000011110000 2"
b11000001100000 @
b11000001100000 b
b1000 0
b1000 <"
b10000 l
b10000 m
b100 k
b0 g
b110000010111 J
b10000 O"
b10000 C
b100000000 N"
b11101000100100000000000011110000 H
b11101000100100000000000011110000 r
b11000001010000 Q
b11000001010000 X
b101 W
b11110000 K"
b11000001010000 J"
b11101000100100000000000011110000 L"
b1 V
1T
0D
1E
#440000
0E
#445000
b1000 0
b1000 <"
b10000 l
b10000 m
b100 k
0B
0>
b0 j
1E
#450000
0E
#455000
b100 f
b11000001010000 =
b11000001010000 Z
b11000001010000 c
1e
b100 h
b11110000 i
b1000 0
b1000 <"
b10000 l
b10000 m
b100 k
b1 g
1D
1E
#460000
0E
#465000
b1000 0
b1000 <"
b10000 l
b100 f
b10000 m
b100 k
b10 g
b1010101010101010101010101010101 :
b1010101010101010101010101010101 \
b1010101010101010101010101010101 !
b1010101010101010101010101010101 ^
b100 8
b100 ]
b100 d
1B
b1 j
1E
#470000
0E
#475000
b1010101010101010101010101010101 7
b1010101010101010101010101010101 _
b1010101010101010101010101010101 <
b1010101010101010101010101010101 [
16
b1000 0
b1000 <"
b10000 l
b100 f
b10000 m
b100 k
b1 g
1;
0e
b10 j
1E
#480000
0E
#485000
b0 7
b0 _
b0 <
b0 [
06
b1000 0
b1000 <"
b10000 l
b101 f
b10000 m
b100 k
b10 g
0;
b11000001010100 =
b11000001010100 Z
b11000001010100 c
b11 h
b11100000 i
b1 j
1E
#490000
0E
#495000
b1100110011001100110011001100110 7
b1100110011001100110011001100110 _
b1100110011001100110011001100110 <
b1100110011001100110011001100110 [
16
b1000 0
b1000 <"
b10000 l
b101 f
b10000 m
b100 k
b1 g
1;
b1100110011001100110011001100110 :
b1100110011001100110011001100110 \
b1100110011001100110011001100110 !
b1100110011001100110011001100110 ^
b101 8
b101 ]
b101 d
b10 j
1E
#500000
0E
#505000
b0 7
b0 _
b0 <
b0 [
06
b1000 0
b1000 <"
b10000 l
b110 f
b10000 m
b100 k
b10 g
0;
b11000001011000 =
b11000001011000 Z
b11000001011000 c
b10 h
b11000000 i
b1 j
1E
#510000
0E
#515000
b1110111011101110111011101110111 7
b1110111011101110111011101110111 _
b1110111011101110111011101110111 <
b1110111011101110111011101110111 [
16
b1000 0
b1000 <"
b10000 l
b110 f
b10000 m
b100 k
b1 g
1;
b1110111011101110111011101110111 :
b1110111011101110111011101110111 \
b1110111011101110111011101110111 !
b1110111011101110111011101110111 ^
b110 8
b110 ]
b110 d
b10 j
1E
#520000
0E
#525000
b0 7
b0 _
b0 <
b0 [
06
b1000 0
b1000 <"
b10000 l
b111 f
b10000 m
b100 k
b10 g
0;
b11000001011100 =
b11000001011100 Z
b11000001011100 c
b1 h
b10000000 i
b1 j
1E
#530000
0E
#535000
b10001000100010001000100010001000 7
b10001000100010001000100010001000 _
b10001000100010001000100010001000 <
b10001000100010001000100010001000 [
16
b1000 0
b1000 <"
b10000 l
b111 f
b10000 m
b100 k
b100 g
1;
b10001000100010001000100010001000 :
b10001000100010001000100010001000 \
b10001000100010001000100010001000 !
b10001000100010001000100010001000 ^
b111 8
b111 ]
b111 d
b10 j
1E
#540000
0E
#545000
b0 7
b0 _
b0 <
b0 [
06
b1000 0
b1000 <"
b10000 l
b0 f
b10000 m
b100 k
0;
b11000001100000 =
b11000001100000 Z
b11000001100000 c
b0 h
b0 i
1>
b100 j
1E
#550000
0E
#555000
b0 $"
b1111 "
b1111 `
b10100 *"
0%"
b1111 '
b1111 y
b1111 '"
b1111 1
b1111 q
b1111 /"
b0 |
b0 !"
b0 #"
b101000000000000000001111 o
b101000000000000000001111 2"
1*
1}
0-
0,"
b101 4
b101 4"
b11000001110000 @
b11000001110000 b
b1000 0
b1000 <"
b10000 l
b10000 m
b100 k
b0 g
b100000000 N"
b11101000101000000000000000001111 H
b11101000101000000000000000001111 r
b11000001100000 Q
b11000001100000 X
b110 W
0M"
b1111 K"
b11000001100000 J"
b11101000101000000000000000001111 L"
b10 V
0D
1E
#560000
0E
#565000
b1000 0
b1000 <"
b10000 l
b10000 m
b100 k
0B
0>
b0 j
1E
#570000
0E
#575000
b1 f
1e
b100 h
b10001000100010001000100010001 :
b10001000100010001000100010001 \
b10001000100010001000100010001 !
b10001000100010001000100010001 ^
b0 8
b0 ]
b0 d
b1111 i
b1000 0
b1000 <"
b10000 l
b10000 m
b100 k
b1 g
1D
1E
#580000
0E
#585000
b1000 0
b1000 <"
b10000 l
b1 f
b10000 m
b100 k
b10 g
b100010001000100010001000100010 :
b100010001000100010001000100010 \
b100010001000100010001000100010 !
b100010001000100010001000100010 ^
b1 8
b1 ]
b1 d
1B
b1 j
1E
#590000
0E
#595000
b1000 0
b1000 <"
b10000 l
b1 f
b10000 m
b100 k
b1 g
19
0e
b10 j
1E
#600000
0E
#605000
b1000 0
b1000 <"
b10000 l
b10 f
b10000 m
b100 k
b10 g
09
b11000001100100 =
b11000001100100 Z
b11000001100100 c
b11 h
b1101 i
b1 j
1E
#610000
0E
#615000
b1000 0
b1000 <"
b10000 l
b10 f
b10000 m
b100 k
b1 g
19
b110011001100110011001100110011 :
b110011001100110011001100110011 \
b110011001100110011001100110011 !
b110011001100110011001100110011 ^
b10 8
b10 ]
b10 d
b10 j
1E
#620000
0E
#625000
b1000 0
b1000 <"
b10000 l
b11 f
b10000 m
b100 k
b10 g
09
b11000001101000 =
b11000001101000 Z
b11000001101000 c
b10 h
b1001 i
b1 j
1E
#630000
0E
#635000
b1000 0
b1000 <"
b10000 l
b11 f
b10000 m
b100 k
b1 g
19
b1000100010001000100010001000100 :
b1000100010001000100010001000100 \
b1000100010001000100010001000100 !
b1000100010001000100010001000100 ^
b11 8
b11 ]
b11 d
b10 j
1E
#640000
0E
#645000
b1000 0
b1000 <"
b10000 l
b0 f
b10000 m
b100 k
b10 g
09
b11000001101100 =
b11000001101100 Z
b11000001101100 c
b1 h
b1 i
b1 j
1E
#650000
0E
#655000
b1000 0
b1000 <"
b10000 l
b10000 m
b100 k
b11 g
19
b10001000100010001000100010001 :
b10001000100010001000100010001 \
b10001000100010001000100010001 !
b10001000100010001000100010001 ^
b0 8
b0 ]
b0 d
b10 j
1E
#660000
0E
#665000
b1000 0
b1000 <"
b10000 l
b10000 m
b100 k
b100 g
09
b11000001110000 =
b11000001110000 Z
b11000001110000 c
b0 h
b0 i
1?
b11 j
1E
#670000
0E
#675000
b1000 0
b1000 <"
b10000 l
b10000 m
b100 k
0?
1>
b100 j
1E
#680000
0E
#685000
b10110 *"
1%"
b101100000000000000001111 o
b101100000000000000001111 2"
1-
1,"
b11000010000000 @
b11000010000000 b
b1000 0
b1000 <"
b10000 l
b10000 m
b100 k
b0 g
b10000 O"
b100000000 N"
b11101000101100000000000000001111 H
b11101000101100000000000000001111 r
b11000001110000 Q
b11000001110000 X
b111 W
1M"
b11000001110000 J"
b11101000101100000000000000001111 L"
0T
b110000011111 J
b10000 P"
b100 P
b10000 C
0D
1E
#690000
0E
#695000
b1000 0
b1000 <"
b10000 l
b10000 m
b100 k
0B
0>
b0 j
1E
#700000
0E
#705000
b1 f
1e
b100 h
b1111 i
b1000 0
b1000 <"
b10000 l
b10000 m
b100 k
b1 g
1D
1E
#710000
0E
#715000
b1000 0
b1000 <"
b10000 l
b1 f
b10000 m
b100 k
b10 g
b100010001000100010001000100010 :
b100010001000100010001000100010 \
b100010001000100010001000100010 !
b100010001000100010001000100010 ^
b1 8
b1 ]
b1 d
1B
b1 j
1E
#720000
0E
#725000
b10001000100010001000100010001 7
b10001000100010001000100010001 _
b10001000100010001000100010001 <
b10001000100010001000100010001 [
16
b1000 0
b1000 <"
b10000 l
b1 f
b10000 m
b100 k
b1 g
1;
0e
b10 j
1E
#730000
0E
#735000
b0 7
b0 _
b0 <
b0 [
06
b1000 0
b1000 <"
b10000 l
b10 f
b10000 m
b100 k
b10 g
0;
b11000001110100 =
b11000001110100 Z
b11000001110100 c
b11 h
b1101 i
b1 j
1E
#740000
0E
#745000
b100010001000100010001000100010 7
b100010001000100010001000100010 _
b100010001000100010001000100010 <
b100010001000100010001000100010 [
16
b1000 0
b1000 <"
b10000 l
b10 f
b10000 m
b100 k
b1 g
1;
b110011001100110011001100110011 :
b110011001100110011001100110011 \
b110011001100110011001100110011 !
b110011001100110011001100110011 ^
b10 8
b10 ]
b10 d
b10 j
1E
#750000
0E
#755000
b0 7
b0 _
b0 <
b0 [
06
b1000 0
b1000 <"
b10000 l
b11 f
b10000 m
b100 k
b10 g
0;
b11000001111000 =
b11000001111000 Z
b11000001111000 c
b10 h
b1001 i
b1 j
1E
#760000
0E
#765000
b110011001100110011001100110011 7
b110011001100110011001100110011 _
b110011001100110011001100110011 <
b110011001100110011001100110011 [
16
b1000 0
b1000 <"
b10000 l
b11 f
b10000 m
b100 k
b1 g
1;
b1000100010001000100010001000100 :
b1000100010001000100010001000100 \
b1000100010001000100010001000100 !
b1000100010001000100010001000100 ^
b11 8
b11 ]
b11 d
b10 j
1E
#770000
0E
#775000
b0 7
b0 _
b0 <
b0 [
06
b1000 0
b1000 <"
b10000 l
b0 f
b10000 m
b100 k
b10 g
0;
b11000001111100 =
b11000001111100 Z
b11000001111100 c
b1 h
b1 i
b1 j
1E
#780000
0E
#785000
b1000100010001000100010001000100 7
b1000100010001000100010001000100 _
b1000100010001000100010001000100 <
b1000100010001000100010001000100 [
16
b1000 0
b1000 <"
b10000 l
b10000 m
b100 k
b11 g
1;
b10001000100010001000100010001 :
b10001000100010001000100010001 \
b10001000100010001000100010001 !
b10001000100010001000100010001 ^
b0 8
b0 ]
b0 d
b10 j
1E
#790000
0E
#795000
b0 7
b0 _
b0 <
b0 [
06
b1000 0
b1000 <"
b10000 l
b10000 m
b100 k
b100 g
0;
b11000010000000 =
b11000010000000 Z
b11000010000000 c
b0 h
b0 i
1?
b11 j
1E
#800000
0E
#805000
b1000 0
b1000 <"
b10000 l
b10000 m
b100 k
0?
1>
b100 j
1E
#810000
0E
#815000
b1000 0
b1000 <"
b10000 l
b10000 m
b100 k
b0 g
b11 V
1T
0D
1E
#820000
0E
#825000
b1000 0
b1000 <"
b10000 l
b10000 m
b100 k
0B
0>
b0 j
1E
