sim/cache_simple_perf_test_tb.vcd
$date
	Fri Jul 25 09:52:36 2025
$end
$version
	Icarus Verilog
$end
$timescale
	1ps
$end
$scope module cache_simple_perf_test_tb $end
$var wire 32 ! perf_total_writes [31:0] $end
$var wire 32 " perf_total_writebacks [31:0] $end
$var wire 32 # perf_total_misses [31:0] $end
$var wire 32 $ perf_total_hits [31:0] $end
$var wire 32 % perf_total_accesses [31:0] $end
$var wire 16 & perf_hit_rate_percent [15:0] $end
$var wire 32 ' perf_efficiency_metric [31:0] $end
$var wire 1 ( monitor_active $end
$var wire 1 ) mem_write $end
$var wire 32 * mem_wdata [31:0] $end
$var wire 1 + mem_req $end
$var wire 4 , mem_byte_en [3:0] $end
$var wire 32 - mem_addr [31:0] $end
$var wire 1 . cpu_ready $end
$var wire 32 / cpu_rdata [31:0] $end
$var wire 1 0 cpu_hit $end
$var wire 1 1 counters_overflow $end
$var wire 32 2 cache_misses [31:0] $end
$var wire 32 3 cache_hits [31:0] $end
$var wire 1 4 cache_busy $end
$var reg 1 5 cache_enable $end
$var reg 1 6 cache_flush $end
$var reg 1 7 clk $end
$var reg 32 8 cpu_addr [31:0] $end
$var reg 4 9 cpu_byte_en [3:0] $end
$var reg 1 : cpu_req $end
$var reg 2 ; cpu_size [1:0] $end
$var reg 32 < cpu_wdata [31:0] $end
$var reg 1 = cpu_write $end
$var reg 32 > mem_rdata [31:0] $end
$var reg 1 ? mem_ready $end
$var reg 1 @ perf_enable $end
$var reg 1 A perf_reset $end
$var reg 4 B perf_sample_period [3:0] $end
$var reg 1 C rst_n $end
$var integer 32 D test_count [31:0] $end
$var integer 32 E test_passed [31:0] $end
$scope module u_dcache $end
$var wire 1 4 cache_busy $end
$var wire 1 5 cache_enable $end
$var wire 1 6 cache_flush $end
$var wire 1 F cache_hit_internal $end
$var wire 1 7 clk $end
$var wire 32 G coherency_addr [31:0] $end
$var wire 1 H coherency_ready $end
$var wire 1 I coherency_req $end
$var wire 1 J coherency_write $end
$var wire 32 K cpu_addr [31:0] $end
$var wire 4 L cpu_byte_en [3:0] $end
$var wire 1 0 cpu_hit $end
$var wire 1 . cpu_ready $end
$var wire 1 : cpu_req $end
$var wire 2 M cpu_size [1:0] $end
$var wire 32 N cpu_wdata [31:0] $end
$var wire 1 = cpu_write $end
$var wire 32 O mem_rdata [31:0] $end
$var wire 1 ? mem_ready $end
$var wire 1 C rst_n $end
$var wire 2 P word_offset [1:0] $end
$var wire 2 Q byte_offset [1:0] $end
$var wire 24 R addr_tag [23:0] $end
$var wire 4 S addr_offset [3:0] $end
$var wire 4 T addr_index [3:0] $end
$var reg 512 U cache_data_word0 [511:0] $end
$var reg 512 V cache_data_word1 [511:0] $end
$var reg 512 W cache_data_word2 [511:0] $end
$var reg 512 X cache_data_word3 [511:0] $end
$var reg 16 Y cache_dirty [15:0] $end
$var reg 32 Z cache_hits [31:0] $end
$var reg 32 [ cache_misses [31:0] $end
$var reg 384 \ cache_tags [383:0] $end
$var reg 16 ] cache_valid [15:0] $end
$var reg 32 ^ cpu_rdata [31:0] $end
$var reg 2 _ fill_counter [1:0] $end
$var reg 32 ` mem_addr [31:0] $end
$var reg 4 a mem_byte_en [3:0] $end
$var reg 1 + mem_req $end
$var reg 32 b mem_wdata [31:0] $end
$var reg 1 ) mem_write $end
$var reg 4 c miss_index [3:0] $end
$var reg 24 d miss_tag [23:0] $end
$var reg 2 e miss_word_offset [1:0] $end
$var reg 3 f next_state [2:0] $end
$var reg 32 g selected_word [31:0] $end
$var reg 3 h state [2:0] $end
$var reg 32 i write_data_masked [31:0] $end
$var reg 2 j writeback_counter [1:0] $end
$var reg 4 k writeback_index [3:0] $end
$var reg 24 l writeback_tag [23:0] $end
$upscope $end
$scope module u_perf_monitor $end
$var wire 1 7 clk $end
$var wire 32 m coherency_addr [31:0] $end
$var wire 1 n coherency_conflict $end
$var wire 1 o coherency_invalidation $end
$var wire 1 p coherency_overflow $end
$var wire 32 q coherency_total_conflicts [31:0] $end
$var wire 32 r coherency_total_invalidations [31:0] $end
$var wire 1 1 counters_overflow $end
$var wire 1 s dcache_access $end
$var wire 32 t dcache_addr [31:0] $end
$var wire 1 u dcache_eviction $end
$var wire 1 v dcache_fill $end
$var wire 1 w dcache_hit $end
$var wire 1 x dcache_miss $end
$var wire 1 y dcache_overflow $end
$var wire 32 z dcache_total_accesses [31:0] $end
$var wire 32 { dcache_total_evictions [31:0] $end
$var wire 32 | dcache_total_hits [31:0] $end
$var wire 32 } dcache_total_misses [31:0] $end
$var wire 32 ~ dcache_total_writebacks [31:0] $end
$var wire 32 !" dcache_total_writes [31:0] $end
$var wire 1 "" dcache_write $end
$var wire 1 #" dcache_writeback $end
$var wire 1 $" icache_access $end
$var wire 32 %" icache_addr [31:0] $end
$var wire 1 &" icache_eviction $end
$var wire 1 '" icache_fill $end
$var wire 1 (" icache_hit $end
$var wire 1 )" icache_miss $end
$var wire 1 *" icache_overflow $end
$var wire 32 +" icache_total_accesses [31:0] $end
$var wire 32 ," icache_total_evictions [31:0] $end
$var wire 32 -" icache_total_hits [31:0] $end
$var wire 32 ." icache_total_misses [31:0] $end
$var wire 1 /" mmu_asid_switch $end
$var wire 1 0" mmu_overflow $end
$var wire 1 1" mmu_page_fault $end
$var wire 1 2" mmu_tlb_access $end
$var wire 1 3" mmu_tlb_hit $end
$var wire 1 4" mmu_tlb_miss $end
$var wire 32 5" mmu_total_accesses [31:0] $end
$var wire 32 6" mmu_total_asid_switches [31:0] $end
$var wire 32 7" mmu_total_hits [31:0] $end
$var wire 32 8" mmu_total_misses [31:0] $end
$var wire 32 9" mmu_total_page_faults [31:0] $end
$var wire 1 ( monitor_active $end
$var wire 1 @ perf_enable $end
$var wire 1 A perf_reset $end
$var wire 4 :" perf_sample_period [3:0] $end
$var wire 1 C rst_n $end
$var wire 32 ;" weighted_hits [31:0] $end
$var wire 32 <" total_memory_accesses [31:0] $end
$var reg 32 =" cache_efficiency_metric [31:0] $end
$var reg 1 >" coherency_conflict_prev $end
$var reg 32 ?" coherency_conflicts [31:0] $end
$var reg 1 @" coherency_invalidation_prev $end
$var reg 32 A" coherency_invalidations [31:0] $end
$var reg 1 B" dcache_access_prev $end
$var reg 32 C" dcache_accesses [31:0] $end
$var reg 1 D" dcache_eviction_prev $end
$var reg 32 E" dcache_evictions [31:0] $end
$var reg 1 F" dcache_hit_prev $end
$var reg 32 G" dcache_hit_rate_calc [31:0] $end
$var reg 16 H" dcache_hit_rate_percent [15:0] $end
$var reg 32 I" dcache_hits [31:0] $end
$var reg 1 J" dcache_miss_prev $end
$var reg 32 K" dcache_misses [31:0] $end
$var reg 1 L" dcache_write_prev $end
$var reg 1 M" dcache_writeback_prev $end
$var reg 32 N" dcache_writebacks [31:0] $end
$var reg 32 O" dcache_writes [31:0] $end
$var reg 1 P" icache_access_prev $end
$var reg 32 Q" icache_accesses [31:0] $end
$var reg 1 R" icache_eviction_prev $end
$var reg 32 S" icache_evictions [31:0] $end
$var reg 1 T" icache_hit_prev $end
$var reg 32 U" icache_hit_rate_calc [31:0] $end
$var reg 16 V" icache_hit_rate_percent [15:0] $end
$var reg 32 W" icache_hits [31:0] $end
$var reg 1 X" icache_miss_prev $end
$var reg 32 Y" icache_misses [31:0] $end
$var reg 32 Z" mmu_accesses [31:0] $end
$var reg 1 [" mmu_asid_switch_prev $end
$var reg 32 \" mmu_asid_switches [31:0] $end
$var reg 32 ]" mmu_hit_rate_calc [31:0] $end
$var reg 16 ^" mmu_hit_rate_percent [15:0] $end
$var reg 32 _" mmu_hits [31:0] $end
$var reg 32 `" mmu_misses [31:0] $end
$var reg 1 a" mmu_page_fault_prev $end
$var reg 32 b" mmu_page_faults [31:0] $end
$var reg 1 c" mmu_tlb_access_prev $end
$var reg 1 d" mmu_tlb_hit_prev $end
$var reg 1 e" mmu_tlb_miss_prev $end
$var reg 32 f" sample_counter [31:0] $end
$var reg 1 g" sample_tick $end
$upscope $end
$scope begin $ivl_for_loop0 $end
$var integer 32 h" i [31:0] $end
$upscope $end
$scope task cache_access $end
$var reg 32 i" addr [31:0] $end
$var reg 32 j" wdata [31:0] $end
$var reg 1 k" write $end
$upscope $end
$scope task test_basic_cache_performance $end
$scope begin $ivl_for_loop1 $end
$var integer 32 l" i [31:0] $end
$upscope $end
$scope begin $ivl_for_loop2 $end
$var integer 32 m" i [31:0] $end
$upscope $end
$scope begin $ivl_for_loop3 $end
$var integer 32 n" i [31:0] $end
$upscope $end
$upscope $end
$scope task test_cache_efficiency_calculation $end
$scope begin $ivl_for_loop6 $end
$var integer 32 o" round [31:0] $end
$scope begin $ivl_for_loop7 $end
$var integer 32 p" i [31:0] $end
$upscope $end
$upscope $end
$upscope $end
$scope task test_write_back_monitoring $end
$scope begin $ivl_for_loop4 $end
$var integer 32 q" i [31:0] $end
$upscope $end
$scope begin $ivl_for_loop5 $end
$var integer 32 r" i [31:0] $end
$upscope $end
$upscope $end
$upscope $end
$enddefinitions $end
#0
$dumpvars
b0 r"
b0 q"
b0 p"
b0 o"
b0 n"
b0 m"
b0 l"
xk"
bx j"
bx i"
b1000000000000 h"
0g"
b0 f"
0e"
0d"
0c"
b0 b"
0a"
b0 `"
b0 _"
b0 ^"
bx ]"
b0 \"
0["
b0 Z"
b0 Y"
0X"
b0 W"
b0 V"
bx U"
0T"
b0 S"
0R"
b0 Q"
0P"
b0 O"
b0 N"
0M"
0L"
b0 K"
0J"
b0 I"
b0 H"
bx G"
0F"
b0 E"
0D"
b0 C"
0B"
b0 A"
0@"
b0 ?"
0>"
b0 ="
b0 <"
b0 ;"
b100 :"
b0 9"
b0 8"
b0 7"
b0 6"
b0 5"
04"
03"
02"
01"
00"
0/"
b0 ."
b0 -"
b0 ,"
b0 +"
0*"
0)"
0("
0'"
0&"
b0 %"
0$"
0#"
0""
b0 !"
b0 ~
b0 }
b0 |
b0 {
b0 z
0y
0x
0w
0v
0u
b0 t
0s
b0 r
b0 q
0p
0o
0n
b0 m
bx l
bx k
b0 j
b0 i
b0 h
b0 g
b0 f
bx e
bx d
bx c
b0 b
b1111 a
b0 `
b0 _
b0 ^
b0 ]
b0 \
b0 [
b0 Z
b0 Y
b0 X
b0 W
b0 V
b0 U
b0 T
b0 S
b0 R
b0 Q
b0 P
b0 O
b0 N
b10 M
b1111 L
b0 K
0J
0I
0H
b0 G
0F
b0 E
b0 D
0C
b100 B
0A
1@
1?
b0 >
0=
b0 <
b10 ;
0:
b1111 9
b0 8
07
06
15
04
b0 3
b0 2
01
00
b0 /
0.
b0 -
b1111 ,
0+
b0 *
0)
1(
b0 '
b0 &
b0 %
b0 $
b0 #
b0 "
b0 !
$end
#5000
17
#10000
07
#15000
17
#20000
07
#25000
17
#30000
07
#35000
17
#40000
07
#45000
b1 f"
1C
17
#50000
07
#55000
b10 f"
17
#60000
07
#65000
b11 f"
17
#70000
07
#75000
b100 f"
17
#80000
07
#85000
b101 f"
17
#90000
07
#95000
b110 f"
17
#100000
07
#105000
b111 f"
17
#110000
07
#115000
b1000 f"
17
#120000
07
#125000
b1001 f"
17
#130000
07
#135000
b1010 f"
17
#140000
07
#145000
b1011 f"
16
1A
b1 D
17
#150000
07
#155000
b1100 f"
06
0A
17
#160000
07
#165000
b1101 f"
1s
b1 f
b1000000000000 -
b1000000000000 `
b10000 R
1:
b1000000000000 G
b1000000000000 8
b1000000000000 K
b1000000000000 t
b0 j"
0k"
b1000000000000 i"
17
#170000
07
#175000
b11 f
14
b1 h
b1110 f"
1B"
b1 <"
b1 %
b1 z
b1 C"
17
#180000
07
#185000
1v
1+
b1111 f"
b0 e
b0 c
b10000 d
b1 2
b1 [
b11 h
17
#190000
07
#195000
b1000000000100 -
b1000000000100 `
1+
b1 _
1g"
b0 f"
b11001010111111100000010000000000 >
b11001010111111100000010000000000 O
17
#200000
07
#205000
b1000000001000 -
b1000000001000 `
1+
b11001010111111100000010000000001 >
b11001010111111100000010000000001 O
0g"
b1 f"
b10 _
b11001010111111100000010000000000 V
b0 G"
17
#210000
07
#215000
b100 f
b1000000001100 -
b1000000001100 `
1+
b11 _
b11001010111111100000010000000001 W
b10 f"
b11001010111111100000010000000010 >
b11001010111111100000010000000010 O
17
#220000
07
#225000
0v
1x
1F
b1000000000000 -
b1000000000000 `
0+
b0 f
1H
1.
04
b11001010111111100000010000000011 >
b11001010111111100000010000000011 O
b11 f"
b0 _
b10000 \
b1 ]
b11001010111111100000010000000010 X
b100 h
17
#230000
07
#235000
0H
0.
b0 h
b100 f"
1J"
b1 #
b1 }
b1 K"
0x
b0 f
0s
0:
17
#240000
07
#245000
0J"
0B"
b101 f"
0F
1s
b1 f
b1000100000000 -
b1000100000000 `
b10001 R
1:
b1000100000000 G
b1000100000000 8
b1000100000000 K
b1000100000000 t
b1000100000000 i"
b1 l"
17
#250000
07
#255000
b11 f
14
b1 h
b110 f"
1B"
b10 <"
b10 %
b10 z
b10 C"
17
#260000
07
#265000
1v
1+
b111 f"
b10001 d
b10 2
b10 [
b11 h
17
#270000
07
#275000
b11001010111111100000010000000011 /
b11001010111111100000010000000011 ^
b0 i
b11001010111111100000010000000011 g
b1000100000100 -
b1000100000100 `
1+
b1 _
b11001010111111100000010000000011 U
b1000 f"
b11001010111111100000010001000000 >
b11001010111111100000010001000000 O
17
#280000
07
#285000
b0 i
b1000100001000 -
b1000100001000 `
1+
b11001010111111100000010001000001 >
b11001010111111100000010001000001 O
b1001 f"
b10 _
b11001010111111100000010001000000 V
17
#290000
07
#295000
b0 i
b100 f
b1000100001100 -
b1000100001100 `
1+
b11 _
b11001010111111100000010001000001 W
b1010 f"
b11001010111111100000010001000010 >
b11001010111111100000010001000010 O
17
#300000
07
#305000
0v
1x
1F
b1000100000000 -
b1000100000000 `
0+
b0 i
b0 f
1H
1.
04
b11001010111111100000010001000011 >
b11001010111111100000010001000011 O
b1011 f"
b0 _
b10001 \
b11001010111111100000010001000010 X
b100 h
17
#310000
07
#315000
0H
0.
b0 h
b1100 f"
1J"
b10 #
b10 }
b10 K"
0x
b0 i
b0 f
0s
0:
17
#320000
07
#325000
0J"
0B"
b1101 f"
0F
1s
b0 i
b1 f
b1001000000000 -
b1001000000000 `
b10010 R
1:
b1001000000000 G
b1001000000000 8
b1001000000000 K
b1001000000000 t
b1001000000000 i"
b10 l"
17
#330000
07
#335000
b0 i
b11 f
14
b1 h
b1110 f"
1B"
b11 <"
b11 %
b11 z
b11 C"
17
#340000
07
#345000
1v
1+
b0 i
b1111 f"
b10010 d
b11 2
b11 [
b11 h
17
#350000
07
#355000
b11001010111111100000010001000011 /
b11001010111111100000010001000011 ^
b11001010111111100000010001000011 g
b0 i
b1001000000100 -
b1001000000100 `
1+
b1 _
b11001010111111100000010001000011 U
1g"
b0 f"
b11001010111111100000010010000000 >
b11001010111111100000010010000000 O
17
#360000
07
#365000
b0 i
b1001000001000 -
b1001000001000 `
1+
b11001010111111100000010010000001 >
b11001010111111100000010010000001 O
0g"
b1 f"
b10 _
b11001010111111100000010010000000 V
17
#370000
07
#375000
b0 i
b100 f
b1001000001100 -
b1001000001100 `
1+
b11 _
b11001010111111100000010010000001 W
b10 f"
b11001010111111100000010010000010 >
b11001010111111100000010010000010 O
17
#380000
07
#385000
0v
1x
1F
b1001000000000 -
b1001000000000 `
0+
b0 i
b0 f
1H
1.
04
b11001010111111100000010010000011 >
b11001010111111100000010010000011 O
b11 f"
b0 _
b10010 \
b11001010111111100000010010000010 X
b100 h
17
#390000
07
#395000
0H
0.
b0 h
b100 f"
1J"
b11 #
b11 }
b11 K"
0x
b0 i
b0 f
0s
0:
17
#400000
07
#405000
0J"
0B"
b101 f"
0F
1s
b0 i
b1 f
b1001100000000 -
b1001100000000 `
b10011 R
1:
b1001100000000 G
b1001100000000 8
b1001100000000 K
b1001100000000 t
b1001100000000 i"
b11 l"
17
#410000
07
#415000
b0 i
b11 f
14
b1 h
b110 f"
1B"
b100 <"
b100 %
b100 z
b100 C"
17
#420000
07
#425000
1v
1+
b0 i
b111 f"
b10011 d
b100 2
b100 [
b11 h
17
#430000
07
#435000
b11001010111111100000010010000011 /
b11001010111111100000010010000011 ^
b11001010111111100000010010000011 g
b0 i
b1001100000100 -
b1001100000100 `
1+
b1 _
b11001010111111100000010010000011 U
b1000 f"
b11001010111111100000010011000000 >
b11001010111111100000010011000000 O
17
#440000
07
#445000
b0 i
b1001100001000 -
b1001100001000 `
1+
b11001010111111100000010011000001 >
b11001010111111100000010011000001 O
b1001 f"
b10 _
b11001010111111100000010011000000 V
17
#450000
07
#455000
b0 i
b100 f
b1001100001100 -
b1001100001100 `
1+
b11 _
b11001010111111100000010011000001 W
b1010 f"
b11001010111111100000010011000010 >
b11001010111111100000010011000010 O
17
#460000
07
#465000
0v
1x
1F
b1001100000000 -
b1001100000000 `
0+
b0 i
b0 f
1H
1.
04
b11001010111111100000010011000011 >
b11001010111111100000010011000011 O
b1011 f"
b0 _
b10011 \
b11001010111111100000010011000010 X
b100 h
17
#470000
07
#475000
0H
0.
b0 h
b1100 f"
1J"
b100 #
b100 }
b100 K"
0x
b0 i
b0 f
0s
0:
17
#480000
07
#485000
0J"
0B"
b1101 f"
0F
1s
b0 i
b1 f
b1000000000000 -
b1000000000000 `
b10000 R
1:
b1000000000000 G
b1000000000000 8
b1000000000000 K
b1000000000000 t
b1000000000000 i"
b100 l"
17
#490000
07
#495000
b0 i
b11 f
14
b1 h
b1110 f"
1B"
b101 <"
b101 %
b101 z
b101 C"
17
#500000
07
#505000
1v
1+
b0 i
b1111 f"
b10000 d
b101 2
b101 [
b11 h
17
#510000
07
#515000
b11001010111111100000010011000011 /
b11001010111111100000010011000011 ^
b11001010111111100000010011000011 g
b0 i
b1000000000100 -
b1000000000100 `
1+
b1 _
b11001010111111100000010011000011 U
1g"
b0 f"
b11001010111111100000010000000000 >
b11001010111111100000010000000000 O
17
#520000
07
#525000
b0 i
b1000000001000 -
b1000000001000 `
1+
b11001010111111100000010000000001 >
b11001010111111100000010000000001 O
0g"
b1 f"
b10 _
b11001010111111100000010000000000 V
17
#530000
07
#535000
b0 i
b100 f
b1000000001100 -
b1000000001100 `
1+
b11 _
b11001010111111100000010000000001 W
b10 f"
b11001010111111100000010000000010 >
b11001010111111100000010000000010 O
17
#540000
07
#545000
0v
1x
1F
b1000000000000 -
b1000000000000 `
0+
b0 i
b0 f
1H
1.
04
b11001010111111100000010000000011 >
b11001010111111100000010000000011 O
b11 f"
b0 _
b10000 \
b11001010111111100000010000000010 X
b100 h
17
#550000
07
#555000
0H
0.
b0 h
b100 f"
1J"
b101 #
b101 }
b101 K"
0x
b0 i
b0 f
0s
0:
17
#560000
07
#565000
0J"
0B"
b101 f"
0F
1s
b0 i
b1 f
b1000100000000 -
b1000100000000 `
b10001 R
1:
b1000100000000 G
b1000100000000 8
b1000100000000 K
b1000100000000 t
b1000100000000 i"
b1 m"
17
#570000
07
#575000
b0 i
b11 f
14
b1 h
b110 f"
1B"
b110 <"
b110 %
b110 z
b110 C"
17
#580000
07
#585000
1v
1+
b0 i
b111 f"
b10001 d
b110 2
b110 [
b11 h
17
#590000
07
#595000
b11001010111111100000010000000011 /
b11001010111111100000010000000011 ^
b11001010111111100000010000000011 g
b0 i
b1000100000100 -
b1000100000100 `
1+
b1 _
b11001010111111100000010000000011 U
b1000 f"
b11001010111111100000010001000000 >
b11001010111111100000010001000000 O
17
#600000
07
#605000
b0 i
b1000100001000 -
b1000100001000 `
1+
b11001010111111100000010001000001 >
b11001010111111100000010001000001 O
b1001 f"
b10 _
b11001010111111100000010001000000 V
17
#610000
07
#615000
b0 i
b100 f
b1000100001100 -
b1000100001100 `
1+
b11 _
b11001010111111100000010001000001 W
b1010 f"
b11001010111111100000010001000010 >
b11001010111111100000010001000010 O
17
#620000
07
#625000
0v
1x
1F
b1000100000000 -
b1000100000000 `
0+
b0 i
b0 f
1H
1.
04
b11001010111111100000010001000011 >
b11001010111111100000010001000011 O
b1011 f"
b0 _
b10001 \
b11001010111111100000010001000010 X
b100 h
17
#630000
07
#635000
0H
0.
b0 h
b1100 f"
1J"
b110 #
b110 }
b110 K"
0x
b0 i
b0 f
0s
0:
17
#640000
07
#645000
0J"
0B"
b1101 f"
0F
1s
b0 i
b1 f
b1001000000000 -
b1001000000000 `
b10010 R
1:
b1001000000000 G
b1001000000000 8
b1001000000000 K
b1001000000000 t
b1001000000000 i"
b10 m"
17
#650000
07
#655000
b0 i
b11 f
14
b1 h
b1110 f"
1B"
b111 <"
b111 %
b111 z
b111 C"
17
#660000
07
#665000
1v
1+
b0 i
b1111 f"
b10010 d
b111 2
b111 [
b11 h
17
#670000
07
#675000
b11001010111111100000010001000011 /
b11001010111111100000010001000011 ^
b11001010111111100000010001000011 g
b0 i
b1001000000100 -
b1001000000100 `
1+
b1 _
b11001010111111100000010001000011 U
1g"
b0 f"
b11001010111111100000010010000000 >
b11001010111111100000010010000000 O
17
#680000
07
#685000
b0 i
b1001000001000 -
b1001000001000 `
1+
b11001010111111100000010010000001 >
b11001010111111100000010010000001 O
0g"
b1 f"
b10 _
b11001010111111100000010010000000 V
17
#690000
07
#695000
b0 i
b100 f
b1001000001100 -
b1001000001100 `
1+
b11 _
b11001010111111100000010010000001 W
b10 f"
b11001010111111100000010010000010 >
b11001010111111100000010010000010 O
17
#700000
07
#705000
0v
1x
1F
b1001000000000 -
b1001000000000 `
0+
b0 i
b0 f
1H
1.
04
b11001010111111100000010010000011 >
b11001010111111100000010010000011 O
b11 f"
b0 _
b10010 \
b11001010111111100000010010000010 X
b100 h
17
#710000
07
#715000
0H
0.
b0 h
b100 f"
1J"
b111 #
b111 }
b111 K"
0x
b0 i
b0 f
0s
0:
17
#720000
07
#725000
0J"
0B"
b101 f"
0F
1s
b0 i
b1 f
b1001100000000 -
b1001100000000 `
b10011 R
1:
b1001100000000 G
b1001100000000 8
b1001100000000 K
b1001100000000 t
b1001100000000 i"
b11 m"
17
#730000
07
#735000
b0 i
b11 f
14
b1 h
b110 f"
1B"
b1000 <"
b1000 %
b1000 z
b1000 C"
17
#740000
07
#745000
1v
1+
b0 i
b111 f"
b10011 d
b1000 2
b1000 [
b11 h
17
#750000
07
#755000
b11001010111111100000010010000011 /
b11001010111111100000010010000011 ^
b11001010111111100000010010000011 g
b0 i
b1001100000100 -
b1001100000100 `
1+
b1 _
b11001010111111100000010010000011 U
b1000 f"
b11001010111111100000010011000000 >
b11001010111111100000010011000000 O
17
#760000
07
#765000
b0 i
b1001100001000 -
b1001100001000 `
1+
b11001010111111100000010011000001 >
b11001010111111100000010011000001 O
b1001 f"
b10 _
b11001010111111100000010011000000 V
17
#770000
07
#775000
b0 i
b100 f
b1001100001100 -
b1001100001100 `
1+
b11 _
b11001010111111100000010011000001 W
b1010 f"
b11001010111111100000010011000010 >
b11001010111111100000010011000010 O
17
#780000
07
#785000
0v
1x
1F
b1001100000000 -
b1001100000000 `
0+
b0 i
b0 f
1H
1.
04
b11001010111111100000010011000011 >
b11001010111111100000010011000011 O
b1011 f"
b0 _
b10011 \
b11001010111111100000010011000010 X
b100 h
17
#790000
07
#795000
0H
0.
b0 h
b1100 f"
1J"
b1000 #
b1000 }
b1000 K"
0x
b0 i
b0 f
0s
0:
17
#800000
07
#805000
0J"
0B"
b1101 f"
1I
1""
0F
1s
b11011110101011011011111011101111 i
b1 f
b11011110101011011011111011101111 *
b11011110101011011011111011101111 b
b1000000000000 -
b1000000000000 `
b10000 R
b11011110101011011011111011101111 <
b11011110101011011011111011101111 N
1J
1=
1:
b1000000000000 G
b1000000000000 8
b1000000000000 K
b1000000000000 t
b11011110101011011011111011101111 j"
1k"
b1000000000000 i"
b100 m"
17
#810000
07
#815000
b11011110101011011011111011101111 i
b11 f
14
b1 h
b1110 f"
1L"
1B"
b1 !
b1 !"
b1 O"
b1001 <"
b1001 %
b1001 z
b1001 C"
17
#820000
07
#825000
1v
b0 *
b0 b
1+
b11011110101011011011111011101111 i
b1111 f"
b10000 d
b1001 2
b1001 [
b11 h
17
#830000
07
#835000
b11001010111111100000010011000011 /
b11001010111111100000010011000011 ^
b11001010111111100000010011000011 g
b11011110101011011011111011101111 i
b1000000000100 -
b1000000000100 `
b0 *
b0 b
1+
b1 _
b11001010111111100000010011000011 U
1g"
b0 f"
b11001010111111100000010000000000 >
b11001010111111100000010000000000 O
17
#840000
07
#845000
b11011110101011011011111011101111 i
b0 *
b0 b
b1000000001000 -
b1000000001000 `
1+
b11001010111111100000010000000001 >
b11001010111111100000010000000001 O
0g"
b1 f"
b10 _
b11001010111111100000010000000000 V
17
#850000
07
#855000
b11011110101011011011111011101111 i
b100 f
b0 *
b0 b
b1000000001100 -
b1000000001100 `
1+
b11 _
b11001010111111100000010000000001 W
b10 f"
b11001010111111100000010000000010 >
b11001010111111100000010000000010 O
17
#860000
07
#865000
0v
1x
b11011110101011011011111011101111 /
b11011110101011011011111011101111 ^
1F
b11011110101011011011111011101111 *
b11011110101011011011111011101111 b
b1000000000000 -
b1000000000000 `
0+
b11011110101011011011111011101111 g
b11011110101011011011111011101111 i
b0 f
1H
1.
04
b11001010111111100000010000000011 >
b11001010111111100000010000000011 O
b11 f"
b1 Y
b11011110101011011011111011101111 U
b0 _
b10000 \
b11001010111111100000010000000010 X
b100 h
17
#870000
07
#875000
0H
0.
b0 h
b100 f"
1J"
b1001 #
b1001 }
b1001 K"
0x
0I
0""
b0 f
0s
0:
17
#880000
07
#885000
0L"
0J"
0B"
b101 f"
1I
1""
0F
1s
b11011110101011011011111011110000 i
b1 f
b11011110101011011011111011110000 *
b11011110101011011011111011110000 b
b1000100000000 -
b1000100000000 `
b10001 R
b11011110101011011011111011110000 <
b11011110101011011011111011110000 N
1:
b1000100000000 G
b1000100000000 8
b1000100000000 K
b1000100000000 t
b11011110101011011011111011110000 j"
b1000100000000 i"
b1 n"
17
#890000
07
#895000
b11011110101011011011111011110000 i
b10 f
14
b1 h
b110 f"
1L"
1B"
b10 !
b10 !"
b10 O"
b1010 <"
b1010 %
b1010 z
b1010 C"
17
#900000
07
#905000
1#"
b11011110101011011011111011101111 *
b11011110101011011011111011101111 b
b1000000000000 -
b1000000000000 `
1)
1+
b11011110101011011011111011110000 i
b111 f"
b0 k
b10000 l
b10001 d
b1010 2
b1010 [
b10 h
17
#910000
07
#915000
b11001010111111100000010000000000 *
b11001010111111100000010000000000 b
b1000000000100 -
b1000000000100 `
1)
1+
b11011110101011011011111011110000 i
b1 j
b1000 f"
1M"
b1 "
b1 ~
b1 N"
17
#920000
07
#925000
b11001010111111100000010000000001 *
b11001010111111100000010000000001 b
b1000000001000 -
b1000000001000 `
1)
1+
b11011110101011011011111011110000 i
b1001 f"
b10 j
17
#930000
07
#935000
b11001010111111100000010000000010 *
b11001010111111100000010000000010 b
b1000000001100 -
b1000000001100 `
1)
1+
b11011110101011011011111011110000 i
b11 f
b11 j
b1010 f"
17
#940000
07
#945000
0#"
1v
b0 *
b0 b
b1000100000000 -
b1000100000000 `
0)
1+
b11011110101011011011111011110000 i
b1011 f"
b0 j
b0 Y
b11 h
17
#950000
07
#955000
b11001010111111100000010000000011 /
b11001010111111100000010000000011 ^
b11001010111111100000010000000011 g
b11011110101011011011111011110000 i
b1000100000100 -
b1000100000100 `
b0 *
b0 b
1+
b1 _
b11001010111111100000010000000011 U
b1100 f"
0M"
b11001010111111100000010001000000 >
b11001010111111100000010001000000 O
17
#960000
07
#965000
b11011110101011011011111011110000 i
b0 *
b0 b
b1000100001000 -
b1000100001000 `
1+
b11001010111111100000010001000001 >
b11001010111111100000010001000001 O
b1101 f"
b10 _
b11001010111111100000010001000000 V
17
#970000
07
#975000
b11011110101011011011111011110000 i
b100 f
b0 *
b0 b
b1000100001100 -
b1000100001100 `
1+
b11 _
b11001010111111100000010001000001 W
b1110 f"
b11001010111111100000010001000010 >
b11001010111111100000010001000010 O
17
#980000
07
#985000
0v
1x
b11011110101011011011111011110000 /
b11011110101011011011111011110000 ^
1F
b11011110101011011011111011110000 *
b11011110101011011011111011110000 b
b1000100000000 -
b1000100000000 `
0+
b11011110101011011011111011110000 g
b11011110101011011011111011110000 i
b0 f
1H
1.
04
b11001010111111100000010001000011 >
b11001010111111100000010001000011 O
b1111 f"
b1 Y
b11011110101011011011111011110000 U
b0 _
b10001 \
b11001010111111100000010001000010 X
b100 h
17
#990000
07
#995000
0H
0.
b0 h
1g"
b0 f"
1J"
b1010 #
b1010 }
b1010 K"
0x
0I
0""
b0 f
0s
0:
17
#1000000
07
#1005000
0L"
0J"
0B"
0g"
b1 f"
b10 n"
17
#1010000
07
#1015000
b10 f"
17
#1020000
07
#1025000
b11 f"
17
#1030000
07
#1035000
b100 f"
17
#1040000
07
#1045000
b101 f"
17
#1050000
07
#1055000
b110 f"
17
#1060000
07
#1065000
b111 f"
17
#1070000
07
#1075000
b1000 f"
17
#1080000
07
#1085000
b1001 f"
17
#1090000
07
#1095000
b1010 f"
17
#1100000
07
#1105000
b1011 f"
17
#1110000
07
#1115000
b1100 f"
17
#1120000
07
#1125000
b1101 f"
17
#1130000
07
#1135000
b1110 f"
17
#1140000
07
#1145000
b1111 f"
17
#1150000
07
#1155000
1g"
b0 f"
17
#1160000
07
#1165000
0g"
b1 f"
17
#1170000
07
#1175000
b10 f"
17
#1180000
07
#1185000
b11 f"
17
#1190000
07
#1195000
b100 f"
17
#1200000
07
#1205000
b101 f"
17
#1210000
07
#1215000
b110 f"
17
#1220000
07
#1225000
b111 f"
17
#1230000
07
#1235000
b1000 f"
17
#1240000
07
#1245000
b1001 f"
17
#1250000
07
#1255000
b1010 f"
17
#1260000
07
#1265000
b1011 f"
17
#1270000
07
#1275000
b1100 f"
17
#1280000
07
#1285000
b1101 f"
17
#1290000
07
