sim/cache_coherency_test_tb.vcd
$date
	Fri Jul 25 08:02:07 2025
$end
$version
	Icarus Verilog
$end
$timescale
	1ps
$end
$scope module cache_coherency_test_tb $end
$var wire 1 ! mem_write $end
$var wire 32 " mem_wdata [31:0] $end
$var wire 1 # mem_req $end
$var wire 4 $ mem_byte_en [3:0] $end
$var wire 3 % mem_burst_len [2:0] $end
$var wire 32 & mem_addr [31:0] $end
$var wire 32 ' icache_misses [31:0] $end
$var wire 32 ( icache_hits [31:0] $end
$var wire 1 ) icache_busy $end
$var wire 32 * dcache_misses [31:0] $end
$var wire 32 + dcache_hits [31:0] $end
$var wire 1 , dcache_busy $end
$var wire 1 - cpu_iready $end
$var wire 1 . cpu_ihit $end
$var wire 32 / cpu_idata [31:0] $end
$var wire 1 0 cpu_dready $end
$var wire 32 1 cpu_drdata [31:0] $end
$var wire 1 2 cpu_dhit $end
$var wire 32 3 coherency_invalidations [31:0] $end
$var wire 1 4 coherency_busy $end
$var reg 32 5 burst_base_addr [31:0] $end
$var reg 3 6 burst_counter [2:0] $end
$var reg 1 7 cache_enable $end
$var reg 1 8 clk $end
$var reg 32 9 code_region_base [31:0] $end
$var reg 32 : code_region_size [31:0] $end
$var reg 1 ; coherency_enable $end
$var reg 32 < cpu_daddr [31:0] $end
$var reg 4 = cpu_dbyte_en [3:0] $end
$var reg 1 > cpu_dreq $end
$var reg 2 ? cpu_dsize [1:0] $end
$var reg 32 @ cpu_dwdata [31:0] $end
$var reg 1 A cpu_dwrite $end
$var reg 32 B cpu_iaddr [31:0] $end
$var reg 1 C cpu_ireq $end
$var reg 1 D cpu_thumb_mode $end
$var reg 1 E dcache_flush $end
$var reg 1 F icache_flush $end
$var reg 1 G icache_invalidate $end
$var reg 32 H mem_rdata [31:0] $end
$var reg 1 I mem_ready $end
$var reg 1 J mem_valid $end
$var reg 32 K prev_invalidations [31:0] $end
$var reg 1 L rst_n $end
$var integer 32 M test_count [31:0] $end
$var integer 32 N test_passed [31:0] $end
$scope module u_cache_subsystem $end
$var wire 1 O MEM_ICACHE $end
$var wire 1 7 cache_enable $end
$var wire 1 8 clk $end
$var wire 32 P code_region_base [31:0] $end
$var wire 32 Q code_region_size [31:0] $end
$var wire 1 ; coherency_enable $end
$var wire 32 R cpu_daddr [31:0] $end
$var wire 4 S cpu_dbyte_en [3:0] $end
$var wire 1 > cpu_dreq $end
$var wire 2 T cpu_dsize [1:0] $end
$var wire 32 U cpu_dwdata [31:0] $end
$var wire 1 A cpu_dwrite $end
$var wire 32 V cpu_iaddr [31:0] $end
$var wire 1 C cpu_ireq $end
$var wire 1 D cpu_thumb_mode $end
$var wire 1 E dcache_flush $end
$var wire 1 F icache_flush $end
$var wire 1 G icache_invalidate $end
$var wire 3 W icache_mem_burst_len [2:0] $end
$var wire 32 X mem_rdata [31:0] $end
$var wire 1 I mem_ready $end
$var wire 1 J mem_valid $end
$var wire 1 L rst_n $end
$var wire 32 Y icache_misses [31:0] $end
$var wire 1 Z icache_mem_req $end
$var wire 32 [ icache_mem_addr [31:0] $end
$var wire 32 \ icache_hits [31:0] $end
$var wire 1 ) icache_busy $end
$var wire 32 ] dcache_misses [31:0] $end
$var wire 1 ^ dcache_mem_write $end
$var wire 32 _ dcache_mem_wdata [31:0] $end
$var wire 1 ` dcache_mem_req $end
$var wire 4 a dcache_mem_byte_en [3:0] $end
$var wire 32 b dcache_mem_addr [31:0] $end
$var wire 32 c dcache_hits [31:0] $end
$var wire 1 d dcache_coherency_write $end
$var wire 1 e dcache_coherency_req $end
$var wire 1 f dcache_coherency_ready $end
$var wire 32 g dcache_coherency_addr [31:0] $end
$var wire 1 , dcache_busy $end
$var wire 1 - cpu_iready $end
$var wire 1 . cpu_ihit $end
$var wire 32 h cpu_idata [31:0] $end
$var wire 1 0 cpu_dready $end
$var wire 32 i cpu_drdata [31:0] $end
$var wire 1 2 cpu_dhit $end
$var wire 32 j coherency_invalidations [31:0] $end
$var wire 1 k coherency_invalidate_req $end
$var wire 32 l coherency_invalidate_addr [31:0] $end
$var wire 1 m coherency_invalidate_ack $end
$var wire 1 4 coherency_busy $end
$var reg 1 n dcache_mem_ready $end
$var reg 1 o icache_mem_ready $end
$var reg 32 p mem_addr [31:0] $end
$var reg 3 q mem_burst_len [2:0] $end
$var reg 4 r mem_byte_en [3:0] $end
$var reg 1 # mem_req $end
$var reg 2 s mem_state [1:0] $end
$var reg 32 t mem_wdata [31:0] $end
$var reg 1 ! mem_write $end
$scope module u_coherency $end
$var wire 1 8 clk $end
$var wire 32 u code_region_base [31:0] $end
$var wire 32 v code_region_size [31:0] $end
$var wire 1 ; coherency_enable $end
$var wire 1 L rst_n $end
$var wire 32 w icache_line_base [31:0] $end
$var wire 1 k icache_invalidate_req $end
$var wire 32 x icache_invalidate_addr [31:0] $end
$var wire 1 m icache_invalidate_ack $end
$var wire 1 d dcache_write $end
$var wire 1 e dcache_req $end
$var wire 1 f dcache_ready $end
$var wire 32 y dcache_line_base [31:0] $end
$var wire 32 z dcache_addr [31:0] $end
$var wire 1 4 coherency_busy $end
$var reg 32 { coherency_invalidations [31:0] $end
$var reg 1 | in_code_region $end
$var reg 1 } invalidate_needed $end
$var reg 2 ~ next_state [1:0] $end
$var reg 32 !" pending_invalidate_addr [31:0] $end
$var reg 2 "" state [1:0] $end
$upscope $end
$scope module u_dcache $end
$var wire 1 , cache_busy $end
$var wire 1 7 cache_enable $end
$var wire 1 E cache_flush $end
$var wire 1 #" cache_hit_internal $end
$var wire 1 8 clk $end
$var wire 32 $" coherency_addr [31:0] $end
$var wire 1 f coherency_ready $end
$var wire 1 e coherency_req $end
$var wire 1 d coherency_write $end
$var wire 32 %" cpu_addr [31:0] $end
$var wire 4 &" cpu_byte_en [3:0] $end
$var wire 1 2 cpu_hit $end
$var wire 1 0 cpu_ready $end
$var wire 1 > cpu_req $end
$var wire 2 '" cpu_size [1:0] $end
$var wire 32 (" cpu_wdata [31:0] $end
$var wire 1 A cpu_write $end
$var wire 32 )" mem_rdata [31:0] $end
$var wire 1 n mem_ready $end
$var wire 1 L rst_n $end
$var wire 2 *" word_offset [1:0] $end
$var wire 2 +" byte_offset [1:0] $end
$var wire 22 ," addr_tag [21:0] $end
$var wire 4 -" addr_offset [3:0] $end
$var wire 6 ." addr_index [5:0] $end
$var reg 2048 /" cache_data_word0 [2047:0] $end
$var reg 2048 0" cache_data_word1 [2047:0] $end
$var reg 2048 1" cache_data_word2 [2047:0] $end
$var reg 2048 2" cache_data_word3 [2047:0] $end
$var reg 64 3" cache_dirty [63:0] $end
$var reg 32 4" cache_hits [31:0] $end
$var reg 32 5" cache_misses [31:0] $end
$var reg 1408 6" cache_tags [1407:0] $end
$var reg 64 7" cache_valid [63:0] $end
$var reg 32 8" cpu_rdata [31:0] $end
$var reg 2 9" fill_counter [1:0] $end
$var reg 32 :" mem_addr [31:0] $end
$var reg 4 ;" mem_byte_en [3:0] $end
$var reg 1 ` mem_req $end
$var reg 32 <" mem_wdata [31:0] $end
$var reg 1 ^ mem_write $end
$var reg 6 =" miss_index [5:0] $end
$var reg 22 >" miss_tag [21:0] $end
$var reg 2 ?" miss_word_offset [1:0] $end
$var reg 3 @" next_state [2:0] $end
$var reg 32 A" selected_word [31:0] $end
$var reg 3 B" state [2:0] $end
$var reg 32 C" write_data_masked [31:0] $end
$var reg 2 D" writeback_counter [1:0] $end
$var reg 6 E" writeback_index [5:0] $end
$var reg 22 F" writeback_tag [21:0] $end
$upscope $end
$scope module u_icache $end
$var wire 1 ) cache_busy $end
$var wire 1 7 cache_enable $end
$var wire 1 F cache_flush $end
$var wire 1 G" cache_hit_internal $end
$var wire 1 G cache_invalidate $end
$var wire 1 8 clk $end
$var wire 1 m coherency_invalidate_ack $end
$var wire 32 H" coherency_invalidate_addr [31:0] $end
$var wire 1 k coherency_invalidate_req $end
$var wire 1 I" coherency_match $end
$var wire 32 J" cpu_addr [31:0] $end
$var wire 1 . cpu_hit $end
$var wire 1 - cpu_ready $end
$var wire 1 C cpu_req $end
$var wire 1 D cpu_thumb_mode $end
$var wire 3 K" mem_burst_len [2:0] $end
$var wire 32 L" mem_data [31:0] $end
$var wire 1 o mem_ready $end
$var wire 1 M" mem_valid $end
$var wire 1 L rst_n $end
$var wire 32 N" selected_word [31:0] $end
$var wire 2 O" word_select [1:0] $end
$var wire 1 P" tag_match $end
$var wire 1 Z mem_req $end
$var wire 32 Q" mem_addr [31:0] $end
$var wire 20 R" coherency_tag [19:0] $end
$var wire 7 S" coherency_index [6:0] $end
$var wire 20 T" addr_tag [19:0] $end
$var wire 5 U" addr_offset [4:0] $end
$var wire 7 V" addr_index [6:0] $end
$var reg 32 W" cache_hits [31:0] $end
$var reg 32 X" cache_misses [31:0] $end
$var reg 1 Y" coherency_ack_reg $end
$var reg 32 Z" cpu_data [31:0] $end
$var reg 3 [" fill_counter [2:0] $end
$var reg 7 \" fill_index [6:0] $end
$var reg 20 ]" fill_tag [19:0] $end
$var reg 3 ^" next_state [2:0] $end
$var reg 3 _" state [2:0] $end
$scope begin $ivl_for_loop0 $end
$var integer 32 `" i [31:0] $end
$upscope $end
$scope begin $ivl_for_loop1 $end
$var integer 32 a" i [31:0] $end
$upscope $end
$scope begin $unm_blk_1 $end
$var reg 32 b" output_word [31:0] $end
$upscope $end
$upscope $end
$upscope $end
$scope begin $ivl_for_loop2 $end
$var integer 32 c" i [31:0] $end
$upscope $end
$scope task data_write $end
$var reg 32 d" addr [31:0] $end
$var reg 4 e" byte_en [3:0] $end
$var reg 2 f" size [1:0] $end
$var reg 32 g" wdata [31:0] $end
$upscope $end
$scope task instruction_fetch $end
$var reg 32 h" addr [31:0] $end
$var reg 32 i" expected_data [31:0] $end
$var reg 1 j" thumb_mode $end
$upscope $end
$scope task wait_coherency_idle $end
$upscope $end
$upscope $end
$enddefinitions $end
#0
$dumpvars
xj"
bx i"
bx h"
bx g"
bx f"
bx e"
bx d"
b10000000000000000 c"
bx b"
b0 a"
b10000000 `"
b0 _"
b0 ^"
b0 ]"
b0 \"
b0 ["
bx Z"
0Y"
b0 X"
b0 W"
b0 V"
b0 U"
b0 T"
b0 S"
b0 R"
b0 Q"
1P"
b0 O"
bx N"
0M"
b0 L"
b111 K"
b0 J"
0I"
b0 H"
0G"
bx F"
bx E"
b0 D"
b0 C"
b0 B"
b0 A"
b0 @"
bx ?"
bx >"
bx ="
b0 <"
b1111 ;"
b0 :"
b0 9"
b0 8"
b0 7"
b0 6"
b0 5"
b0 4"
b0 3"
b0 2"
b0 1"
b0 0"
b0 /"
b0 ."
b0 -"
b0 ,"
b0 +"
b0 *"
b0 )"
b0 ("
b10 '"
b1111 &"
b0 %"
b0 $"
0#"
b0 ""
b0 !"
b0 ~
0}
0|
b0 {
b0 z
b0 y
b0 x
b0 w
b1000000000000 v
b1000000000000 u
b0 t
b0 s
b0 r
b0 q
b0 p
0o
0n
0m
b0 l
0k
b0 j
b0 i
bx h
b0 g
0f
0e
0d
b0 c
b0 b
b1111 a
0`
b0 _
0^
b0 ]
b0 \
b0 [
0Z
b0 Y
b0 X
b111 W
b0 V
b0 U
b10 T
b1111 S
b0 R
b1000000000000 Q
b1000000000000 P
zO
b0 N
b0 M
0L
bx K
0J
1I
b0 H
0G
0F
0E
0D
0C
b0 B
0A
b0 @
b10 ?
0>
b1111 =
b0 <
1;
b1000000000000 :
b1000000000000 9
08
17
b0 6
b0 5
04
b0 3
02
b0 1
00
bx /
0.
1-
0,
b0 +
b0 *
0)
b0 (
b0 '
b0 &
b0 %
b0 $
0#
b0 "
0!
$end
#5000
b10000000 `"
18
#10000
08
#15000
b10000000 `"
18
#20000
08
#25000
b10000000 `"
18
#30000
08
#35000
b10000000 `"
18
#40000
08
#45000
1L
18
#50000
08
#55000
18
#60000
08
#65000
18
#70000
08
#75000
18
#80000
08
#85000
18
#90000
08
#95000
b1 ^"
0P"
b1 T"
1C
b1000000000000 B
b1000000000000 V
b1000000000000 J"
b1 M
b11100011101000000000000000000001 i"
0j"
b1000000000000 h"
18
#100000
08
#105000
0-
b1 _"
b0 ^"
0C
18
#110000
08
#115000
1-
b1 '
b1 Y
b1 X"
b0 _"
b1 ^"
1C
b10 M
18
#120000
08
#125000
0-
b10 ^"
b1000000000000 [
b1000000000000 Q"
b1 ]"
b1 _"
18
#130000
08
#135000
1)
1Z
b10 _"
b11 ^"
0C
18
#140000
08
#145000
1o
b1111 $
b1111 r
b111 %
b111 q
b1000000000000 &
b1000000000000 p
b0z s
0Z
b11 _"
b1 O"
b11 ^"
b100 U"
1C
b1000000000100 B
b1000000000100 V
b1000000000100 J"
b11 M
b11100011101000000001000000000010 i"
b1000000000100 h"
18
#150000
08
#155000
0o
b0 $
b0 r
b0 %
b0 q
b0 &
b0 p
b0 s
18
