sim/dcache_test_tb.vcd
$date
	Fri Jul 25 07:57:33 2025
$end
$version
	Icarus Verilog
$end
$timescale
	1ps
$end
$scope module dcache_test_tb $end
$var wire 1 ! mem_write $end
$var wire 32 " mem_wdata [31:0] $end
$var wire 1 # mem_req $end
$var wire 4 $ mem_byte_en [3:0] $end
$var wire 32 % mem_addr [31:0] $end
$var wire 1 & cpu_ready $end
$var wire 32 ' cpu_rdata [31:0] $end
$var wire 1 ( cpu_hit $end
$var wire 32 ) cache_misses [31:0] $end
$var wire 32 * cache_hits [31:0] $end
$var wire 1 + cache_busy $end
$var reg 1 , cache_enable $end
$var reg 1 - cache_flush $end
$var reg 1 . clk $end
$var reg 32 / cpu_addr [31:0] $end
$var reg 4 0 cpu_byte_en [3:0] $end
$var reg 1 1 cpu_req $end
$var reg 2 2 cpu_size [1:0] $end
$var reg 32 3 cpu_wdata [31:0] $end
$var reg 1 4 cpu_write $end
$var reg 32 5 mem_rdata [31:0] $end
$var reg 1 6 mem_ready $end
$var reg 1 7 rst_n $end
$var integer 32 8 test_count [31:0] $end
$var integer 32 9 test_passed [31:0] $end
$scope module u_dcache $end
$var wire 1 + cache_busy $end
$var wire 1 , cache_enable $end
$var wire 1 - cache_flush $end
$var wire 1 : cache_hit_internal $end
$var wire 1 . clk $end
$var wire 32 ; cpu_addr [31:0] $end
$var wire 4 < cpu_byte_en [3:0] $end
$var wire 1 ( cpu_hit $end
$var wire 1 & cpu_ready $end
$var wire 1 1 cpu_req $end
$var wire 2 = cpu_size [1:0] $end
$var wire 32 > cpu_wdata [31:0] $end
$var wire 1 4 cpu_write $end
$var wire 32 ? mem_rdata [31:0] $end
$var wire 1 6 mem_ready $end
$var wire 1 7 rst_n $end
$var wire 2 @ word_offset [1:0] $end
$var wire 2 A byte_offset [1:0] $end
$var wire 22 B addr_tag [21:0] $end
$var wire 4 C addr_offset [3:0] $end
$var wire 6 D addr_index [5:0] $end
$var reg 2048 E cache_data_word0 [2047:0] $end
$var reg 2048 F cache_data_word1 [2047:0] $end
$var reg 2048 G cache_data_word2 [2047:0] $end
$var reg 2048 H cache_data_word3 [2047:0] $end
$var reg 64 I cache_dirty [63:0] $end
$var reg 32 J cache_hits [31:0] $end
$var reg 32 K cache_misses [31:0] $end
$var reg 1408 L cache_tags [1407:0] $end
$var reg 64 M cache_valid [63:0] $end
$var reg 32 N cpu_rdata [31:0] $end
$var reg 2 O fill_counter [1:0] $end
$var reg 32 P mem_addr [31:0] $end
$var reg 4 Q mem_byte_en [3:0] $end
$var reg 1 # mem_req $end
$var reg 32 R mem_wdata [31:0] $end
$var reg 1 ! mem_write $end
$var reg 6 S miss_index [5:0] $end
$var reg 22 T miss_tag [21:0] $end
$var reg 2 U miss_word_offset [1:0] $end
$var reg 3 V next_state [2:0] $end
$var reg 32 W selected_word [31:0] $end
$var reg 3 X state [2:0] $end
$var reg 32 Y write_data_masked [31:0] $end
$var reg 2 Z writeback_counter [1:0] $end
$var reg 6 [ writeback_index [5:0] $end
$var reg 22 \ writeback_tag [21:0] $end
$upscope $end
$scope begin $ivl_for_loop0 $end
$var integer 32 ] i [31:0] $end
$upscope $end
$scope begin $ivl_for_loop1 $end
$var integer 32 ^ i [31:0] $end
$scope begin $unm_blk_69 $end
$var reg 32 _ test_addr [31:0] $end
$upscope $end
$upscope $end
$scope task test_read_request $end
$var reg 32 ` addr [31:0] $end
$var reg 1 a expect_hit $end
$var reg 32 b expected_data [31:0] $end
$var reg 2 c size [1:0] $end
$upscope $end
$scope task test_write_request $end
$var reg 32 d addr [31:0] $end
$var reg 4 e byte_en [3:0] $end
$var reg 1 f expect_hit $end
$var reg 2 g size [1:0] $end
$var reg 32 h wdata [31:0] $end
$upscope $end
$scope task wait_cache_ready $end
$upscope $end
$upscope $end
$enddefinitions $end
#0
$dumpvars
bx h
bx g
xf
bx e
bx d
bx c
bx b
xa
bx `
bx _
b0 ^
b10000000000000000 ]
bx \
bx [
b0 Z
b0 Y
b0 X
b0 W
b0 V
bx U
bx T
bx S
b0 R
b1111 Q
b0 P
b0 O
b0 N
b0 M
b0 L
b0 K
b0 J
b0 I
b0 H
b0 G
b0 F
b0 E
b0 D
b0 C
b0 B
b0 A
b0 @
b0 ?
b0 >
b10 =
b1111 <
b0 ;
0:
b0 9
b0 8
07
16
b0 5
04
b0 3
b10 2
01
b1111 0
b0 /
0.
0-
1,
0+
b0 *
b0 )
0(
b0 '
0&
b0 %
b1111 $
0#
b0 "
0!
$end
#5000
1.
#10000
0.
#15000
1.
#20000
0.
#25000
1.
#30000
0.
#35000
1.
#40000
0.
#45000
17
1.
#50000
0.
#55000
1.
#60000
0.
#65000
1.
#70000
0.
#75000
1.
#80000
0.
#85000
1.
#90000
0.
#95000
b1 V
b1000000000000 %
b1000000000000 P
b100 B
11
b1000000000000 /
b1000000000000 ;
b1 8
0a
b11001010111111100000010000000000 b
b10 c
b1000000000000 `
1.
#100000
0.
#105000
b11 V
1+
b1 X
1.
#110000
0.
#115000
1#
b0 U
b0 S
b100 T
b1 )
b1 K
b11 X
1.
#120000
0.
#125000
b1000000000100 %
b1000000000100 P
1#
b11001010111111100000010000000000 5
b11001010111111100000010000000000 ?
b1 O
1.
#130000
0.
#135000
b1000000001000 %
b1000000001000 P
1#
b10 O
b11001010111111100000010000000000 F
b11001010111111100000010000000001 5
b11001010111111100000010000000001 ?
1.
#140000
0.
#145000
b100 V
b1000000001100 %
b1000000001100 P
1#
b11001010111111100000010000000010 5
b11001010111111100000010000000010 ?
b11 O
b11001010111111100000010000000001 G
1.
#150000
0.
#155000
1:
1&
0+
b0 V
b1000000000000 %
b1000000000000 P
0#
b0 O
b100 L
b1 M
b11001010111111100000010000000010 H
b100 X
b11001010111111100000010000000011 5
b11001010111111100000010000000011 ?
1.
#160000
0.
#165000
b1 V
0&
b0 X
1.
#170000
0.
#175000
1(
1+
b1 X
b100 V
01
1.
#180000
0.
#185000
b0 V
0(
1&
0+
b1 *
b1 J
b100 X
1.
#190000
0.
#195000
0&
b0 X
b1 V
11
b10 8
1a
1.
#200000
0.
#205000
1(
1+
b1 X
b100 V
01
1.
#210000
0.
#215000
0(
1&
0+
b10 *
b10 J
b100 X
b11001010111111100000010000000000 '
b11001010111111100000010000000000 N
b0 Y
b11001010111111100000010000000000 W
b1 @
b0 V
b1000000000100 %
b1000000000100 P
b100 C
11
b1000000000100 /
b1000000000100 ;
b11 8
b11001010111111100000010000000001 b
b1000000000100 `
1.
#220000
0.
#225000
b0 Y
b1 V
0&
b0 X
1.
#230000
0.
#235000
1(
1+
b1 X
b0 Y
b100 V
01
1.
#240000
0.
#245000
0(
1&
0+
b11 *
b11 J
b100 X
b0 W
b0 @
b0 '
b0 N
b0 Y
b0 V
b1000000000000 %
b1000000000000 P
b0 C
b0 2
b0 =
11
b1000000000000 /
b1000000000000 ;
b100 8
b0 b
b0 c
b1000000000000 `
1.
#250000
0.
#255000
b1 V
0&
b0 X
1.
#260000
0.
#265000
1(
1+
b1 X
b100 V
01
b1 9
1.
#270000
0.
#275000
0(
1&
0+
b100 *
b100 J
b100 X
b10 A
b0 V
b1000000000010 %
b1000000000010 P
b10 C
b1 2
b1 =
11
b1000000000010 /
b1000000000010 ;
b101 8
b1100101011111110 b
b1 c
b1000000000010 `
1.
#280000
0.
#285000
b1 V
0&
b0 X
1.
#290000
0.
#295000
1(
1+
b1 X
b100 V
01
1.
#300000
0.
#305000
1&
0+
b1 I
b101 *
b101 J
b100 X
0(
0:
b0 A
b11011110101011011011111011101111 Y
b0 V
b11011110101011011011111011101111 "
b11011110101011011011111011101111 R
b10000000000000 %
b10000000000000 P
b1000 B
b0 C
b11011110101011011011111011101111 3
b11011110101011011011111011101111 >
b10 2
b10 =
14
11
b10000000000000 /
b10000000000000 ;
b110 8
0f
b1111 e
b11011110101011011011111011101111 h
b10 g
b10000000000000 d
1.
#310000
0.
#315000
b11011110101011011011111011101111 Y
b1 V
0&
b0 X
1.
#320000
0.
#325000
1+
b1 X
b11011110101011011011111011101111 Y
b10 V
01
b10 9
1.
#330000
0.
#335000
b0 "
b0 R
b1000000000000 %
b1000000000000 P
1!
1#
b11011110101011011011111011101111 Y
b0 [
b100 \
b1000 T
b10 )
b10 K
b10 X
1.
#340000
0.
#345000
b11001010111111100000010000000000 "
b11001010111111100000010000000000 R
b1000000000100 %
b1000000000100 P
1!
1#
b11011110101011011011111011101111 Y
b1 Z
1.
#350000
0.
#355000
b11001010111111100000010000000001 "
b11001010111111100000010000000001 R
b1000000001000 %
b1000000001000 P
1!
1#
b11011110101011011011111011101111 Y
b10 Z
1.
#360000
0.
#365000
b11001010111111100000010000000010 "
b11001010111111100000010000000010 R
b1000000001100 %
b1000000001100 P
1!
1#
b11011110101011011011111011101111 Y
b11 V
b11 Z
1.
#370000
0.
#375000
b0 "
b0 R
b10000000000000 %
b10000000000000 P
0!
1#
b11011110101011011011111011101111 Y
b0 Z
b0 I
b11 X
1.
#380000
0.
#385000
b11001010111111100000010000000011 '
b11001010111111100000010000000011 N
b11011110101011011011111011101111 Y
b10000000000100 %
b10000000000100 P
b0 "
b0 R
1#
b11001010111111100000010000000011 W
b11001010111111100000100000000000 5
b11001010111111100000100000000000 ?
b1 O
b11001010111111100000010000000011 E
1.
#390000
0.
#395000
b11011110101011011011111011101111 Y
b0 "
b0 R
b10000000001000 %
b10000000001000 P
1#
b10 O
b11001010111111100000100000000000 F
b11001010111111100000100000000001 5
b11001010111111100000100000000001 ?
1.
#400000
0.
#405000
b11011110101011011011111011101111 Y
b100 V
b0 "
b0 R
b10000000001100 %
b10000000001100 P
1#
b11001010111111100000100000000010 5
b11001010111111100000100000000010 ?
b11 O
b11001010111111100000100000000001 G
1.
#410000
0.
#415000
b11011110101011011011111011101111 '
b11011110101011011011111011101111 N
1:
1&
0+
b11011110101011011011111011101111 W
b11011110101011011011111011101111 Y
b0 V
b11011110101011011011111011101111 "
b11011110101011011011111011101111 R
b10000000000000 %
b10000000000000 P
0#
b1 I
b11011110101011011011111011101111 E
b0 O
b1000 L
b11001010111111100000100000000010 H
b100 X
b11001010111111100000100000000011 5
b11001010111111100000100000000011 ?
1.
#420000
0.
#425000
0&
b0 X
b0 "
b0 R
b0 Y
b1 V
b0 3
b0 >
04
11
b111 8
b11011110101011011011111011101111 b
b10 c
b10000000000000 `
1.
#430000
0.
#435000
1(
1+
b1 X
b0 Y
b100 V
01
b11 9
1.
#440000
0.
#445000
0(
1&
0+
b0 E
b110 *
b110 J
b100 X
b11001010111111100000100000000000 W
b1 @
b0 '
b0 N
b11001010111111100000100010101010 Y
b0 V
b1 $
b1 Q
b10101010 "
b10101010 R
b10000000000100 %
b10000000000100 P
b100 C
b1 0
b1 <
b10101010 3
b10101010 >
b0 2
b0 =
14
11
b10000000000100 /
b10000000000100 ;
b1000 8
1f
b1 e
b10101010 h
b0 g
b10000000000100 d
1.
#450000
0.
#455000
b11001010111111100000100010101010 Y
b1 V
0&
b0 X
1.
#460000
0.
#465000
1(
1+
b1 X
b11001010111111100000100010101010 Y
b100 V
01
b100 9
1.
#470000
0.
#475000
0(
1&
0+
b111 *
b111 J
b100 X
b1111 $
b1111 Q
b0 "
b0 R
b11001010111111100000100000000000 Y
b0 V
b1111 0
b1111 <
b0 3
b0 >
04
11
b1001 8
b10101010 b
b0 c
b10000000000100 `
1.
#480000
0.
#485000
b1 V
0&
b0 X
1.
#490000
0.
#495000
1(
1+
b1 X
b100 V
01
1.
#500000
0.
#505000
0(
1&
0+
b1000 *
b1000 J
b100 X
b10 A
b100000000000 '
b100000000000 N
b0 V
b1100 $
b1100 Q
b1011101111001100 "
b1011101111001100 R
b10000000000110 %
b10000000000110 P
b110 C
b1100 0
b1100 <
b1011101111001100 3
b1011101111001100 >
b1 2
b1 =
14
11
b10000000000110 /
b10000000000110 ;
b1010 8
b1100 e
b1011101111001100 h
b1 g
b10000000000110 d
1.
#510000
0.
#515000
b1 V
0&
b0 X
1.
#520000
0.
#525000
1(
1+
b1 X
b100 V
01
b101 9
1.
#530000
0.
#535000
0(
1&
0+
b1001 *
b1001 J
b100 X
b1111 $
b1111 Q
b0 "
b0 R
b11001010111111100000000000000000 Y
b0 V
b1111 0
b1111 <
b0 3
b0 >
04
11
b1011 8
b1011101111001100 b
b1 c
b10000000000110 `
1.
#540000
0.
#545000
b11001010111111100000000000000000 Y
b1 V
0&
b0 X
1.
#550000
0.
#555000
1(
1+
b1 X
b11001010111111100000000000000000 Y
b100 V
01
1.
#560000
0.
#565000
1&
0+
b11001010111111100000000000000000 F
b1010 *
b1010 J
b100 X
0(
b0 W
0:
b0 @
b0 A
b0 '
b0 N
b10010001101000000000000000000 Y
b0 V
b10010001101000000000000000000 "
b10010001101000000000000000000 R
b11000000000000 %
b11000000000000 P
b1100 B
b0 C
b10010001101000000000000000000 3
b10010001101000000000000000000 >
b10 2
b10 =
14
11
b11000000000000 /
b11000000000000 ;
b1100 8
0f
b1111 e
b10010001101000000000000000000 h
b10 g
b11000000000000 d
b11000000000000 _
1.
#570000
0.
#575000
b10010001101000000000000000000 Y
b1 V
0&
b0 X
1.
#580000
0.
#585000
1+
b1 X
b10010001101000000000000000000 Y
b10 V
01
b110 9
1.
#590000
0.
#595000
b0 "
b0 R
b10000000000000 %
b10000000000000 P
1!
1#
b10010001101000000000000000000 Y
b1000 \
b1100 T
b11 )
b11 K
b10 X
1.
#600000
0.
#605000
b11001010111111100000000000000000 "
b11001010111111100000000000000000 R
b10000000000100 %
b10000000000100 P
1!
1#
b10010001101000000000000000000 Y
b1 Z
1.
#610000
0.
#615000
b11001010111111100000100000000001 "
b11001010111111100000100000000001 R
b10000000001000 %
b10000000001000 P
1!
1#
b10010001101000000000000000000 Y
b10 Z
1.
#620000
0.
#625000
b11001010111111100000100000000010 "
b11001010111111100000100000000010 R
b10000000001100 %
b10000000001100 P
1!
1#
b10010001101000000000000000000 Y
b11 V
b11 Z
1.
#630000
0.
#635000
b0 "
b0 R
b11000000000000 %
b11000000000000 P
0!
1#
b10010001101000000000000000000 Y
b0 Z
b0 I
b11 X
1.
#640000
0.
#645000
b11001010111111100000100000000011 '
b11001010111111100000100000000011 N
b10010001101000000000000000000 Y
b11000000000100 %
b11000000000100 P
b0 "
b0 R
1#
b11001010111111100000100000000011 W
b11001010111111100000110000000000 5
b11001010111111100000110000000000 ?
b1 O
b11001010111111100000100000000011 E
1.
#650000
0.
#655000
b10010001101000000000000000000 Y
b0 "
b0 R
b11000000001000 %
b11000000001000 P
1#
b10 O
b11001010111111100000110000000000 F
b11001010111111100000110000000001 5
b11001010111111100000110000000001 ?
1.
#660000
0.
#665000
b10010001101000000000000000000 Y
b100 V
b0 "
b0 R
b11000000001100 %
b11000000001100 P
1#
b11001010111111100000110000000010 5
b11001010111111100000110000000010 ?
b11 O
b11001010111111100000110000000001 G
1.
#670000
0.
#675000
b10010001101000000000000000000 '
b10010001101000000000000000000 N
1:
1&
0+
b10010001101000000000000000000 W
b10010001101000000000000000000 Y
b0 V
b10010001101000000000000000000 "
b10010001101000000000000000000 R
b11000000000000 %
b11000000000000 P
0#
b1 I
b10010001101000000000000000000 E
b0 O
b1100 L
b11001010111111100000110000000010 H
b100 X
b11001010111111100000110000000011 5
b11001010111111100000110000000011 ?
1.
#680000
0.
#685000
0&
b0 X
b0 '
b0 N
0:
b0 W
b10010001101000000000000000001 Y
b1 V
b10010001101000000000000000001 "
b10010001101000000000000000001 R
b11000000100000 %
b11000000100000 P
b10 D
b10010001101000000000000000001 3
b10010001101000000000000000001 >
11
b11000000100000 /
b11000000100000 ;
b1101 8
b10010001101000000000000000001 h
b11000000100000 d
b11000000100000 _
b1 ^
1.
#690000
0.
#695000
1+
b1 X
b10010001101000000000000000001 Y
b11 V
01
b111 9
1.
#700000
0.
#705000
b0 "
b0 R
1#
b10010001101000000000000000001 Y
b10 S
b100 )
b100 K
b11 X
1.
#710000
0.
#715000
b11001010111111100000110000000011 '
b11001010111111100000110000000011 N
b11001010111111100000110000000011 W
b10010001101000000000000000001 Y
b11000000100100 %
b11000000100100 P
b0 "
b0 R
1#
b1 O
b110010101111111000001100000000110000000000000000000000000000000000010010001101000000000000000000 E
b11001010111111100000110000001000 5
b11001010111111100000110000001000 ?
1.
#720000
0.
#725000
b10010001101000000000000000001 Y
b0 "
b0 R
b11000000101000 %
b11000000101000 P
1#
b11001010111111100000110000001001 5
b11001010111111100000110000001001 ?
b10 O
b110010101111111000001100000010000000000000000000000000000000000011001010111111100000110000000000 F
1.
#730000
0.
#735000
b10010001101000000000000000001 Y
b100 V
b0 "
b0 R
b11000000101100 %
b11000000101100 P
1#
b11 O
b110010101111111000001100000010010000000000000000000000000000000011001010111111100000110000000001 G
b11001010111111100000110000001010 5
b11001010111111100000110000001010 ?
1.
#740000
0.
#745000
b10010001101000000000000000001 '
b10010001101000000000000000001 N
1:
b10010001101000000000000000001 "
b10010001101000000000000000001 R
b11000000100000 %
b11000000100000 P
0#
b10010001101000000000000000001 W
b10010001101000000000000000001 Y
b0 V
1&
0+
b11001010111111100000110000001011 5
b11001010111111100000110000001011 ?
b101 I
b100100011010000000000000000010000000000000000000000000000000000010010001101000000000000000000 E
b0 O
b110000000000000000000000000000000000000000001100 L
b101 M
b110010101111111000001100000010100000000000000000000000000000000011001010111111100000110000000010 H
b100 X
1.
#750000
0.
#755000
0&
b0 X
b0 '
b0 N
0:
b0 W
b10010001101000000000000000010 Y
b1 V
b10010001101000000000000000010 "
b10010001101000000000000000010 R
b11000001000000 %
b11000001000000 P
b100 D
b10010001101000000000000000010 3
b10010001101000000000000000010 >
11
b11000001000000 /
b11000001000000 ;
b1110 8
b10010001101000000000000000010 h
b11000001000000 d
b11000001000000 _
b10 ^
1.
#760000
0.
#765000
1+
b1 X
b10010001101000000000000000010 Y
b11 V
01
b1000 9
1.
#770000
0.
#775000
b0 "
b0 R
1#
b10010001101000000000000000010 Y
b100 S
b101 )
b101 K
b11 X
1.
#780000
0.
#785000
b11001010111111100000110000001011 '
b11001010111111100000110000001011 N
b10010001101000000000000000010 Y
b11000001000100 %
b11000001000100 P
b0 "
b0 R
1#
b11001010111111100000110000001011 W
b11001010111111100000110000010000 5
b11001010111111100000110000010000 ?
b1 O
b1100101011111110000011000000101100000000000000000000000000000000000100100011010000000000000000010000000000000000000000000000000000010010001101000000000000000000 E
1.
#790000
0.
#795000
b10010001101000000000000000010 Y
b0 "
b0 R
b11000001001000 %
b11000001001000 P
1#
b10 O
b1100101011111110000011000001000000000000000000000000000000000000110010101111111000001100000010000000000000000000000000000000000011001010111111100000110000000000 F
b11001010111111100000110000010001 5
b11001010111111100000110000010001 ?
1.
#800000
0.
#805000
b10010001101000000000000000010 Y
b100 V
b0 "
b0 R
b11000001001100 %
b11000001001100 P
1#
b11001010111111100000110000010010 5
b11001010111111100000110000010010 ?
b11 O
b1100101011111110000011000001000100000000000000000000000000000000110010101111111000001100000010010000000000000000000000000000000011001010111111100000110000000001 G
1.
#810000
0.
#815000
b10010001101000000000000000010 '
b10010001101000000000000000010 N
1:
1&
0+
b10010001101000000000000000010 W
b10010001101000000000000000010 Y
b0 V
b10010001101000000000000000010 "
b10010001101000000000000000010 R
b11000001000000 %
b11000001000000 P
0#
b10101 I
b1001000110100000000000000001000000000000000000000000000000000000100100011010000000000000000010000000000000000000000000000000000010010001101000000000000000000 E
b0 O
b11000000000000000000000000000000000000000000110000000000000000000000000000000000000000001100 L
b10101 M
b1100101011111110000011000001001000000000000000000000000000000000110010101111111000001100000010100000000000000000000000000000000011001010111111100000110000000010 H
b100 X
b11001010111111100000110000010011 5
b11001010111111100000110000010011 ?
1.
#820000
0.
#825000
0&
b0 X
b0 '
b0 N
0:
b0 W
b10010001101000000000000000011 Y
b1 V
b10010001101000000000000000011 "
b10010001101000000000000000011 R
b11000001100000 %
b11000001100000 P
b110 D
b10010001101000000000000000011 3
b10010001101000000000000000011 >
11
b11000001100000 /
b11000001100000 ;
b1111 8
b10010001101000000000000000011 h
b11000001100000 d
b11000001100000 _
b11 ^
1.
#830000
0.
#835000
1+
b1 X
b10010001101000000000000000011 Y
b11 V
01
b1001 9
1.
#840000
0.
#845000
b0 "
b0 R
1#
b10010001101000000000000000011 Y
b110 S
b110 )
b110 K
b11 X
1.
#850000
0.
#855000
b11001010111111100000110000010011 '
b11001010111111100000110000010011 N
b11001010111111100000110000010011 W
b10010001101000000000000000011 Y
b11000001100100 %
b11000001100100 P
b0 "
b0 R
1#
b1 O
b11001010111111100000110000010011000000000000000000000000000000000001001000110100000000000000001000000000000000000000000000000000000100100011010000000000000000010000000000000000000000000000000000010010001101000000000000000000 E
b11001010111111100000110000011000 5
b11001010111111100000110000011000 ?
1.
#860000
0.
#865000
b10010001101000000000000000011 Y
b0 "
b0 R
b11000001101000 %
b11000001101000 P
1#
b11001010111111100000110000011001 5
b11001010111111100000110000011001 ?
b10 O
b11001010111111100000110000011000000000000000000000000000000000001100101011111110000011000001000000000000000000000000000000000000110010101111111000001100000010000000000000000000000000000000000011001010111111100000110000000000 F
1.
#870000
0.
#875000
b10010001101000000000000000011 Y
b100 V
b0 "
b0 R
b11000001101100 %
b11000001101100 P
1#
b11 O
b11001010111111100000110000011001000000000000000000000000000000001100101011111110000011000001000100000000000000000000000000000000110010101111111000001100000010010000000000000000000000000000000011001010111111100000110000000001 G
b11001010111111100000110000011010 5
b11001010111111100000110000011010 ?
1.
#880000
0.
#885000
b10010001101000000000000000011 '
b10010001101000000000000000011 N
1:
b10010001101000000000000000011 "
b10010001101000000000000000011 R
b11000001100000 %
b11000001100000 P
0#
b10010001101000000000000000011 W
b10010001101000000000000000011 Y
b0 V
1&
0+
b11001010111111100000110000011011 5
b11001010111111100000110000011011 ?
b1010101 I
b10010001101000000000000000011000000000000000000000000000000000001001000110100000000000000001000000000000000000000000000000000000100100011010000000000000000010000000000000000000000000000000000010010001101000000000000000000 E
b0 O
b1100000000000000000000000000000000000000000011000000000000000000000000000000000000000000110000000000000000000000000000000000000000001100 L
b1010101 M
b11001010111111100000110000011010000000000000000000000000000000001100101011111110000011000001001000000000000000000000000000000000110010101111111000001100000010100000000000000000000000000000000011001010111111100000110000000010 H
b100 X
1.
#890000
0.
#895000
0&
b0 X
b0 '
b0 N
0:
b0 W
b10010001101000000000000000100 Y
b1 V
b10010001101000000000000000100 "
b10010001101000000000000000100 R
b11000010000000 %
b11000010000000 P
b1000 D
b10010001101000000000000000100 3
b10010001101000000000000000100 >
11
b11000010000000 /
b11000010000000 ;
b10000 8
b10010001101000000000000000100 h
b11000010000000 d
b11000010000000 _
b100 ^
1.
#900000
0.
#905000
1+
b1 X
b10010001101000000000000000100 Y
b11 V
01
b1010 9
1.
#910000
0.
#915000
b0 "
b0 R
1#
b10010001101000000000000000100 Y
b1000 S
b111 )
b111 K
b11 X
1.
#920000
0.
#925000
b11001010111111100000110000011011 '
b11001010111111100000110000011011 N
b10010001101000000000000000100 Y
b11000010000100 %
b11000010000100 P
b0 "
b0 R
1#
b11001010111111100000110000011011 W
b11001010111111100000110000100000 5
b11001010111111100000110000100000 ?
b1 O
b110010101111111000001100000110110000000000000000000000000000000000010010001101000000000000000011000000000000000000000000000000000001001000110100000000000000001000000000000000000000000000000000000100100011010000000000000000010000000000000000000000000000000000010010001101000000000000000000 E
1.
#930000
0.
#935000
b10010001101000000000000000100 Y
b0 "
b0 R
b11000010001000 %
b11000010001000 P
1#
b10 O
b110010101111111000001100001000000000000000000000000000000000000011001010111111100000110000011000000000000000000000000000000000001100101011111110000011000001000000000000000000000000000000000000110010101111111000001100000010000000000000000000000000000000000011001010111111100000110000000000 F
b11001010111111100000110000100001 5
b11001010111111100000110000100001 ?
1.
#940000
0.
#945000
b10010001101000000000000000100 Y
b100 V
b0 "
b0 R
b11000010001100 %
b11000010001100 P
1#
b11001010111111100000110000100010 5
b11001010111111100000110000100010 ?
b11 O
b110010101111111000001100001000010000000000000000000000000000000011001010111111100000110000011001000000000000000000000000000000001100101011111110000011000001000100000000000000000000000000000000110010101111111000001100000010010000000000000000000000000000000011001010111111100000110000000001 G
1.
#950000
0.
#955000
b10010001101000000000000000100 '
b10010001101000000000000000100 N
1:
1&
0+
b10010001101000000000000000100 W
b10010001101000000000000000100 Y
b0 V
b10010001101000000000000000100 "
b10010001101000000000000000100 R
b11000010000000 %
b11000010000000 P
0#
b101010101 I
b100100011010000000000000001000000000000000000000000000000000000010010001101000000000000000011000000000000000000000000000000000001001000110100000000000000001000000000000000000000000000000000000100100011010000000000000000010000000000000000000000000000000000010010001101000000000000000000 E
b0 O
b110000000000000000000000000000000000000000001100000000000000000000000000000000000000000011000000000000000000000000000000000000000000110000000000000000000000000000000000000000001100 L
b101010101 M
b110010101111111000001100001000100000000000000000000000000000000011001010111111100000110000011010000000000000000000000000000000001100101011111110000011000001001000000000000000000000000000000000110010101111111000001100000010100000000000000000000000000000000011001010111111100000110000000010 H
b100 X
b11001010111111100000110000100011 5
b11001010111111100000110000100011 ?
1.
#960000
0.
#965000
0&
b0 X
b0 '
b0 N
0:
b0 W
b10010001101000000000000000101 Y
b1 V
b10010001101000000000000000101 "
b10010001101000000000000000101 R
b11000010100000 %
b11000010100000 P
b1010 D
b10010001101000000000000000101 3
b10010001101000000000000000101 >
11
b11000010100000 /
b11000010100000 ;
b10001 8
b10010001101000000000000000101 h
b11000010100000 d
b11000010100000 _
b101 ^
1.
#970000
0.
#975000
1+
b1 X
b10010001101000000000000000101 Y
b11 V
01
b1011 9
1.
#980000
0.
#985000
b0 "
b0 R
1#
b10010001101000000000000000101 Y
b1010 S
b1000 )
b1000 K
b11 X
1.
#990000
0.
#995000
b11001010111111100000110000100011 '
b11001010111111100000110000100011 N
b11001010111111100000110000100011 W
b10010001101000000000000000101 Y
b11000010100100 %
b11000010100100 P
b0 "
b0 R
1#
b1 O
b1100101011111110000011000010001100000000000000000000000000000000000100100011010000000000000001000000000000000000000000000000000000010010001101000000000000000011000000000000000000000000000000000001001000110100000000000000001000000000000000000000000000000000000100100011010000000000000000010000000000000000000000000000000000010010001101000000000000000000 E
b11001010111111100000110000101000 5
b11001010111111100000110000101000 ?
1.
#1000000
0.
#1005000
b10010001101000000000000000101 Y
b0 "
b0 R
b11000010101000 %
b11000010101000 P
1#
b11001010111111100000110000101001 5
b11001010111111100000110000101001 ?
b10 O
b1100101011111110000011000010100000000000000000000000000000000000110010101111111000001100001000000000000000000000000000000000000011001010111111100000110000011000000000000000000000000000000000001100101011111110000011000001000000000000000000000000000000000000110010101111111000001100000010000000000000000000000000000000000011001010111111100000110000000000 F
1.
#1010000
0.
#1015000
b10010001101000000000000000101 Y
b100 V
b0 "
b0 R
b11000010101100 %
b11000010101100 P
1#
b11 O
b1100101011111110000011000010100100000000000000000000000000000000110010101111111000001100001000010000000000000000000000000000000011001010111111100000110000011001000000000000000000000000000000001100101011111110000011000001000100000000000000000000000000000000110010101111111000001100000010010000000000000000000000000000000011001010111111100000110000000001 G
b11001010111111100000110000101010 5
b11001010111111100000110000101010 ?
1.
#1020000
0.
#1025000
b10010001101000000000000000101 '
b10010001101000000000000000101 N
1:
b10010001101000000000000000101 "
b10010001101000000000000000101 R
b11000010100000 %
b11000010100000 P
0#
b10010001101000000000000000101 W
b10010001101000000000000000101 Y
b0 V
1&
0+
b11001010111111100000110000101011 5
b11001010111111100000110000101011 ?
b10101010101 I
b1001000110100000000000000010100000000000000000000000000000000000100100011010000000000000001000000000000000000000000000000000000010010001101000000000000000011000000000000000000000000000000000001001000110100000000000000001000000000000000000000000000000000000100100011010000000000000000010000000000000000000000000000000000010010001101000000000000000000 E
b0 O
b11000000000000000000000000000000000000000000110000000000000000000000000000000000000000001100000000000000000000000000000000000000000011000000000000000000000000000000000000000000110000000000000000000000000000000000000000001100 L
b10101010101 M
b1100101011111110000011000010101000000000000000000000000000000000110010101111111000001100001000100000000000000000000000000000000011001010111111100000110000011010000000000000000000000000000000001100101011111110000011000001001000000000000000000000000000000000110010101111111000001100000010100000000000000000000000000000000011001010111111100000110000000010 H
b100 X
1.
#1030000
0.
#1035000
0&
b0 X
b0 '
b0 N
0:
b0 W
b10010001101000000000000000110 Y
b1 V
b10010001101000000000000000110 "
b10010001101000000000000000110 R
b11000011000000 %
b11000011000000 P
b1100 D
b10010001101000000000000000110 3
b10010001101000000000000000110 >
11
b11000011000000 /
b11000011000000 ;
b10010 8
b10010001101000000000000000110 h
b11000011000000 d
b11000011000000 _
b110 ^
1.
#1040000
0.
#1045000
1+
b1 X
b10010001101000000000000000110 Y
b11 V
01
b1100 9
1.
#1050000
0.
#1055000
b0 "
b0 R
1#
b10010001101000000000000000110 Y
b1100 S
b1001 )
b1001 K
b11 X
1.
#1060000
0.
#1065000
b11001010111111100000110000101011 '
b11001010111111100000110000101011 N
b10010001101000000000000000110 Y
b11000011000100 %
b11000011000100 P
b0 "
b0 R
1#
b11001010111111100000110000101011 W
b11001010111111100000110000110000 5
b11001010111111100000110000110000 ?
b1 O
b11001010111111100000110000101011000000000000000000000000000000000001001000110100000000000000010100000000000000000000000000000000000100100011010000000000000001000000000000000000000000000000000000010010001101000000000000000011000000000000000000000000000000000001001000110100000000000000001000000000000000000000000000000000000100100011010000000000000000010000000000000000000000000000000000010010001101000000000000000000 E
1.
#1070000
0.
