sim/embeddedice_test_tb.vcd
$date
	Sat Jul 26 12:02:35 2025
$end
$version
	Icarus Verilog
$end
$timescale
	1ps
$end
$scope module embeddedice_test_tb $end
$var wire 1 ! watchpoint $end
$var wire 1 " tdo $end
$var wire 1 # debug_restart $end
$var wire 1 $ debug_req $end
$var wire 1 % debug_en $end
$var wire 1 & debug_abort $end
$var wire 1 ' dbgack $end
$var wire 1 ( breakpoint $end
$var reg 1 ) clk $end
$var reg 1 * dbgrq $end
$var reg 32 + debug_addr [31:0] $end
$var reg 32 , debug_data [31:0] $end
$var reg 1 - debug_exec $end
$var reg 32 . debug_instr [31:0] $end
$var reg 1 / debug_lock $end
$var reg 1 0 debug_mas $end
$var reg 1 1 debug_mem $end
$var reg 5 2 debug_mode [4:0] $end
$var reg 32 3 debug_pc [31:0] $end
$var reg 1 4 debug_rw $end
$var reg 1 5 debug_seq $end
$var reg 1 6 debug_thumb $end
$var reg 1 7 extern_dbg $end
$var reg 1 8 rst_n $end
$var reg 1 9 tck $end
$var reg 1 : tdi $end
$var reg 1 ; test_passed $end
$var reg 1 < tms $end
$var reg 1 = trst_n $end
$var integer 32 > tests_passed [31:0] $end
$var integer 32 ? tests_run [31:0] $end
$scope module u_debug_wrapper $end
$var wire 1 @ abort_pin_in $end
$var wire 32 A addr_core_out [31:0] $end
$var wire 32 B addr_pin_in [31:0] $end
$var wire 1 ) clk $end
$var wire 1 C core_scan_tdo $end
$var wire 32 D data_core_out [31:0] $end
$var wire 32 E data_pin_in [31:0] $end
$var wire 1 * dbgrq $end
$var wire 32 F debug_addr [31:0] $end
$var wire 32 G debug_data [31:0] $end
$var wire 1 - debug_exec $end
$var wire 32 H debug_instr [31:0] $end
$var wire 1 / debug_lock $end
$var wire 1 0 debug_mas $end
$var wire 1 1 debug_mem $end
$var wire 5 I debug_mode [4:0] $end
$var wire 32 J debug_pc [31:0] $end
$var wire 1 4 debug_rw $end
$var wire 1 5 debug_seq $end
$var wire 1 K debug_tdo $end
$var wire 1 6 debug_thumb $end
$var wire 1 7 extern_dbg $end
$var wire 1 4 noe_core_out $end
$var wire 1 4 nrw_core_out $end
$var wire 1 L nrw_pin_in $end
$var wire 1 M nwait_pin_in $end
$var wire 1 N nwe_core_out $end
$var wire 1 8 rst_n $end
$var wire 1 9 tck $end
$var wire 1 : tdi $end
$var wire 1 < tms $end
$var wire 1 = trst_n $end
$var wire 1 ! watchpoint $end
$var wire 1 O update_ir $end
$var wire 1 P update_dr $end
$var wire 1 Q test_mode $end
$var wire 1 R test_logic_reset $end
$var wire 1 " tdo $end
$var wire 1 S shift_ir $end
$var wire 1 T shift_dr $end
$var wire 1 U select_ir_scan $end
$var wire 1 V select_dr_scan $end
$var wire 1 W scan_n_tdo $end
$var wire 1 X scan_n_select $end
$var wire 1 Y scan_mode $end
$var wire 1 Z scan_enable $end
$var wire 1 [ run_test_idle $end
$var wire 1 \ pause_ir $end
$var wire 1 ] pause_dr $end
$var wire 1 ^ nwe_pin_out $end
$var wire 1 _ nwait_core_in $end
$var wire 1 ` nrw_pin_out $end
$var wire 1 a nrw_core_in $end
$var wire 1 b noe_pin_out $end
$var wire 1 c idcode_select $end
$var wire 1 d ice_tdo $end
$var wire 1 e ice_select $end
$var wire 1 f exit2_ir $end
$var wire 1 g exit2_dr $end
$var wire 1 h exit1_ir $end
$var wire 1 i exit1_dr $end
$var wire 1 j debug_select $end
$var wire 1 # debug_restart $end
$var wire 1 $ debug_req $end
$var wire 1 % debug_en $end
$var wire 1 & debug_abort $end
$var wire 1 ' dbgack $end
$var wire 32 k data_pin_out [31:0] $end
$var wire 32 l data_core_in [31:0] $end
$var wire 4 m current_ir [3:0] $end
$var wire 1 n core_scan_select $end
$var wire 1 o capture_ir $end
$var wire 1 p capture_dr $end
$var wire 1 q bypass_select $end
$var wire 1 r bscan_tdo $end
$var wire 1 s bscan_select $end
$var wire 1 ( breakpoint $end
$var wire 32 t addr_pin_out [31:0] $end
$var wire 1 u abort_core_in $end
$var reg 1 v extest_mode $end
$var reg 1 w sample_mode $end
$var reg 4 x scan_chain_id [3:0] $end
$scope module u_boundary_scan $end
$var wire 1 @ abort_pin_in $end
$var wire 32 y addr_core_out [31:0] $end
$var wire 32 z addr_pin_in [31:0] $end
$var wire 32 { data_core_out [31:0] $end
$var wire 32 | data_pin_in [31:0] $end
$var wire 1 v extest_mode $end
$var wire 1 4 noe_core_out $end
$var wire 1 4 nrw_core_out $end
$var wire 1 L nrw_pin_in $end
$var wire 1 M nwait_pin_in $end
$var wire 1 N nwe_core_out $end
$var wire 1 w sample_mode $end
$var wire 1 9 tck $end
$var wire 1 : tdi $end
$var wire 1 = trst_n $end
$var wire 1 P update_dr $end
$var wire 1 Q test_mode $end
$var wire 1 r tdo $end
$var wire 1 T shift_dr $end
$var wire 1 p capture_dr $end
$var wire 1 s bscan_select $end
$var reg 1 u abort_core_in $end
$var reg 32 } addr_pin_out [31:0] $end
$var reg 128 ~ boundary_scan_reg [127:0] $end
$var reg 32 !" data_core_in [31:0] $end
$var reg 32 "" data_pin_out [31:0] $end
$var reg 1 b noe_pin_out $end
$var reg 1 a nrw_core_in $end
$var reg 1 ` nrw_pin_out $end
$var reg 1 _ nwait_core_in $end
$var reg 1 ^ nwe_pin_out $end
$var reg 128 #" update_reg [127:0] $end
$scope begin $ivl_for_loop0 $end
$var integer 32 $" i [31:0] $end
$upscope $end
$upscope $end
$scope module u_embeddedice $end
$var wire 1 ) clk $end
$var wire 1 * dbgrq $end
$var wire 32 %" debug_addr [31:0] $end
$var wire 32 &" debug_data [31:0] $end
$var wire 1 % debug_en $end
$var wire 1 - debug_exec $end
$var wire 32 '" debug_instr [31:0] $end
$var wire 1 (" debug_interrupt $end
$var wire 1 / debug_lock $end
$var wire 1 0 debug_mas $end
$var wire 1 1 debug_mem $end
$var wire 5 )" debug_mode [4:0] $end
$var wire 1 *" debug_nmreq $end
$var wire 32 +" debug_pc [31:0] $end
$var wire 1 4 debug_rw $end
$var wire 1 5 debug_seq $end
$var wire 1 ," debug_syscomp $end
$var wire 1 -" debug_tbit $end
$var wire 1 6 debug_thumb $end
$var wire 1 7 extern_dbg $end
$var wire 32 ." ice_data_out [31:0] $end
$var wire 1 8 rst_n $end
$var wire 1 9 tck $end
$var wire 1 : tdi $end
$var wire 1 < tms $end
$var wire 1 = trst_n $end
$var wire 1 P update_dr $end
$var wire 1 d tdo $end
$var wire 1 T shift_dr $end
$var wire 1 e ice_select $end
$var wire 1 /" debug_step $end
$var wire 1 0" debug_intdis $end
$var wire 1 1" debug_halt_mode $end
$var wire 1 2" debug_enable $end
$var wire 1 3" catch_undef $end
$var wire 1 4" catch_swi $end
$var wire 1 5" catch_reset $end
$var wire 1 6" catch_prefetch_abort $end
$var wire 1 7" catch_irq $end
$var wire 1 8" catch_fiq $end
$var wire 1 9" catch_data_abort $end
$var wire 1 p capture_dr $end
$var reg 1 :" bp_hit $end
$var reg 1 ( breakpoint $end
$var reg 1 ' dbgack $end
$var reg 1 & debug_abort $end
$var reg 3 ;" debug_next_state [2:0] $end
$var reg 1 $ debug_req $end
$var reg 1 # debug_restart $end
$var reg 3 <" debug_state [2:0] $end
$var reg 5 =" ice_addr [4:0] $end
$var reg 32 >" ice_data_in [31:0] $end
$var reg 1 ?" ice_read $end
$var reg 1 @" ice_write $end
$var reg 37 A" scan_chain [36:0] $end
$var reg 1 ! watchpoint $end
$var reg 1 B" wp0_addr_match $end
$var reg 1 C" wp0_ctrl_match $end
$var reg 1 D" wp0_data_match $end
$var reg 1 E" wp0_hit $end
$var reg 1 F" wp1_addr_match $end
$var reg 1 G" wp1_ctrl_match $end
$var reg 1 H" wp1_data_match $end
$var reg 1 I" wp1_hit $end
$upscope $end
$scope module u_scan_chain $end
$var wire 1 r bscan_tdo $end
$var wire 1 C core_scan_tdo $end
$var wire 1 K debug_tdo $end
$var wire 1 J" scan_active $end
$var wire 4 K" scan_chain_id [3:0] $end
$var wire 1 Z scan_enable $end
$var wire 1 Y scan_mode $end
$var wire 1 9 tck $end
$var wire 1 : tdi $end
$var wire 1 Q test_mode $end
$var wire 1 = trst_n $end
$var wire 1 P update_dr $end
$var wire 1 T shift_dr $end
$var wire 1 X scan_n_select $end
$var wire 1 p capture_dr $end
$var reg 1 s bscan_select $end
$var reg 4 L" chain_select_reg [3:0] $end
$var reg 1 n core_scan_select $end
$var reg 1 j debug_select $end
$var reg 1 W tdo $end
$upscope $end
$scope module u_tap_controller $end
$var wire 4 M" current_ir [3:0] $end
$var wire 1 d ice_tdo $end
$var wire 1 W scan_n_tdo $end
$var wire 1 9 tck $end
$var wire 1 : tdi $end
$var wire 1 < tms $end
$var wire 1 = trst_n $end
$var wire 1 O update_ir $end
$var wire 1 P update_dr $end
$var wire 1 R test_logic_reset $end
$var wire 1 S shift_ir $end
$var wire 1 T shift_dr $end
$var wire 1 U select_ir_scan $end
$var wire 1 V select_dr_scan $end
$var wire 1 [ run_test_idle $end
$var wire 1 \ pause_ir $end
$var wire 1 ] pause_dr $end
$var wire 1 f exit2_ir $end
$var wire 1 g exit2_dr $end
$var wire 1 h exit1_ir $end
$var wire 1 i exit1_dr $end
$var wire 1 o capture_ir $end
$var wire 1 p capture_dr $end
$var reg 1 N" bypass_reg $end
$var reg 1 q bypass_select $end
$var reg 1 e ice_select $end
$var reg 1 c idcode_select $end
$var reg 32 O" idcode_shift_reg [31:0] $end
$var reg 4 P" instruction_reg [3:0] $end
$var reg 4 Q" ir_shift_reg [3:0] $end
$var reg 1 X scan_n_select $end
$var reg 4 R" tap_next_state [3:0] $end
$var reg 4 S" tap_state [3:0] $end
$var reg 1 " tdo $end
$upscope $end
$upscope $end
$scope task jtag_reset $end
$upscope $end
$scope task shift_dr $end
$var reg 37 T" data_in [36:0] $end
$var reg 37 U" data_out [36:0] $end
$var reg 37 V" shift_reg [36:0] $end
$scope begin $ivl_for_loop2 $end
$var integer 32 W" i [31:0] $end
$upscope $end
$upscope $end
$scope task shift_ir $end
$var reg 4 X" instruction [3:0] $end
$scope begin $ivl_for_loop1 $end
$var integer 32 Y" i [31:0] $end
$upscope $end
$upscope $end
$scope task test_bypass $end
$var reg 37 Z" bypass_out [36:0] $end
$upscope $end
$scope task test_debug_request $end
$upscope $end
$scope task test_embeddedice_access $end
$var reg 37 [" ice_data [36:0] $end
$upscope $end
$scope task test_idcode $end
$var reg 37 \" idcode [36:0] $end
$upscope $end
$scope task test_watchpoint $end
$var reg 37 ]" ice_data [36:0] $end
$upscope $end
$upscope $end
$enddefinitions $end
#0
$dumpvars
bx ]"
bx \"
bx ["
bx Z"
b0 Y"
bx X"
b0 W"
bx V"
bx U"
bx T"
b0 S"
b1 R"
b0 Q"
b1110 P"
b111100100100110000001000001 O"
0N"
b1110 M"
b0 L"
b0 K"
0J"
0I"
1H"
1G"
1F"
0E"
1D"
1C"
1B"
b0 A"
0@"
0?"
b0 >"
b0 ="
b0 <"
b0 ;"
0:"
09"
08"
07"
06"
05"
04"
03"
02"
01"
00"
0/"
b0 ."
0-"
0,"
b1000000000000 +"
0*"
b10000 )"
0("
b11100011101000000000000000000001 '"
b11011110101011011011111011101111 &"
b10000000000000 %"
b0 $"
b0 #"
b11011110101011011011111011101111 ""
b0 !"
b0 ~
b10000000000000 }
b0 |
b11011110101011011011111011101111 {
b0 z
b10000000000000 y
b0 x
0w
0v
0u
b10000000000000 t
1s
0r
0q
0p
0o
0n
b1110 m
b0 l
b11011110101011011011111011101111 k
0j
0i
0h
0g
0f
0e
zd
1c
1b
0a
1`
0_
0^
0]
0\
1[
0Z
0Y
0X
0W
0V
0U
0T
0S
0R
0Q
0P
0O
0N
0M
0L
zK
b1000000000000 J
b10000 I
b11100011101000000000000000000001 H
b11011110101011011011111011101111 G
b10000000000000 F
b0 E
b11011110101011011011111011101111 D
0C
b0 B
b10000000000000 A
0@
b0 ?
b0 >
0=
0<
x;
0:
09
08
07
06
05
14
b1000000000000 3
b10000 2
01
10
0/
b11100011101000000000000000000001 .
1-
b11011110101011011011111011101111 ,
b10000000000000 +
0*
0)
0(
0'
0&
0%
0$
0#
0"
0!
$end
#5000
1)
#10000
0)
19
#15000
1)
#20000
0)
09
#25000
1)
#30000
0)
19
#35000
1)
#40000
0)
09
#45000
1c
1=
18
1)
#50000
b1 S"
0)
19
#55000
1)
#60000
0)
09
#65000
1)
#70000
0)
19
#75000
1)
#80000
0)
09
#85000
1)
#90000
0)
19
#95000
0[
1V
b10 R"
1<
b1 ?
1)
#100000
0)
09
#105000
1)
#110000
0V
1U
b1001 R"
b10 S"
0)
19
#115000
1)
#120000
0)
09
#125000
1)
#130000
1R
0U
b0 R"
b1001 S"
0)
19
#135000
1)
#140000
0)
09
#145000
1)
#150000
b0 S"
0)
19
#155000
1)
#160000
0)
09
#165000
1)
#170000
0)
19
#175000
1)
#180000
0)
09
#185000
1)
#190000
0)
19
#195000
1)
#200000
0)
09
#205000
1)
#210000
0R
1[
b1 R"
0<
0)
19
#215000
1)
#220000
0)
09
#225000
1)
#230000
1V
b1 S"
0R
0[
b10 R"
1<
b1110 X"
0)
19
#235000
1)
#240000
0)
09
#245000
1)
#250000
0V
1U
b1001 R"
b10 S"
0)
19
#255000
1)
#260000
0)
09
#265000
1)
#270000
1o
b1001 S"
0p
0U
b1010 R"
0<
0)
19
#275000
1)
#280000
0)
09
#285000
1)
#290000
1c
1"
0o
1S
b1011 R"
b1 Q"
b1010 S"
0)
19
#295000
1)
#300000
0)
09
#305000
1)
#310000
1c
0"
b1011 S"
b1000 Q"
1:
b1 Y"
0)
19
#315000
1)
#320000
0)
09
#325000
1)
#330000
1c
b1100 Q"
b10 Y"
0)
19
#335000
1)
#340000
0)
09
#345000
1)
#350000
b1110 Q"
1c
0S
1h
b1100 R"
1<
b11 Y"
0)
19
#355000
1)
#360000
0)
09
#365000
1)
#370000
0h
1O
b1111 R"
b1100 S"
b100 Y"
0)
19
#375000
1)
#380000
0)
09
#385000
1)
#390000
1[
b1111 S"
0\
0O
b1 R"
0<
0)
19
#395000
1)
#400000
0)
09
#405000
1)
#410000
b1 S"
0[
1V
b10 R"
1<
b0 T"
0)
19
#415000
1)
#420000
0)
09
#425000
1)
#430000
1p
b10 S"
0[
0V
b11 R"
0<
0)
19
#435000
1)
#440000
0)
09
#445000
1)
#450000
1s
1c
1"
0p
1T
b100 R"
b10000000000000000000000000000000000000000000000000000000000000000000 ~
b11 S"
b10000000 $"
0:
b0 V"
0)
19
#455000
1)
#460000
0)
09
#465000
1)
#470000
1c
0"
b100 S"
b11110010010011000000100000 O"
b1000000000000000000000000000000000000000000000000000000000000000000 ~
0)
19
#471000
b1 W"
#475000
1)
#480000
0)
09
#485000
1)
#490000
1c
b100000000000000000000000000000000000000000000000000000000000000000 ~
b1111001001001100000010000 O"
0)
19
#491000
b10 W"
#495000
1)
#500000
0)
09
#505000
1)
#510000
1c
b111100100100110000001000 O"
b10000000000000000000000000000000000000000000000000000000000000000 ~
0)
19
#511000
b11 W"
#515000
1)
#520000
0)
09
#525000
1)
#530000
1c
b1000000000000000000000000000000000000000000000000000000000000000 ~
b11110010010011000000100 O"
0)
19
#531000
b100 W"
#535000
1)
#540000
0)
09
#545000
1)
#550000
1c
b1111001001001100000010 O"
b100000000000000000000000000000000000000000000000000000000000000 ~
0)
19
#551000
b101 W"
#555000
1)
#560000
0)
09
#565000
1)
#570000
1c
1"
b10000000000000000000000000000000000000000000000000000000000000 ~
b111100100100110000001 O"
0)
19
#571000
b110 W"
b1000000000000000000000000000000000000 V"
#575000
1)
#580000
0)
09
#585000
1)
#590000
1c
0"
b11110010010011000000 O"
b1000000000000000000000000000000000000000000000000000000000000 ~
0)
19
#591000
b111 W"
b100000000000000000000000000000000000 V"
#595000
1)
#600000
0)
09
#605000
1)
#610000
1c
b100000000000000000000000000000000000000000000000000000000000 ~
b1111001001001100000 O"
0)
19
#611000
b1000 W"
b10000000000000000000000000000000000 V"
#615000
1)
#620000
0)
09
#625000
1)
#630000
1c
b111100100100110000 O"
b10000000000000000000000000000000000000000000000000000000000 ~
0)
19
#631000
b1001 W"
b1000000000000000000000000000000000 V"
#635000
1)
#640000
0)
09
#645000
1)
#650000
1c
b1000000000000000000000000000000000000000000000000000000000 ~
b11110010010011000 O"
0)
19
#651000
b1010 W"
b100000000000000000000000000000000 V"
#655000
1)
#660000
0)
09
#665000
1)
#670000
1c
b1111001001001100 O"
b100000000000000000000000000000000000000000000000000000000 ~
0)
19
#671000
b1011 W"
b10000000000000000000000000000000 V"
#675000
1)
#680000
0)
09
#685000
1)
#690000
1c
b10000000000000000000000000000000000000000000000000000000 ~
b111100100100110 O"
0)
19
#691000
b1100 W"
b1000000000000000000000000000000 V"
#695000
1)
#700000
0)
09
#705000
1)
#710000
1c
1"
b11110010010011 O"
b1000000000000000000000000000000000000000000000000000000 ~
0)
19
#711000
b1101 W"
b1000000100000000000000000000000000000 V"
#715000
1)
#720000
0)
09
#725000
1)
#730000
1c
b100000000000000000000000000000000000000000000000000000 ~
b1111001001001 O"
0)
19
#731000
b1110 W"
b1100000010000000000000000000000000000 V"
#735000
1)
#740000
0)
09
#745000
1)
#750000
1c
0"
b111100100100 O"
b10000000000000000000000000000000000000000000000000000 ~
0)
19
#751000
b1111 W"
b110000001000000000000000000000000000 V"
#755000
1)
#760000
0)
09
#765000
1)
#770000
1c
b1000000000000000000000000000000000000000000000000000 ~
b11110010010 O"
0)
19
#771000
b10000 W"
b11000000100000000000000000000000000 V"
#775000
1)
#780000
0)
09
#785000
1)
#790000
1c
1"
b1111001001 O"
b100000000000000000000000000000000000000000000000000 ~
0)
19
#791000
b10001 W"
b1001100000010000000000000000000000000 V"
#795000
1)
#800000
0)
09
#805000
1)
#810000
1c
0"
b10000000000000000000000000000000000000000000000000 ~
b111100100 O"
0)
19
#811000
b10010 W"
b100110000001000000000000000000000000 V"
#815000
1)
#820000
0)
09
#825000
1)
#830000
1c
b11110010 O"
b1000000000000000000000000000000000000000000000000 ~
0)
19
#831000
b10011 W"
b10011000000100000000000000000000000 V"
#835000
1)
#840000
0)
09
#845000
1)
#850000
1c
1"
b100000000000000000000000000000000000000000000000 ~
b1111001 O"
0)
19
#851000
b10100 W"
b1001001100000010000000000000000000000 V"
#855000
1)
#860000
0)
09
#865000
1)
#870000
1c
0"
b111100 O"
b10000000000000000000000000000000000000000000000 ~
0)
19
#871000
b10101 W"
b100100110000001000000000000000000000 V"
#875000
1)
#880000
0)
09
#885000
1)
#890000
1c
b1000000000000000000000000000000000000000000000 ~
b11110 O"
0)
19
#891000
b10110 W"
b10010011000000100000000000000000000 V"
#895000
1)
#900000
0)
09
#905000
1)
#910000
1c
1"
b1111 O"
b100000000000000000000000000000000000000000000 ~
0)
19
#911000
b10111 W"
b1001001001100000010000000000000000000 V"
#915000
1)
#920000
0)
09
#925000
1)
#930000
1c
b10000000000000000000000000000000000000000000 ~
b111 O"
0)
19
#931000
b11000 W"
b1100100100110000001000000000000000000 V"
#935000
1)
#940000
0)
09
#945000
1)
#950000
1c
b11 O"
b1000000000000000000000000000000000000000000 ~
0)
19
#951000
b11001 W"
b1110010010011000000100000000000000000 V"
#955000
1)
#960000
0)
09
#965000
1)
#970000
1c
b100000000000000000000000000000000000000000 ~
b1 O"
0)
19
#971000
b11010 W"
b1111001001001100000010000000000000000 V"
#975000
1)
#980000
0)
09
#985000
1)
#990000
1c
0"
b0 O"
b10000000000000000000000000000000000000000 ~
0)
19
#991000
b11011 W"
b111100100100110000001000000000000000 V"
#995000
1)
#1000000
0)
09
#1005000
1)
#1010000
b1000000000000000000000000000000000000000 ~
0)
19
#1011000
b11100 W"
b11110010010011000000100000000000000 V"
#1015000
1)
#1020000
0)
09
#1025000
1)
#1030000
b100000000000000000000000000000000000000 ~
0)
19
#1031000
b11101 W"
b1111001001001100000010000000000000 V"
#1035000
1)
#1040000
0)
09
#1045000
1)
#1050000
b10000000000000000000000000000000000000 ~
0)
19
#1051000
b11110 W"
b111100100100110000001000000000000 V"
#1055000
1)
#1060000
0)
09
#1065000
1)
#1070000
b1000000000000000000000000000000000000 ~
0)
19
#1071000
b11111 W"
b11110010010011000000100000000000 V"
#1075000
1)
#1080000
0)
09
#1085000
1)
#1090000
b100000000000000000000000000000000000 ~
0)
19
#1091000
b100000 W"
b1111001001001100000010000000000 V"
#1095000
1)
#1100000
0)
09
#1105000
1)
#1110000
b10000000000000000000000000000000000 ~
0)
19
#1111000
b100001 W"
b111100100100110000001000000000 V"
#1115000
1)
#1120000
0)
09
#1125000
1)
#1130000
b1000000000000000000000000000000000 ~
0)
19
#1131000
b100010 W"
b11110010010011000000100000000 V"
#1135000
1)
#1140000
0)
09
#1145000
1)
#1150000
b100000000000000000000000000000000 ~
0)
19
#1151000
b100011 W"
b1111001001001100000010000000 V"
#1155000
1)
#1160000
0)
09
#1165000
1)
#1170000
b10000000000000000000000000000000 ~
0)
19
#1171000
1s
1c
0T
1i
b101 R"
1<
b100100 W"
b111100100100110000001000000 V"
#1175000
1)
#1180000
0)
09
#1185000
1)
#1190000
0i
1P
b1000 R"
b101 S"
0)
19
#1191000
b11110010010011000000100000 U"
b100101 W"
b11110010010011000000100000 V"
#1195000
1)
#1200000
0)
09
#1205000
1)
#1210000
1c
1s
1[
b10000000000000000000000000000000 #"
b1000 S"
0]
0P
b1 R"
0<
0)
19
#1215000
1)
#1220000
0)
09
#1225000
1)
#1230000
b1 S"
0[
1V
b10 R"
1<
b10 ?
b1 >
1;
b11110010010011000000100000 \"
0)
19
#1235000
1)
#1240000
0)
09
#1245000
1)
#1250000
0V
1U
b1001 R"
b10 S"
0)
19
#1255000
1)
#1260000
0)
09
#1265000
1)
#1270000
1R
0U
b0 R"
b1001 S"
0)
19
#1275000
1)
#1280000
0)
09
#1285000
1)
#1290000
b0 S"
0)
19
#1295000
1)
#1300000
0)
09
#1305000
1)
#1310000
0)
19
#1315000
1)
#1320000
0)
09
#1325000
1)
#1330000
0)
19
#1335000
1)
#1340000
0)
09
#1345000
1)
#1350000
0R
1[
b1 R"
0<
0)
19
#1355000
1)
#1360000
0)
09
#1365000
1)
#1370000
1V
b1 S"
0R
0[
b10 R"
1<
b1111 X"
0)
19
#1375000
1)
#1380000
0)
09
#1385000
1)
#1390000
0V
1U
b1001 R"
b10 S"
0)
19
#1395000
1)
#1400000
0)
09
#1405000
1)
#1410000
1o
b1001 S"
0p
0U
b1010 R"
0<
0)
19
#1415000
1)
#1420000
0)
09
#1425000
1)
#1430000
1"
0o
1S
b1011 R"
1c
b1010 S"
b1 Q"
1:
b0 Y"
0)
19
#1435000
1)
#1440000
0)
09
#1445000
1)
#1450000
1c
0"
b1000 Q"
b1011 S"
b1 Y"
0)
19
#1455000
1)
#1460000
0)
09
#1465000
1)
#1470000
1c
b1100 Q"
b10 Y"
0)
19
#1475000
1)
#1480000
0)
09
#1485000
1)
#1490000
b1110 Q"
1c
0S
1h
b1100 R"
1<
b11 Y"
0)
19
#1495000
1)
#1500000
0)
09
#1505000
1)
#1510000
0h
1O
b1111 R"
b1100 S"
b100 Y"
0)
19
#1515000
1)
#1520000
0)
09
#1525000
1)
#1530000
1[
b1111 S"
0\
0O
b1 R"
0<
0)
19
#1535000
1)
#1540000
0)
09
#1545000
1)
#1550000
b1 S"
0[
1V
b10 R"
1<
b10100101101001011010010110100101 T"
0)
19
#1555000
1)
#1560000
0)
09
#1565000
1)
#1570000
1p
b10 S"
0[
0V
b11 R"
0<
0)
19
#1575000
1)
#1580000
0)
09
#1585000
1)
#1590000
1s
1"
0p
1T
b100 R"
1c
b11 S"
b111100100100110000001000001 O"
b10000000000000000000000000000000000000000000000000000000000000000000 ~
b10000000 $"
b0 W"
b10100101101001011010010110100101 V"
0)
19
#1595000
1)
#1600000
0)
09
#1605000
1)
#1610000
1c
0"
b10000011110010010011000000100000 O"
b100 S"
b10000000000000000000000000000000000000000000000000000000000001000000000000000000000000000000000000000000000000000000000000000000 ~
0)
19
#1611000
0:
b1 W"
b1010010110100101101001011010010 V"
#1615000
1)
#1620000
0)
09
#1625000
1)
#1630000
1c
b1000000000000000000000000000000000000000000000000000000000000100000000000000000000000000000000000000000000000000000000000000000 ~
b1000001111001001001100000010000 O"
0)
19
#1631000
1:
b10 W"
b101001011010010110100101101001 V"
#1635000
1)
#1640000
0)
09
#1645000
1)
#1650000
1c
b10100000111100100100110000001000 O"
b10100000000000000000000000000000000000000000000000000000000000010000000000000000000000000000000000000000000000000000000000000000 ~
0)
19
#1651000
0:
b11 W"
b10100101101001011010010110100 V"
#1655000
1)
#1660000
0)
09
#1665000
1)
#1670000
1c
b1010000000000000000000000000000000000000000000000000000000000001000000000000000000000000000000000000000000000000000000000000000 ~
b1010000011110010010011000000100 O"
0)
19
#1671000
b100 W"
b1010010110100101101001011010 V"
#1675000
1)
#1680000
0)
09
#1685000
1)
#1690000
1c
b101000001111001001001100000010 O"
b101000000000000000000000000000000000000000000000000000000000000100000000000000000000000000000000000000000000000000000000000000 ~
0)
19
#1691000
1:
b101 W"
b101001011010010110100101101 V"
#1695000
1)
#1700000
0)
09
#1705000
1)
#1710000
1c
1"
b10010100000000000000000000000000000000000000000000000000000000000010000000000000000000000000000000000000000000000000000000000000 ~
b10010100000111100100100110000001 O"
0)
19
#1711000
0:
b110 W"
b1000000000010100101101001011010010110 V"
#1715000
1)
#1720000
0)
09
#1725000
1)
#1730000
1c
0"
b1001010000011110010010011000000 O"
b1001010000000000000000000000000000000000000000000000000000000000001000000000000000000000000000000000000000000000000000000000000 ~
0)
19
#1731000
1:
b111 W"
b100000000001010010110100101101001011 V"
#1735000
1)
#1740000
0)
09
#1745000
1)
#1750000
1c
b10100101000000000000000000000000000000000000000000000000000000000000100000000000000000000000000000000000000000000000000000000000 ~
b10100101000001111001001001100000 O"
0)
19
#1751000
b1000 W"
b10000000000101001011010010110100101 V"
#1755000
1)
#1760000
0)
09
#1765000
1)
#1770000
1c
b11010010100000111100100100110000 O"
b11010010100000000000000000000000000000000000000000000000000000000000010000000000000000000000000000000000000000000000000000000000 ~
0)
19
#1771000
0:
b1001 W"
b1000000000010100101101001011010010 V"
#1775000
1)
#1780000
0)
09
#1785000
1)
#1790000
1c
b1101001010000000000000000000000000000000000000000000000000000000000001000000000000000000000000000000000000000000000000000000000 ~
b1101001010000011110010010011000 O"
0)
19
#1791000
1:
b1010 W"
b100000000001010010110100101101001 V"
#1795000
1)
#1800000
0)
09
#1805000
1)
#1810000
1c
b10110100101000001111001001001100 O"
b10110100101000000000000000000000000000000000000000000000000000000000000100000000000000000000000000000000000000000000000000000000 ~
0)
19
#1811000
0:
b1011 W"
b10000000000101001011010010110100 V"
#1815000
1)
#1820000
0)
09
#1825000
1)
#1830000
1c
b1011010010100000000000000000000000000000000000000000000000000000000000010000000000000000000000000000000000000000000000000000000 ~
b1011010010100000111100100100110 O"
0)
19
#1831000
b1100 W"
b1000000000010100101101001011010 V"
#1835000
1)
#1840000
0)
09
#1845000
1)
#1850000
1c
1"
b101101001010000011110010010011 O"
b101101001010000000000000000000000000000000000000000000000000000000000001000000000000000000000000000000000000000000000000000000 ~
0)
19
#1851000
1:
b1101 W"
b1000000100000000001010010110100101101 V"
#1855000
1)
#1860000
0)
09
#1865000
1)
#1870000
1c
b10010110100101000000000000000000000000000000000000000000000000000000000000100000000000000000000000000000000000000000000000000000 ~
b10010110100101000001111001001001 O"
0)
19
#1871000
0:
b1110 W"
b1100000010000000000101001011010010110 V"
#1875000
1)
#1880000
0)
09
#1885000
1)
#1890000
1c
0"
b1001011010010100000111100100100 O"
b1001011010010100000000000000000000000000000000000000000000000000000000000010000000000000000000000000000000000000000000000000000 ~
0)
19
#1891000
1:
b1111 W"
b110000001000000000010100101101001011 V"
#1895000
1)
#1900000
0)
09
#1905000
1)
#1910000
1c
b10100101101001010000000000000000000000000000000000000000000000000000000000001000000000000000000000000000000000000000000000000000 ~
b10100101101001010000011110010010 O"
0)
19
#1911000
b10000 W"
b11000000100000000001010010110100101 V"
#1915000
1)
#1920000
0)
09
#1925000
1)
#1930000
1c
1"
b11010010110100101000001111001001 O"
b11010010110100101000000000000000000000000000000000000000000000000000000000000100000000000000000000000000000000000000000000000000 ~
0)
19
#1931000
0:
b10001 W"
b1001100000010000000000101001011010010 V"
#1935000
1)
#1940000
0)
09
#1945000
1)
#1950000
1c
0"
b1101001011010010100000000000000000000000000000000000000000000000000000000000010000000000000000000000000000000000000000000000000 ~
b1101001011010010100000111100100 O"
0)
19
#1951000
1:
b10010 W"
b100110000001000000000010100101101001 V"
#1955000
1)
#1960000
0)
09
#1965000
1)
#1970000
1c
b10110100101101001010000011110010 O"
b10110100101101001010000000000000000000000000000000000000000000000000000000000001000000000000000000000000000000000000000000000000 ~
0)
19
#1971000
0:
b10011 W"
b10011000000100000000001010010110100 V"
#1975000
1)
#1980000
0)
09
#1985000
1)
#1990000
1c
1"
b1011010010110100101000000000000000000000000000000000000000000000000000000000000100000000000000000000000000000000000000000000000 ~
b1011010010110100101000001111001 O"
0)
19
#1991000
b10100 W"
b1001001100000010000000000101001011010 V"
#1995000
1)
#2000000
0)
09
#2005000
1)
#2010000
1c
0"
b101101001011010010100000111100 O"
b101101001011010010100000000000000000000000000000000000000000000000000000000000010000000000000000000000000000000000000000000000 ~
0)
19
#2011000
1:
b10101 W"
b100100110000001000000000010100101101 V"
#2015000
1)
#2020000
0)
09
#2025000
1)
#2030000
1c
b10010110100101101001010000000000000000000000000000000000000000000000000000000000001000000000000000000000000000000000000000000000 ~
b10010110100101101001010000011110 O"
0)
19
#2031000
0:
b10110 W"
b10010011000000100000000001010010110 V"
#2035000
1)
#2040000
0)
09
#2045000
1)
