sim/regfile_flag_test_tb.vcd
$date
	Thu Jul 24 18:28:30 2025
$end
$version
	Icarus Verilog
$end
$timescale
	1ps
$end
$scope module regfile_flag_test_tb $end
$var wire 32 ! spsr_out [31:0] $end
$var wire 32 " reg_rn_data [31:0] $end
$var wire 32 # reg_rm_data [31:0] $end
$var wire 32 $ reg_pc_out [31:0] $end
$var wire 1 % decode_valid $end
$var wire 3 & decode_thumb_rs [2:0] $end
$var wire 3 ' decode_thumb_rn [2:0] $end
$var wire 3 ( decode_thumb_rd [2:0] $end
$var wire 8 ) decode_thumb_offset8 [7:0] $end
$var wire 11 * decode_thumb_offset11 [10:0] $end
$var wire 5 + decode_thumb_instr_type [4:0] $end
$var wire 8 , decode_thumb_imm8 [7:0] $end
$var wire 5 - decode_thumb_imm5 [4:0] $end
$var wire 2 . decode_shift_type [1:0] $end
$var wire 4 / decode_shift_rs [3:0] $end
$var wire 1 0 decode_shift_reg $end
$var wire 5 1 decode_shift_amount [4:0] $end
$var wire 1 2 decode_set_flags $end
$var wire 4 3 decode_rn [3:0] $end
$var wire 4 4 decode_rm [3:0] $end
$var wire 4 5 decode_rd [3:0] $end
$var wire 1 6 decode_psr_to_reg $end
$var wire 1 7 decode_psr_spsr $end
$var wire 1 8 decode_psr_immediate $end
$var wire 32 9 decode_pc [31:0] $end
$var wire 1 : decode_mem_writeback $end
$var wire 1 ; decode_mem_up $end
$var wire 1 < decode_mem_pre $end
$var wire 1 = decode_mem_load $end
$var wire 1 > decode_mem_byte $end
$var wire 1 ? decode_is_memory $end
$var wire 1 @ decode_is_branch $end
$var wire 4 A decode_instr_type [3:0] $end
$var wire 12 B decode_immediate [11:0] $end
$var wire 1 C decode_imm_en $end
$var wire 4 D decode_cp_rn [3:0] $end
$var wire 4 E decode_cp_rd [3:0] $end
$var wire 3 F decode_cp_opcode2 [2:0] $end
$var wire 3 G decode_cp_opcode1 [2:0] $end
$var wire 3 H decode_cp_op [2:0] $end
$var wire 4 I decode_cp_num [3:0] $end
$var wire 1 J decode_cp_load $end
$var wire 4 K decode_condition [3:0] $end
$var wire 24 L decode_branch_offset [23:0] $end
$var wire 1 M decode_branch_link $end
$var wire 4 N decode_alu_op [3:0] $end
$var wire 32 O cpsr_out [31:0] $end
$var reg 32 P actual_rd_value [31:0] $end
$var reg 32 Q alu_a [31:0] $end
$var reg 32 R alu_b [31:0] $end
$var reg 1 S alu_carry_out $end
$var reg 1 T alu_negative $end
$var reg 1 U alu_overflow $end
$var reg 32 V alu_result [31:0] $end
$var reg 1 W alu_zero $end
$var reg 1 X clk $end
$var reg 32 Y cpsr_in [31:0] $end
$var reg 1 Z cpsr_we $end
$var reg 5 [ current_mode [4:0] $end
$var reg 1 \ flush $end
$var reg 1 ] instr_valid $end
$var reg 32 ^ instruction [31:0] $end
$var reg 1 _ manual_control $end
$var reg 32 ` manual_cpsr_data [31:0] $end
$var reg 1 a manual_cpsr_we $end
$var reg 4 b manual_rd_addr [3:0] $end
$var reg 32 c manual_rd_data [31:0] $end
$var reg 1 d manual_rd_we $end
$var reg 1 e mode_change $end
$var reg 32 f pc_in [31:0] $end
$var reg 32 g reg_pc_in [31:0] $end
$var reg 1 h reg_pc_we $end
$var reg 4 i reg_rd_addr [3:0] $end
$var reg 1 j reg_rd_we $end
$var reg 32 k reg_rd_write_data [31:0] $end
$var reg 4 l reg_rm_addr [3:0] $end
$var reg 4 m reg_rn_addr [3:0] $end
$var reg 1 n rst_n $end
$var reg 32 o spsr_in [31:0] $end
$var reg 1 p spsr_we $end
$var reg 1 q stall $end
$var reg 5 r target_mode [4:0] $end
$var reg 1 s thumb_mode $end
$var integer 32 t tests_passed [31:0] $end
$var integer 32 u tests_run [31:0] $end
$scope module u_decode $end
$var wire 1 M branch_link $end
$var wire 24 v branch_offset [23:0] $end
$var wire 1 X clk $end
$var wire 4 w condition [3:0] $end
$var wire 1 % decode_valid $end
$var wire 1 \ flush $end
$var wire 1 C imm_en $end
$var wire 12 x immediate [11:0] $end
$var wire 1 ] instr_valid $end
$var wire 32 y instruction [31:0] $end
$var wire 1 ? is_memory $end
$var wire 1 > mem_byte $end
$var wire 1 = mem_load $end
$var wire 1 < mem_pre $end
$var wire 1 ; mem_up $end
$var wire 1 : mem_writeback $end
$var wire 32 z pc_in [31:0] $end
$var wire 32 { pc_out [31:0] $end
$var wire 1 8 psr_immediate $end
$var wire 1 7 psr_spsr $end
$var wire 1 6 psr_to_reg $end
$var wire 4 | rd [3:0] $end
$var wire 4 } rm [3:0] $end
$var wire 4 ~ rn [3:0] $end
$var wire 1 n rst_n $end
$var wire 1 2 set_flags $end
$var wire 1 0 shift_reg $end
$var wire 2 !" shift_type [1:0] $end
$var wire 1 q stall $end
$var wire 1 s thumb_mode $end
$var wire 1 "" w_bit $end
$var wire 1 #" u_bit $end
$var wire 2 $" shift_type_field [1:0] $end
$var wire 4 %" shift_rs [3:0] $end
$var wire 5 &" shift_amt_field [4:0] $end
$var wire 5 '" shift_amount [4:0] $end
$var wire 1 (" s_bit $end
$var wire 4 )" rn_field [3:0] $end
$var wire 4 *" rm_field [3:0] $end
$var wire 4 +" rd_field [3:0] $end
$var wire 1 ," p_bit $end
$var wire 6 -" op_code [5:0] $end
$var wire 2 ." op_class [1:0] $end
$var wire 1 /" l_bit_mem $end
$var wire 1 0" l_bit $end
$var wire 1 @ is_branch $end
$var wire 12 1" imm_field [11:0] $end
$var wire 1 2" i_bit $end
$var wire 4 3" cond_field [3:0] $end
$var wire 24 4" branch_offset_field [23:0] $end
$var wire 1 5" b_bit $end
$var wire 4 6" alu_op [3:0] $end
$var reg 1 J cp_load $end
$var reg 4 7" cp_num [3:0] $end
$var reg 3 8" cp_op [2:0] $end
$var reg 3 9" cp_opcode1 [2:0] $end
$var reg 3 :" cp_opcode2 [2:0] $end
$var reg 4 ;" cp_rd [3:0] $end
$var reg 4 <" cp_rn [3:0] $end
$var reg 4 =" instr_type [3:0] $end
$var reg 32 >" pc_reg [31:0] $end
$var reg 5 ?" thumb_imm5 [4:0] $end
$var reg 8 @" thumb_imm8 [7:0] $end
$var reg 5 A" thumb_instr_type [4:0] $end
$var reg 11 B" thumb_offset11 [10:0] $end
$var reg 8 C" thumb_offset8 [7:0] $end
$var reg 3 D" thumb_rd [2:0] $end
$var reg 3 E" thumb_rn [2:0] $end
$var reg 3 F" thumb_rs [2:0] $end
$var reg 1 G" valid_reg $end
$upscope $end
$scope module u_regfile $end
$var wire 1 X clk $end
$var wire 32 H" cpsr_in [31:0] $end
$var wire 32 I" cpsr_out [31:0] $end
$var wire 1 Z cpsr_we $end
$var wire 5 J" current_mode [4:0] $end
$var wire 1 e mode_change $end
$var wire 32 K" pc_in [31:0] $end
$var wire 32 L" pc_out [31:0] $end
$var wire 1 h pc_we $end
$var wire 4 M" rd_addr [3:0] $end
$var wire 32 N" rd_data [31:0] $end
$var wire 1 j rd_we $end
$var wire 4 O" rm_addr [3:0] $end
$var wire 32 P" rm_data [31:0] $end
$var wire 4 Q" rn_addr [3:0] $end
$var wire 32 R" rn_data [31:0] $end
$var wire 1 n rst_n $end
$var wire 32 S" spsr_in [31:0] $end
$var wire 32 T" spsr_out [31:0] $end
$var wire 1 p spsr_we $end
$var wire 5 U" target_mode [4:0] $end
$var reg 32 V" cpsr [31:0] $end
$var reg 32 W" current_spsr [31:0] $end
$var reg 32 X" rm_data_internal [31:0] $end
$var reg 32 Y" rn_data_internal [31:0] $end
$var reg 32 Z" spsr_abt [31:0] $end
$var reg 32 [" spsr_fiq [31:0] $end
$var reg 32 \" spsr_irq [31:0] $end
$var reg 32 ]" spsr_svc [31:0] $end
$var reg 32 ^" spsr_und [31:0] $end
$scope begin $ivl_for_loop0 $end
$var integer 32 _" i [31:0] $end
$upscope $end
$scope begin $ivl_for_loop1 $end
$var integer 32 `" i [31:0] $end
$upscope $end
$scope begin $ivl_for_loop2 $end
$var integer 32 a" i [31:0] $end
$upscope $end
$upscope $end
$scope begin $unm_blk_138 $end
$var reg 33 b" temp_add [32:0] $end
$var reg 33 c" temp_sub [32:0] $end
$upscope $end
$scope task test_regfile_operation $end
$var reg 1 d" expected_c $end
$var reg 1 e" expected_n $end
$var reg 32 f" expected_rd_result [31:0] $end
$var reg 1 g" expected_v $end
$var reg 1 h" expected_z $end
$var reg 32 i" initial_cpsr [31:0] $end
$var reg 32 j" instr [31:0] $end
$var reg 32 k" reg_rm_init [31:0] $end
$var reg 32 l" reg_rn_init [31:0] $end
$var integer 32 m" i [31:0] $end
$upscope $end
$upscope $end
$enddefinitions $end
#0
$dumpvars
b0 m"
bx l"
bx k"
bx j"
bx i"
xh"
xg"
bx f"
xe"
xd"
bx c"
bx b"
b1111 a"
b1111 `"
b10000 _"
b0 ^"
b0 ]"
b0 \"
b0 ["
b0 Z"
bx Y"
bx X"
b0 W"
b10011 V"
b10000 U"
b0 T"
b0 S"
bx R"
bx Q"
bx P"
bx O"
b0 N"
bx M"
b0 L"
b0 K"
b10000 J"
b10011 I"
b1000000000000000000000000010011 H"
0G"
b0 F"
b0 E"
b0 D"
b0 C"
b0 B"
b1 A"
b0 @"
b0 ?"
b0 >"
b111 ="
b0 <"
b0 ;"
b0 :"
b0 9"
b0 8"
b0 7"
bx 6"
x5"
bx 4"
bx 3"
x2"
bx 1"
x0"
x/"
bx ."
bx -"
x,"
bx +"
bx *"
bx )"
x("
bx '"
bx &"
bx %"
bx $"
x#"
x""
bx !"
bx ~
bx }
bx |
b0 {
b0 z
bx y
bx x
bx w
bx v
b0 u
b0 t
0s
b10000 r
0q
0p
b0 o
0n
bx m
bx l
b0 k
0j
bx i
0h
b0 g
b0 f
0e
0d
bx c
bx b
0a
bx `
0_
bx ^
1]
0\
b10000 [
0Z
b1000000000000000000000000010011 Y
0X
1W
b0 V
0U
0T
0S
bx R
bx Q
bx P
b10011 O
bx N
0M
bx L
bx K
0J
b0 I
b0 H
b0 G
b0 F
b0 E
b0 D
0C
bx B
b111 A
0@
0?
x>
x=
x<
x;
x:
b0 9
08
07
06
bx 5
bx 4
bx 3
02
bx 1
00
bx /
bx .
b0 -
b0 ,
b1 +
b0 *
b0 )
b0 (
b0 '
b0 &
0%
b0 $
bx #
bx "
b0 !
$end
#5000
b1111 a"
b1111 `"
b10000 _"
1X
#10000
0X
#15000
1%
1G"
1n
1X
#20000
0X
#25000
1X
#30000
0X
#35000
b1 u
0g"
0d"
0h"
0e"
b10010001101000101011001111000 f"
b10010001101000101011001111000 k"
b0 l"
b11100001101000000000000000000001 j"
1X
#40000
0X
#45000
bx Q
bx "
bx R"
bx Y"
bx m
bx Q"
1X
#50000
0X
#55000
b1 m"
1X
#60000
0X
#65000
bx Q
bx "
bx R"
bx Y"
bx m
bx Q"
1X
#70000
0X
#75000
b10 m"
1X
#80000
0X
#85000
bx Q
bx "
bx R"
bx Y"
bx m
bx Q"
1X
#90000
0X
#95000
b11 m"
1X
#100000
0X
#105000
bx Q
bx "
bx R"
bx Y"
bx m
bx Q"
1X
#110000
0X
#115000
b100 m"
1X
#120000
0X
#125000
bx Q
bx "
bx R"
bx Y"
bx m
bx Q"
1X
#130000
0X
#135000
b101 m"
1X
#140000
0X
#145000
bx Q
bx "
bx R"
bx Y"
bx m
bx Q"
1X
#150000
0X
#155000
b110 m"
1X
#160000
0X
#165000
bx Q
bx "
bx R"
bx Y"
bx m
bx Q"
1X
#170000
0X
#175000
b111 m"
1X
#180000
0X
#185000
bx Q
bx "
bx R"
bx Y"
bx m
bx Q"
1X
#190000
0X
#195000
b1000 m"
1X
#200000
0X
#205000
bx Q
bx "
bx R"
bx Y"
bx m
bx Q"
1X
#210000
0X
#215000
b1001 m"
1X
#220000
0X
#225000
bx Q
bx "
bx R"
bx Y"
bx m
bx Q"
1X
#230000
0X
#235000
b1010 m"
1X
#240000
0X
#245000
bx Q
bx "
bx R"
bx Y"
bx m
bx Q"
1X
#250000
0X
#255000
b1011 m"
1X
#260000
0X
#265000
bx Q
bx "
bx R"
bx Y"
bx m
bx Q"
1X
#270000
0X
#275000
b1100 m"
1X
#280000
0X
#285000
bx Q
bx "
bx R"
bx Y"
bx m
bx Q"
1X
#290000
0X
#295000
b1101 m"
1X
#300000
0X
#305000
bx Q
bx "
bx R"
bx Y"
bx m
bx Q"
1X
#310000
0X
#315000
b1110 m"
1X
#320000
0X
#325000
bx Q
bx "
bx R"
bx Y"
bx m
bx Q"
1X
#330000
0X
#335000
b1111 m"
1X
#340000
0X
#345000
bx Q
bx "
bx R"
bx Y"
bx m
bx Q"
1X
#350000
0X
#355000
b1000000000000000000000000010011 Y
b1000000000000000000000000010011 H"
b0 k
b0 N"
b0 R
b0 Q
b0 1
b0 '"
b0 #
b0 P"
b0 X"
b0 "
b0 R"
b0 Y"
0T
1W
b0 V
1j
b0 i
b0 M"
b1 l
b1 O"
b0 m
b0 Q"
b0 A
b0 ="
b1110 K
b1110 w
b1110 3"
b0 ."
02"
b110100 -"
0("
b0 3
b0 ~
b0 )"
b0 5
b0 |
b0 +"
b1 4
b1 }
b1 *"
b1 B
b1 x
b1 1"
b0 .
b0 !"
b0 $"
b0 &"
10"
b101000000000000000000001 L
b101000000000000000000001 v
b101000000000000000000001 4"
1<
1,"
1;
1#"
0>
05"
1:
1""
0=
0/"
b1101 N
b1101 6"
b0 /
b0 %"
b11100001101000000000000000000001 ^
b11100001101000000000000000000001 y
b10011 i"
b10000 m"
1X
#360000
0X
#365000
b0 A
b0 ="
bx Y
bx H"
b0 c
1d
b0 b
1_
1X
#370000
0X
#375000
b0 A
b0 ="
b10010001101000101011001111000 k
b10010001101000101011001111000 N"
b1 i
b1 M"
b10010001101000101011001111000 c
b1 b
1X
#380000
0X
#385000
0W
b10010001101000101011001111000 V
b10010001101000101011001111000 R
b10010001101000101011001111000 #
b10010001101000101011001111000 P"
b10010001101000101011001111000 X"
b0 A
b0 ="
b10011 Y
b10011 H"
b10010001101000101011001111000 k
b10010001101000101011001111000 N"
b0 i
b0 M"
0_
0d
1X
#390000
0X
#395000
b10010001101000101011001111000 Q
b0 A
b0 ="
b10010001101000101011001111000 "
b10010001101000101011001111000 R"
b10010001101000101011001111000 Y"
1X
#400000
0X
#405000
b0 A
b0 ="
bx Y
bx H"
0j
b1 i
b1 M"
1_
1X
#410000
0X
#415000
1X
#416000
b0 A
b0 ="
b10011 Y
b10011 H"
1j
b0 i
b0 M"
b0 m"
b10 u
b1100000000 f"
b1000000000 k"
b100000000 l"
b11100000100000100001000000000011 j"
0_
b1 t
b10010001101000101011001111000 P
#420000
0X
#425000
1X
#430000
0X
#435000
b1 m"
1X
#440000
0X
#445000
b0 A
b0 ="
b0 m
b0 Q"
1X
#450000
0X
#455000
b10 m"
1X
#460000
0X
#465000
b10010001101000101011001111000 Q
b0 A
b0 ="
b10010001101000101011001111000 "
b10010001101000101011001111000 R"
b10010001101000101011001111000 Y"
b0 m
b0 Q"
1X
#470000
0X
#475000
b11 m"
1X
#480000
0X
#485000
b10010001101000101011001111000 Q
b0 A
b0 ="
b10010001101000101011001111000 "
b10010001101000101011001111000 R"
b10010001101000101011001111000 Y"
b0 m
b0 Q"
1X
#490000
0X
#495000
b100 m"
1X
#500000
0X
#505000
b10010001101000101011001111000 Q
b0 A
b0 ="
b10010001101000101011001111000 "
b10010001101000101011001111000 R"
b10010001101000101011001111000 Y"
b0 m
b0 Q"
1X
#510000
0X
#515000
b101 m"
1X
#520000
0X
#525000
b10010001101000101011001111000 Q
b0 A
b0 ="
b10010001101000101011001111000 "
b10010001101000101011001111000 R"
b10010001101000101011001111000 Y"
b0 m
b0 Q"
1X
#530000
0X
#535000
b110 m"
1X
#540000
0X
#545000
b10010001101000101011001111000 Q
b0 A
b0 ="
b10010001101000101011001111000 "
b10010001101000101011001111000 R"
b10010001101000101011001111000 Y"
b0 m
b0 Q"
1X
#550000
0X
#555000
b111 m"
1X
#560000
0X
#565000
b10010001101000101011001111000 Q
b0 A
b0 ="
b10010001101000101011001111000 "
b10010001101000101011001111000 R"
b10010001101000101011001111000 Y"
b0 m
b0 Q"
1X
#570000
0X
#575000
b1000 m"
1X
#580000
0X
#585000
b10010001101000101011001111000 Q
b0 A
b0 ="
b10010001101000101011001111000 "
b10010001101000101011001111000 R"
b10010001101000101011001111000 Y"
b0 m
b0 Q"
1X
#590000
0X
#595000
b1001 m"
1X
#600000
0X
#605000
b10010001101000101011001111000 Q
b0 A
b0 ="
b10010001101000101011001111000 "
b10010001101000101011001111000 R"
b10010001101000101011001111000 Y"
b0 m
b0 Q"
1X
#610000
0X
#615000
b1010 m"
1X
#620000
0X
#625000
b10010001101000101011001111000 Q
b0 A
b0 ="
b10010001101000101011001111000 "
b10010001101000101011001111000 R"
b10010001101000101011001111000 Y"
b0 m
b0 Q"
1X
#630000
0X
#635000
b1011 m"
1X
#640000
0X
#645000
b10010001101000101011001111000 Q
b0 A
b0 ="
b10010001101000101011001111000 "
b10010001101000101011001111000 R"
b10010001101000101011001111000 Y"
b0 m
b0 Q"
1X
#650000
0X
#655000
b1100 m"
1X
#660000
0X
#665000
b10010001101000101011001111000 Q
b0 A
b0 ="
b10010001101000101011001111000 "
b10010001101000101011001111000 R"
b10010001101000101011001111000 Y"
b0 m
b0 Q"
1X
#670000
0X
#675000
b1101 m"
1X
#680000
0X
#685000
b10010001101000101011001111000 Q
b0 A
b0 ="
b10010001101000101011001111000 "
b10010001101000101011001111000 R"
b10010001101000101011001111000 Y"
b0 m
b0 Q"
1X
#690000
0X
#695000
b1110 m"
1X
#700000
0X
#705000
b10010001101000101011001111000 Q
b0 A
b0 ="
b10010001101000101011001111000 "
b10010001101000101011001111000 R"
b10010001101000101011001111000 Y"
b0 m
b0 Q"
1X
#710000
0X
#715000
b1111 m"
1X
#720000
0X
#725000
b10010001101000101011001111000 Q
b0 A
b0 ="
b10010001101000101011001111000 "
b10010001101000101011001111000 R"
b10010001101000101011001111000 Y"
b0 m
b0 Q"
1X
#730000
0X
#735000
b1000000000000000000000000010011 Y
b1000000000000000000000000010011 H"
1W
b0 k
b0 N"
b0 R
b0 Q
b0 #
b0 P"
b0 X"
b0 "
b0 R"
b0 Y"
b0 V
b0 b"
b1 i
b1 M"
b11 l
b11 O"
b10 m
b10 Q"
b0 A
b0 ="
b10000 -"
b10 3
b10 ~
b10 )"
b1 5
b1 |
b1 +"
b11 4
b11 }
b11 *"
b11 B
b11 x
b11 1"
00"
b100000100001000000000011 L
b100000100001000000000011 v
b100000100001000000000011 4"
0<
0,"
0:
0""
b100 N
b100 6"
b11100000100000100001000000000011 ^
b11100000100000100001000000000011 y
b10000 m"
1X
#740000
0X
#745000
b0 A
b0 ="
bx Y
bx H"
b100000000 k
b100000000 N"
b10 i
b10 M"
b100000000 c
1d
b10 b
1_
1X
#750000
0X
#755000
0W
b100000000 V
b100000000 b"
b100000000 Q
b100000000 "
b100000000 R"
b100000000 Y"
b0 A
b0 ="
b1000000000 k
b1000000000 N"
b11 i
b11 M"
b1000000000 c
b11 b
1X
#760000
0X
#765000
b1100000000 V
b1100000000 b"
b1000000000 R
b1000000000 #
b1000000000 P"
b1000000000 X"
b0 A
b0 ="
b10011 Y
b10011 H"
b1100000000 k
b1100000000 N"
b1 i
b1 M"
0_
0d
1X
#770000
0X
#775000
b0 A
b0 ="
1X
#780000
0X
#785000
b0 A
b0 ="
bx Y
bx H"
b1000000000 k
b1000000000 N"
0j
b11 i
b11 M"
1_
1X
#790000
0X
#795000
b10100000000 V
b10100000000 b"
b1100000000 Q
b0 A
b0 ="
b1100000000 "
b1100000000 R"
b1100000000 Y"
b1 m
b1 Q"
1X
#796000
b1100000000 V
b1100000000 b"
b100000000 Q
b0 A
b0 ="
b100000000 "
b100000000 R"
b100000000 Y"
b10011 Y
b10011 H"
b1100000000 k
b1100000000 N"
1j
b1 i
b1 M"
b10 m
b10 Q"
b0 m"
b11 u
b10100000000 l"
b11100000010000110010000000000001 j"
0_
b10 t
b1100000000 P
#800000
0X
#805000
b1100000000 k
b1100000000 N"
b1100000000 V
b1100000000 b"
b100000000 Q
b0 A
b0 ="
b100000000 "
b100000000 R"
b100000000 Y"
b10 m
b10 Q"
1X
#810000
0X
#815000
b1 m"
1X
#820000
0X
#825000
b1100000000 k
b1100000000 N"
b1100000000 V
b1100000000 b"
b100000000 Q
b0 A
b0 ="
b100000000 "
b100000000 R"
b100000000 Y"
b10 m
b10 Q"
1X
#830000
0X
#835000
b10 m"
1X
#840000
0X
#845000
1X
#850000
0X
#855000
b11 m"
1X
#860000
0X
#865000
b1100000000 k
b1100000000 N"
b1100000000 V
b1100000000 b"
b100000000 Q
b0 A
b0 ="
b100000000 "
b100000000 R"
b100000000 Y"
b10 m
b10 Q"
1X
#870000
0X
#875000
b100 m"
1X
#880000
0X
#885000
b1100000000 k
b1100000000 N"
b1100000000 V
b1100000000 b"
b100000000 Q
b0 A
b0 ="
b100000000 "
b100000000 R"
b100000000 Y"
b10 m
b10 Q"
1X
#890000
0X
#895000
b101 m"
1X
#900000
0X
#905000
b1100000000 k
b1100000000 N"
b1100000000 V
b1100000000 b"
b100000000 Q
b0 A
b0 ="
b100000000 "
b100000000 R"
b100000000 Y"
b10 m
b10 Q"
1X
#910000
0X
#915000
b110 m"
1X
#920000
0X
#925000
b1100000000 k
b1100000000 N"
b1100000000 V
b1100000000 b"
b100000000 Q
b0 A
b0 ="
b100000000 "
b100000000 R"
b100000000 Y"
b10 m
b10 Q"
1X
#930000
0X
#935000
b111 m"
1X
#940000
0X
#945000
b1100000000 k
b1100000000 N"
b1100000000 V
b1100000000 b"
b100000000 Q
b0 A
b0 ="
b100000000 "
b100000000 R"
b100000000 Y"
b10 m
b10 Q"
1X
#950000
0X
#955000
b1000 m"
1X
#960000
0X
#965000
b1100000000 k
b1100000000 N"
b1100000000 V
b1100000000 b"
b100000000 Q
b0 A
b0 ="
b100000000 "
b100000000 R"
b100000000 Y"
b10 m
b10 Q"
1X
#970000
0X
#975000
b1001 m"
1X
#980000
0X
#985000
b1100000000 k
b1100000000 N"
b1100000000 V
b1100000000 b"
b100000000 Q
b0 A
b0 ="
b100000000 "
b100000000 R"
b100000000 Y"
b10 m
b10 Q"
1X
#990000
0X
#995000
b1010 m"
1X
#1000000
0X
#1005000
b1100000000 k
b1100000000 N"
b1100000000 V
b1100000000 b"
b100000000 Q
b0 A
b0 ="
b100000000 "
b100000000 R"
b100000000 Y"
b10 m
b10 Q"
1X
#1010000
0X
#1015000
b1011 m"
1X
#1020000
0X
#1025000
b1100000000 k
b1100000000 N"
b1100000000 V
b1100000000 b"
b100000000 Q
b0 A
b0 ="
b100000000 "
b100000000 R"
b100000000 Y"
b10 m
b10 Q"
1X
#1030000
0X
#1035000
b1100 m"
1X
#1040000
0X
#1045000
b1100000000 k
b1100000000 N"
b1100000000 V
b1100000000 b"
b100000000 Q
b0 A
b0 ="
b100000000 "
b100000000 R"
b100000000 Y"
b10 m
b10 Q"
1X
#1050000
0X
#1055000
b1101 m"
1X
#1060000
0X
#1065000
b1100000000 k
b1100000000 N"
b1100000000 V
b1100000000 b"
b100000000 Q
b0 A
b0 ="
b100000000 "
b100000000 R"
b100000000 Y"
b10 m
b10 Q"
1X
#1070000
0X
#1075000
b1110 m"
1X
#1080000
0X
#1085000
b1100000000 k
b1100000000 N"
b1100000000 V
b1100000000 b"
b100000000 Q
b0 A
b0 ="
b100000000 "
b100000000 R"
b100000000 Y"
b10 m
b10 Q"
1X
#1090000
0X
#1095000
b1111 m"
1X
#1100000
0X
#1105000
b1100000000 k
b1100000000 N"
b1100000000 V
b1100000000 b"
b100000000 Q
b0 A
b0 ="
b100000000 "
b100000000 R"
b100000000 Y"
b10 m
b10 Q"
1X
#1110000
0X
#1115000
b10000000000000000000000000010011 Y
b10000000000000000000000000010011 H"
b11111111111111111111111100000000 k
b11111111111111111111111100000000 N"
b1100000000 R
b1000000000 Q
b1100000000 #
b1100000000 P"
b1100000000 X"
b1000000000 "
b1000000000 R"
b1000000000 Y"
1T
b11111111111111111111111100000000 V
b11111111111111111111111100000000 c"
b10 i
b10 M"
b1 l
b1 O"
b11 m
b11 Q"
b0 A
b0 ="
b1000 -"
b11 3
b11 ~
b11 )"
b10 5
b10 |
b10 +"
b1 4
b1 }
b1 *"
b1 B
b1 x
b1 1"
b10000110010000000000001 L
b10000110010000000000001 v
b10000110010000000000001 4"
0;
0#"
1>
15"
b10 N
b10 6"
b11100000010000110010000000000001 ^
b11100000010000110010000000000001 y
b10000 m"
1X
#1120000
0X
#1125000
b0 A
b0 ="
bx Y
bx H"
b10100000000 k
b10100000000 N"
b11 i
b11 M"
b10100000000 c
1d
1_
1X
#1130000
0X
#1135000
0T
b1000000000 V
1S
b100000000000000000000001000000000 c"
b10100000000 Q
b10100000000 "
b10100000000 R"
b10100000000 Y"
b0 A
b0 ="
b1000000000 k
b1000000000 N"
b1 i
b1 M"
b1000000000 c
b1 b
1X
#1140000
0X
#1145000
b1100000000 k
b1100000000 N"
b1100000000 V
b100000000000000000000001100000000 c"
b1000000000 R
b1000000000 #
b1000000000 P"
b1000000000 X"
b0 A
b0 ="
b100000000000000000000000010011 Y
b100000000000000000000000010011 H"
b10 i
b10 M"
0_
0d
1X
#1150000
0X
#1155000
b0 A
b0 ="
1X
#1160000
0X
#1165000
b0 A
b0 ="
bx Y
bx H"
b1000000000 k
b1000000000 N"
0j
b1 i
b1 M"
1_
1X
#1170000
0X
#1175000
b100000000 V
b100000000000000000000000100000000 c"
b1100000000 Q
b0 A
b0 ="
b1100000000 "
b1100000000 R"
b1100000000 Y"
b10 m
b10 Q"
1X
#1176000
b1100000000 V
b100000000000000000000001100000000 c"
b10100000000 Q
b0 A
b0 ="
b10100000000 "
b10100000000 R"
b10100000000 Y"
b100000000000000000000000010011 Y
b100000000000000000000000010011 H"
b1100000000 k
b1100000000 N"
1j
b10 i
b10 M"
b11 m
b11 Q"
b0 m"
b100 u
1h"
b0 f"
b0 k"
b0 l"
b11100001101100000000000000000001 j"
0_
b11 t
#1180000
0X
#1185000
b1100000000 k
b1100000000 N"
b1100000000 V
b100000000000000000000001100000000 c"
b10100000000 Q
b0 A
b0 ="
b10100000000 "
b10100000000 R"
b10100000000 Y"
b11 m
b11 Q"
1X
#1190000
0X
#1195000
b1 m"
1X
#1200000
0X
#1205000
b100000000000000000000000010011 Y
b100000000000000000000000010011 H"
b1100000000 k
b1100000000 N"
0W
b1100000000 V
b100000000000000000000001100000000 c"
b10100000000 Q
b0 A
b0 ="
b10100000000 "
b10100000000 R"
b10100000000 Y"
b11 m
b11 Q"
1X
#1210000
0X
#1215000
b10 m"
1X
#1220000
0X
#1225000
b1100000000 k
b1100000000 N"
b1100000000 V
b100000000000000000000001100000000 c"
b10100000000 Q
b0 A
b0 ="
b10100000000 "
b10100000000 R"
b10100000000 Y"
b11 m
b11 Q"
1X
#1230000
0X
#1235000
b11 m"
1X
#1240000
0X
#1245000
1X
#1250000
0X
#1255000
b100 m"
1X
#1260000
0X
#1265000
b100000000000000000000000010011 Y
b100000000000000000000000010011 H"
b1100000000 k
b1100000000 N"
0T
b1100000000 V
1S
b100000000000000000000001100000000 c"
b10100000000 Q
b0 A
b0 ="
b10100000000 "
b10100000000 R"
b10100000000 Y"
b11 m
b11 Q"
1X
#1270000
0X
#1275000
b101 m"
1X
#1280000
0X
#1285000
b100000000000000000000000010011 Y
b100000000000000000000000010011 H"
b1100000000 k
b1100000000 N"
0T
b1100000000 V
1S
b100000000000000000000001100000000 c"
b10100000000 Q
b0 A
b0 ="
b10100000000 "
b10100000000 R"
b10100000000 Y"
b11 m
b11 Q"
1X
#1290000
0X
#1295000
b110 m"
1X
#1300000
0X
#1305000
b100000000000000000000000010011 Y
b100000000000000000000000010011 H"
b1100000000 k
b1100000000 N"
0T
b1100000000 V
1S
b100000000000000000000001100000000 c"
b10100000000 Q
b0 A
b0 ="
b10100000000 "
b10100000000 R"
b10100000000 Y"
b11 m
b11 Q"
1X
#1310000
0X
#1315000
b111 m"
1X
#1320000
0X
#1325000
b100000000000000000000000010011 Y
b100000000000000000000000010011 H"
b1100000000 k
b1100000000 N"
0T
b1100000000 V
1S
b100000000000000000000001100000000 c"
b10100000000 Q
b0 A
b0 ="
b10100000000 "
b10100000000 R"
b10100000000 Y"
b11 m
b11 Q"
1X
#1330000
0X
#1335000
b1000 m"
1X
#1340000
0X
#1345000
b100000000000000000000000010011 Y
b100000000000000000000000010011 H"
b1100000000 k
b1100000000 N"
0T
b1100000000 V
1S
b100000000000000000000001100000000 c"
b10100000000 Q
b0 A
b0 ="
b10100000000 "
b10100000000 R"
b10100000000 Y"
b11 m
b11 Q"
1X
#1350000
0X
#1355000
b1001 m"
1X
#1360000
0X
#1365000
b100000000000000000000000010011 Y
b100000000000000000000000010011 H"
b1100000000 k
b1100000000 N"
0T
b1100000000 V
1S
b100000000000000000000001100000000 c"
b10100000000 Q
b0 A
b0 ="
b10100000000 "
b10100000000 R"
b10100000000 Y"
b11 m
b11 Q"
1X
#1370000
0X
#1375000
b1010 m"
1X
#1380000
0X
#1385000
b100000000000000000000000010011 Y
b100000000000000000000000010011 H"
b1100000000 k
b1100000000 N"
0T
b1100000000 V
1S
b100000000000000000000001100000000 c"
b10100000000 Q
b0 A
b0 ="
b10100000000 "
b10100000000 R"
b10100000000 Y"
b11 m
b11 Q"
1X
#1390000
0X
#1395000
b1011 m"
1X
#1400000
0X
#1405000
b100000000000000000000000010011 Y
b100000000000000000000000010011 H"
b1100000000 k
b1100000000 N"
0T
b1100000000 V
1S
b100000000000000000000001100000000 c"
b10100000000 Q
b0 A
b0 ="
b10100000000 "
b10100000000 R"
b10100000000 Y"
b11 m
b11 Q"
1X
#1410000
0X
#1415000
b1100 m"
1X
