sim/thumb_comprehensive_test_tb.vcd
$date
	Fri Jul 25 11:05:30 2025
$end
$version
	Icarus Verilog
$end
$timescale
	1ps
$end
$scope module thumb_comprehensive_test_tb $end
$var wire 1 ! decode_valid $end
$var wire 3 " decode_thumb_rs [2:0] $end
$var wire 3 # decode_thumb_rn [2:0] $end
$var wire 3 $ decode_thumb_rd [2:0] $end
$var wire 8 % decode_thumb_offset8 [7:0] $end
$var wire 11 & decode_thumb_offset11 [10:0] $end
$var wire 5 ' decode_thumb_instr_type [4:0] $end
$var wire 8 ( decode_thumb_imm8 [7:0] $end
$var wire 5 ) decode_thumb_imm5 [4:0] $end
$var wire 4 * decode_instr_type [3:0] $end
$var wire 4 + decode_condition [3:0] $end
$var reg 1 , clk $end
$var reg 1 - flush $end
$var reg 1 . instr_valid $end
$var reg 32 / instruction [31:0] $end
$var reg 32 0 pc_in [31:0] $end
$var reg 1 1 rst_n $end
$var reg 1 2 stall $end
$var reg 1 3 test_passed $end
$var reg 1 4 thumb_mode $end
$var integer 32 5 tests_passed [31:0] $end
$var integer 32 6 tests_run [31:0] $end
$scope function get_thumb_type_name $end
$var reg 5 7 instr_type [4:0] $end
$upscope $end
$scope module u_decode $end
$var wire 1 8 branch_link $end
$var wire 24 9 branch_offset [23:0] $end
$var wire 1 , clk $end
$var wire 4 : condition [3:0] $end
$var wire 1 ! decode_valid $end
$var wire 1 - flush $end
$var wire 1 ; imm_en $end
$var wire 12 < immediate [11:0] $end
$var wire 1 . instr_valid $end
$var wire 32 = instruction [31:0] $end
$var wire 1 > is_memory $end
$var wire 1 ? mem_byte $end
$var wire 1 @ mem_load $end
$var wire 1 A mem_pre $end
$var wire 1 B mem_up $end
$var wire 1 C mem_writeback $end
$var wire 32 D pc_in [31:0] $end
$var wire 32 E pc_out [31:0] $end
$var wire 1 F psr_immediate $end
$var wire 1 G psr_spsr $end
$var wire 1 H psr_to_reg $end
$var wire 4 I rd [3:0] $end
$var wire 4 J rm [3:0] $end
$var wire 4 K rn [3:0] $end
$var wire 1 1 rst_n $end
$var wire 1 L set_flags $end
$var wire 1 M shift_reg $end
$var wire 2 N shift_type [1:0] $end
$var wire 1 2 stall $end
$var wire 1 4 thumb_mode $end
$var wire 1 O w_bit $end
$var wire 1 P u_bit $end
$var wire 2 Q shift_type_field [1:0] $end
$var wire 4 R shift_rs [3:0] $end
$var wire 5 S shift_amt_field [4:0] $end
$var wire 5 T shift_amount [4:0] $end
$var wire 1 U s_bit $end
$var wire 4 V rn_field [3:0] $end
$var wire 4 W rm_field [3:0] $end
$var wire 4 X rd_field [3:0] $end
$var wire 1 Y p_bit $end
$var wire 6 Z op_code [5:0] $end
$var wire 2 [ op_class [1:0] $end
$var wire 1 \ l_bit_mem $end
$var wire 1 ] l_bit $end
$var wire 1 ^ is_branch $end
$var wire 12 _ imm_field [11:0] $end
$var wire 1 ` i_bit $end
$var wire 4 a cond_field [3:0] $end
$var wire 24 b branch_offset_field [23:0] $end
$var wire 1 c b_bit $end
$var wire 4 d alu_op [3:0] $end
$var reg 1 e cp_load $end
$var reg 4 f cp_num [3:0] $end
$var reg 3 g cp_op [2:0] $end
$var reg 3 h cp_opcode1 [2:0] $end
$var reg 3 i cp_opcode2 [2:0] $end
$var reg 4 j cp_rd [3:0] $end
$var reg 4 k cp_rn [3:0] $end
$var reg 4 l instr_type [3:0] $end
$var reg 32 m pc_reg [31:0] $end
$var reg 5 n thumb_imm5 [4:0] $end
$var reg 8 o thumb_imm8 [7:0] $end
$var reg 5 p thumb_instr_type [4:0] $end
$var reg 11 q thumb_offset11 [10:0] $end
$var reg 8 r thumb_offset8 [7:0] $end
$var reg 3 s thumb_rd [2:0] $end
$var reg 3 t thumb_rn [2:0] $end
$var reg 3 u thumb_rs [2:0] $end
$var reg 1 v valid_reg $end
$upscope $end
$scope begin $ivl_for_loop0 $end
$var integer 32 w i [31:0] $end
$upscope $end
$scope task test_thumb_instruction $end
$var reg 3 x expected_rd [2:0] $end
$var reg 3 y expected_rn [2:0] $end
$var reg 3 z expected_rs [2:0] $end
$var reg 5 { expected_type [4:0] $end
$var reg 16 | instr [15:0] $end
$var integer 32 } category_idx [31:0] $end
$upscope $end
$upscope $end
$enddefinitions $end
#0
$dumpvars
b0 }
bx |
bx {
bx z
bx y
bx x
b10011 w
0v
bx u
bx t
bx s
b0 r
b0 q
b1 p
b0 o
b0 n
b0 m
b111 l
b0 k
b0 j
b0 i
b0 h
b0 g
b0 f
0e
bx d
xc
bx b
bx a
x`
bx _
0^
x]
x\
bx [
bx Z
xY
bx X
bx W
bx V
xU
bx T
bx S
bx R
bx Q
xP
xO
bx N
0M
0L
bx K
bx J
bx I
0H
0G
0F
b0 E
b1000000000000 D
xC
xB
xA
x@
x?
0>
bx =
bx <
0;
bx :
bx 9
08
bx 7
b0 6
b0 5
14
x3
02
01
b1000000000000 0
bx /
1.
0-
0,
bx +
b111 *
b0 )
b0 (
b1 '
b0 &
b0 %
bx $
bx #
bx "
0!
$end
#5000
1,
#10000
0,
#15000
1!
1v
b1000000000000 E
b1000000000000 m
11
1,
#20000
0,
#25000
1,
#30000
0,
#35000
b0 T
b10 '
b10 p
b0 #
b0 t
b0 "
b0 u
b0 $
b0 s
b0 *
b0 l
b0 +
b0 :
b0 a
b0 [
0`
b0 Z
0U
b0 K
b0 V
b0 I
b0 X
b0 J
b0 W
b0 <
b0 _
b0 N
b0 Q
b0 S
0]
b0 9
b0 b
0A
0Y
0B
0P
0?
0c
0C
0O
0@
0\
b0 d
b0 R
b0 /
b0 =
b10 7
b1 6
b10 }
b0 y
b0 z
b0 x
b10 {
b0 |
1,
#40000
0,
#45000
1,
#50000
0,
#55000
b1 )
b1 n
b1 #
b1 t
b1 "
b1 u
b10 '
b10 p
b0 *
b0 l
b1000 J
b1000 W
b1001000 <
b1001000 _
b10 N
b10 Q
b1001000 9
b1001000 b
b1001000 /
b1001000 =
b10 6
b1001000 |
b1 5
13
1,
#60000
0,
#65000
1,
#70000
0,
#75000
b11000 T
b10000 )
b10000 n
b0 #
b0 t
b0 "
b0 u
b10 '
b10 p
b0 *
b0 l
b0 J
b0 W
b110000000000 <
b110000000000 _
b0 N
b0 Q
b11000 S
b110000000000 9
b110000000000 b
b1100 R
b110000000000 /
b110000000000 =
b11 6
b110000000000 |
b10 5
1,
#80000
0,
#85000
1,
#90000
0,
#95000
b0 T
b0 )
b0 n
b10 '
b10 p
b0 *
b0 l
b1 I
b1 X
b0 <
b0 _
b0 S
b1000000000000 9
b1000000000000 b
b0 R
b1000000000000 /
b1000000000000 =
b100 6
b1000000000000 |
b11 5
1,
#100000
0,
#105000
1,
#110000
0,
#115000
b10000 T
b0 '
b0 p
b0 *
b0 l
b100000000000 <
b100000000000 _
b10000 S
b1100000000000 9
b1100000000000 b
b1000 R
b1100000000000 /
b1100000000000 =
b0 7
b101 6
b0 }
b0 {
b1100000000000 |
b100 5
1,
#120000
0,
#125000
1,
#130000
0,
#135000
b10100 T
b0 '
b0 p
b0 *
b0 l
b101000000000 <
b101000000000 _
b10100 S
b1101000000000 9
b1101000000000 b
b1010 R
b1101000000000 /
b1101000000000 =
b110 6
b1101000000000 |
b101 5
1,
#140000
0,
#145000
1,
#150000
0,
#155000
b11000 T
b0 '
b0 p
b0 *
b0 l
b110000000000 <
b110000000000 _
b11000 S
b1110000000000 9
b1110000000000 b
b1100 R
b1110000000000 /
b1110000000000 =
b111 6
b1110000000000 |
b110 5
1,
#160000
0,
#165000
1,
#170000
0,
#175000
b11100 T
b0 '
b0 p
b0 *
b0 l
b111000000000 <
b111000000000 _
b11100 S
b1111000000000 9
b1111000000000 b
b1110 R
b1111000000000 /
b1111000000000 =
b1000 6
b1111000000000 |
b111 5
1,
#180000
0,
#185000
1,
#190000
0,
#195000
b0 T
b11 '
b11 p
b0 *
b0 l
b10 I
b10 X
b0 <
b0 _
b0 S
b10000000000000 9
b10000000000000 b
b0 R
b10000000000000 /
b10000000000000 =
b11 7
b1001 6
b11 }
b11 {
b10000000000000 |
b1000 5
1,
#200000
0,
#205000
1,
#210000
0,
#215000
b10000 T
b11 '
b11 p
b0 *
b0 l
b100000000000 <
b100000000000 _
b10000 S
b10100000000000 9
b10100000000000 b
b1000 R
b10100000000000 /
b10100000000000 =
b1010 6
b10100000000000 |
b1001 5
1,
#220000
0,
#225000
1,
#230000
0,
#235000
b0 T
b11 '
b11 p
b0 *
b0 l
b11 I
b11 X
b0 <
b0 _
b0 S
b11000000000000 9
b11000000000000 b
b0 R
b11000000000000 /
b11000000000000 =
b1011 6
b11000000000000 |
b1010 5
1,
#240000
0,
#245000
1,
#250000
0,
#255000
b10000 T
b11 '
b11 p
b0 *
b0 l
b100000000000 <
b100000000000 _
b10000 S
b11100000000000 9
b11100000000000 b
b1000 R
b11100000000000 /
b11100000000000 =
b1100 6
b11100000000000 |
b1011 5
1,
#260000
0,
#265000
1,
#270000
0,
#275000
b0 T
b1 '
b1 p
b0 *
b0 l
b100 I
b100 X
b0 <
b0 _
b0 S
b100000000000000 9
b100000000000000 b
b0 R
b100000000000000 /
b100000000000000 =
b1 7
b1101 6
b1 }
b1 {
b100000000000000 |
b1100 5
1,
#280000
0,
#285000
1,
#290000
0,
#295000
b1 #
b1 t
b0 *
b0 l
b1000000 <
b1000000 _
b10 N
b10 Q
b100000001000000 9
b100000001000000 b
b100000001000000 /
b100000001000000 =
b1110 6
b100000001000000 |
b1101 5
1,
#300000
0,
#305000
1,
#310000
0,
#315000
b1 T
b10 #
b10 t
b0 *
b0 l
b10000000 <
b10000000 _
b0 N
b0 Q
b1 S
b100000010000000 9
b100000010000000 b
b100000010000000 /
b100000010000000 =
b1111 6
b100000010000000 |
b1110 5
1,
#320000
0,
#325000
1,
#330000
0,
#335000
b11 #
b11 t
b0 *
b0 l
b11000000 <
b11000000 _
b10 N
b10 Q
b100000011000000 9
b100000011000000 b
b100000011000000 /
b100000011000000 =
b10000 6
b100000011000000 |
b1111 5
1,
#340000
0,
#345000
1,
#350000
0,
#355000
b10 T
b100 #
b100 t
b0 *
b0 l
b100000000 <
b100000000 _
b0 N
b0 Q
b10 S
b100000100000000 9
b100000100000000 b
b1 R
b100000100000000 /
b100000100000000 =
b10001 6
b100000100000000 |
b10000 5
1,
#360000
0,
#365000
1,
#370000
0,
#375000
b101 #
b101 t
b0 *
b0 l
b101000000 <
b101000000 _
b10 N
b10 Q
b100000101000000 9
b100000101000000 b
b100000101000000 /
b100000101000000 =
b10010 6
b100000101000000 |
b10001 5
1,
#380000
0,
#385000
1,
#390000
0,
#395000
b11 T
b110 #
b110 t
b0 *
b0 l
b110000000 <
b110000000 _
b0 N
b0 Q
b11 S
b100000110000000 9
b100000110000000 b
b100000110000000 /
b100000110000000 =
b10011 6
b100000110000000 |
b10010 5
1,
#400000
0,
#405000
1,
#410000
0,
#415000
b111 #
b111 t
b0 *
b0 l
b111000000 <
b111000000 _
b10 N
b10 Q
b100000111000000 9
b100000111000000 b
b100000111000000 /
b100000111000000 =
b10100 6
b100000111000000 |
b10011 5
1,
#420000
0,
#425000
1,
#430000
0,
#435000
b100 T
b0 #
b0 t
b0 *
b0 l
b1000000000 <
b1000000000 _
b0 N
b0 Q
b100 S
b100001000000000 9
b100001000000000 b
b10 R
b100001000000000 /
b100001000000000 =
b10101 6
b100001000000000 |
b10100 5
1,
#440000
0,
#445000
1,
#450000
0,
#455000
b1 #
b1 t
b0 *
b0 l
b1001000000 <
b1001000000 _
b10 N
b10 Q
b100001001000000 9
b100001001000000 b
b100001001000000 /
b100001001000000 =
b10110 6
b100001001000000 |
b10101 5
1,
#460000
0,
#465000
1,
#470000
0,
#475000
b101 T
b10 #
b10 t
b0 *
b0 l
b1010000000 <
b1010000000 _
b0 N
b0 Q
b101 S
b100001010000000 9
b100001010000000 b
b100001010000000 /
b100001010000000 =
b10111 6
b100001010000000 |
b10110 5
1,
#480000
0,
#485000
1,
#490000
0,
#495000
b11 #
b11 t
b0 *
b0 l
b1011000000 <
b1011000000 _
b10 N
b10 Q
b100001011000000 9
b100001011000000 b
b100001011000000 /
b100001011000000 =
b11000 6
b100001011000000 |
b10111 5
1,
#500000
0,
#505000
1,
#510000
0,
#515000
b110 T
b100 #
b100 t
b0 *
b0 l
b1100000000 <
b1100000000 _
b0 N
b0 Q
b110 S
b100001100000000 9
b100001100000000 b
b11 R
b100001100000000 /
b100001100000000 =
b11001 6
b100001100000000 |
b11000 5
1,
#520000
0,
#525000
1,
#530000
0,
#535000
b101 #
b101 t
b0 *
b0 l
b1101000000 <
b1101000000 _
b10 N
b10 Q
b100001101000000 9
b100001101000000 b
b100001101000000 /
b100001101000000 =
b11010 6
b100001101000000 |
b11001 5
1,
#540000
0,
#545000
1,
#550000
0,
#555000
b111 T
b110 #
b110 t
b0 *
b0 l
b1110000000 <
b1110000000 _
b0 N
b0 Q
b111 S
b100001110000000 9
b100001110000000 b
b100001110000000 /
b100001110000000 =
b11011 6
b100001110000000 |
b11010 5
1,
#560000
0,
#565000
1,
#570000
0,
#575000
b111 #
b111 t
b0 *
b0 l
b1111000000 <
b1111000000 _
b10 N
b10 Q
b100001111000000 9
b100001111000000 b
b100001111000000 /
b100001111000000 =
b11100 6
b100001111000000 |
b11011 5
1,
#580000
0,
#585000
1,
#590000
0,
#595000
b1000 T
b100 '
b100 p
b0 #
b0 t
b0 *
b0 l
b10000000000 <
b10000000000 _
b0 N
b0 Q
b1000 S
b100010000000000 9
b100010000000000 b
b100 R
b100010000000000 /
b100010000000000 =
b100 7
b11101 6
b100 }
b100 {
b100010000000000 |
b11100 5
1,
#600000
0,
#605000
1,
#610000
0,
#615000
b1010 T
b100 #
b100 t
b100 '
b100 p
b0 *
b0 l
b10100000000 <
b10100000000 _
b1010 S
b100010100000000 9
b100010100000000 b
b101 R
b100010100000000 /
b100010100000000 =
b11110 6
b100010100000000 |
b11101 5
1,
#620000
0,
#625000
1,
#630000
0,
#635000
b1100 T
b0 #
b0 t
b100 '
b100 p
b0 *
b0 l
b11000000000 <
b11000000000 _
b1100 S
b100011000000000 9
b100011000000000 b
b110 R
b100011000000000 /
b100011000000000 =
b11111 6
b100011000000000 |
b11110 5
1,
#640000
0,
#645000
1,
#650000
0,
#655000
b1110 T
b100 #
b100 t
b100 '
b100 p
b0 *
b0 l
b11100000000 <
b11100000000 _
b1110 S
b100011100000000 9
b100011100000000 b
b111 R
b100011100000000 /
b100011100000000 =
b100000 6
b100011100000000 |
b11111 5
1,
#660000
0,
#665000
1,
#670000
0,
#675000
1;
1>
b10000 T
b0 #
b0 t
b101 '
b101 p
b110 *
b110 l
b100000000000 <
b100000000000 _
b10000 S
b100100000000000 9
b100100000000000 b
b1000 R
b100100000000000 /
b100100000000000 =
b101 7
b100001 6
b101 }
b101 {
b100100000000000 |
b100000 5
1,
#680000
0,
#685000
1,
#690000
0,
#695000
b11111 T
b11111111 (
b11111111 o
b111 #
b111 t
b111 "
b111 u
b111 $
b111 s
b101 '
b101 p
b110 *
b110 l
b1111 J
b1111 W
b111111111111 <
b111111111111 _
b11 N
b11 Q
b11111 S
b100111111111111 9
b100111111111111 b
b1111 R
b100111111111111 /
b100111111111111 =
b100010 6
b100111111111111 |
b100001 5
1,
#700000
0,
#705000
1,
#710000
0,
#715000
b0 T
b0 (
b0 o
b0 #
b0 t
b0 "
b0 u
b0 $
b0 s
b110 '
b110 p
b110 *
b110 l
b101 I
b101 X
b0 J
b0 W
b0 <
b0 _
b0 N
b0 Q
b0 S
b101000000000000 9
b101000000000000 b
b0 R
b101000000000000 /
b101000000000000 =
b110 7
b100011 6
b110 }
b110 {
b101000000000000 |
b100010 5
1,
#720000
0,
#725000
1,
#730000
0,
#735000
b100 T
b110 '
b110 p
b110 *
b110 l
b1000000000 <
b1000000000 _
b100 S
b101001000000000 9
b101001000000000 b
b10 R
b101001000000000 /
b101001000000000 =
b100100 6
b101001000000000 |
b100011 5
1,
#740000
0,
#745000
1,
#750000
0,
#755000
b1000 T
b110 '
b110 p
b110 *
b110 l
b10000000000 <
b10000000000 _
b1000 S
b101010000000000 9
b101010000000000 b
b100 R
b101010000000000 /
b101010000000000 =
b100101 6
b101010000000000 |
b100100 5
1,
#760000
0,
#765000
1,
#770000
0,
#775000
b1100 T
b110 '
b110 p
b110 *
b110 l
b11000000000 <
b11000000000 _
b1100 S
b101011000000000 9
b101011000000000 b
b110 R
b101011000000000 /
b101011000000000 =
b100110 6
b101011000000000 |
b100101 5
1,
#780000
0,
#785000
1,
#790000
0,
#795000
b10000 T
b110 '
b110 p
b110 *
b110 l
b100000000000 <
b100000000000 _
b10000 S
b101100000000000 9
b101100000000000 b
b1000 R
b101100000000000 /
b101100000000000 =
b100111 6
b101100000000000 |
b100110 5
1,
#800000
0,
#805000
1,
#810000
0,
#815000
b10100 T
b110 '
b110 p
b110 *
b110 l
b101000000000 <
b101000000000 _
b10100 S
b101101000000000 9
b101101000000000 b
b1010 R
b101101000000000 /
b101101000000000 =
b101000 6
b101101000000000 |
b100111 5
1,
#820000
0,
#825000
1,
#830000
0,
#835000
b11000 T
b110 '
b110 p
b110 *
b110 l
b110000000000 <
b110000000000 _
b11000 S
b101110000000000 9
b101110000000000 b
b1100 R
b101110000000000 /
b101110000000000 =
b101001 6
b101110000000000 |
b101000 5
1,
#840000
0,
#845000
1,
#850000
0,
#855000
b11100 T
b110 '
b110 p
b110 *
b110 l
b111000000000 <
b111000000000 _
b11100 S
b101111000000000 9
b101111000000000 b
b1110 R
b101111000000000 /
b101111000000000 =
b101010 6
b101111000000000 |
b101001 5
1,
#860000
0,
#865000
1,
#870000
0,
#875000
b0 T
b111 '
b111 p
b110 *
b110 l
b110 I
b110 X
b0 <
b0 _
b0 S
b110000000000000 9
b110000000000000 b
b0 R
b110000000000000 /
b110000000000000 =
b111 7
b101011 6
b111 }
b111 {
b110000000000000 |
b101010 5
1,
#880000
0,
#885000
1,
#890000
0,
#895000
b10000 T
b111 '
b111 p
b110 *
b110 l
b100000000000 <
b100000000000 _
b10000 S
b110100000000000 9
b110100000000000 b
b1000 R
b110100000000000 /
b110100000000000 =
b101100 6
b110100000000000 |
b101011 5
1,
#900000
0,
#905000
1,
#910000
0,
#915000
b0 T
b111 '
b111 p
b110 *
b110 l
b111 I
b111 X
b0 <
b0 _
b0 S
b111000000000000 9
b111000000000000 b
b0 R
b111000000000000 /
b111000000000000 =
b101101 6
b111000000000000 |
b101100 5
1,
#920000
0,
#925000
1,
#930000
0,
#935000
b10000 T
b111 '
b111 p
b110 *
b110 l
b100000000000 <
b100000000000 _
b10000 S
b111100000000000 9
b111100000000000 b
b1000 R
b111100000000000 /
b111100000000000 =
b101110 6
b111100000000000 |
b101101 5
1,
#940000
0,
#945000
1,
#950000
0,
#955000
b0 T
b1000 '
b1000 p
b110 *
b110 l
b1000 I
b1000 X
b0 <
b0 _
b0 S
b1000000000000000 9
b1000000000000000 b
b0 R
b1000000000000000 /
b1000000000000000 =
b1000 7
b101111 6
b1000 }
b1000 {
b1000000000000000 |
b101110 5
1,
#960000
0,
#965000
1,
#970000
0,
#975000
b10000 T
b1000 '
b1000 p
b110 *
b110 l
b100000000000 <
b100000000000 _
b10000 S
b1000100000000000 9
b1000100000000000 b
b1000 R
b1000100000000000 /
b1000100000000000 =
b110000 6
b1000100000000000 |
b101111 5
1,
#980000
0,
#985000
1,
#990000
0,
#995000
0;
b0 T
b1001 '
b1001 p
b101 *
b101 l
b1001 I
b1001 X
b0 <
b0 _
b0 S
b1001000000000000 9
b1001000000000000 b
b0 R
b1001000000000000 /
b1001000000000000 =
b1001 7
b110001 6
b1001 }
b1001 {
b1001000000000000 |
b110000 5
1,
#1000000
0,
#1005000
1,
#1010000
0,
#1015000
b10000 T
b1001 '
b1001 p
b101 *
b101 l
b100000000000 <
b100000000000 _
b10000 S
b1001100000000000 9
b1001100000000000 b
b1000 R
b1001100000000000 /
b1001100000000000 =
b110010 6
b1001100000000000 |
b110001 5
1,
#1020000
0,
#1025000
1,
#1030000
0,
#1035000
0>
b0 T
b1010 '
b1010 p
b0 *
b0 l
b1010 I
b1010 X
b0 <
b0 _
b0 S
b1010000000000000 9
b1010000000000000 b
b0 R
b1010000000000000 /
b1010000000000000 =
b1010 7
b110011 6
b1010 }
b1010 {
b1010000000000000 |
b110010 5
1,
#1040000
0,
#1045000
1,
#1050000
0,
#1055000
b10000 T
b1010 '
b1010 p
b0 *
b0 l
b100000000000 <
b100000000000 _
b10000 S
b1010100000000000 9
b1010100000000000 b
b1000 R
b1010100000000000 /
b1010100000000000 =
b110100 6
b1010100000000000 |
b110011 5
1,
#1060000
0,
#1065000
1,
#1070000
0,
#1075000
1;
1>
b0 T
b1011 '
b1011 p
b110 *
b110 l
b1011 I
b1011 X
b0 <
b0 _
b0 S
b1011000000000000 9
b1011000000000000 b
b0 R
b1011000000000000 /
b1011000000000000 =
b1011 7
b110101 6
b1011 }
b1011 {
b1011000000000000 |
b110100 5
1,
#1080000
0,
#1085000
1,
#1090000
0,
#1095000
b1 T
b10 #
b10 t
b1011 '
b1011 p
b110 *
b110 l
b10000000 <
b10000000 _
b1 S
b1011000010000000 9
b1011000010000000 b
b1011000010000000 /
b1011000010000000 =
b110110 6
b1011000010000000 |
b110101 5
1,
#1100000
0,
#1105000
1,
#1110000
0,
#1115000
b1000 T
b0 #
b0 t
b1100 '
b1100 p
b110 *
b110 l
b10000000000 <
b10000000000 _
b1000 S
b1011010000000000 9
b1011010000000000 b
b100 R
b1011010000000000 /
b1011010000000000 =
b1100 7
b110111 6
b1100 }
b1100 {
b1011010000000000 |
b110110 5
1,
#1120000
0,
#1125000
1,
#1130000
0,
#1135000
b1010 T
b100 #
b100 t
b1100 '
b1100 p
b110 *
b110 l
b10100000000 <
b10100000000 _
b1010 S
b1011010100000000 9
b1011010100000000 b
b101 R
b1011010100000000 /
b1011010100000000 =
b111000 6
b1011010100000000 |
b110111 5
1,
#1140000
0,
#1145000
1,
#1150000
0,
#1155000
b11000 T
b0 #
b0 t
b1100 '
b1100 p
b110 *
b110 l
b110000000000 <
b110000000000 _
b11000 S
b1011110000000000 9
b1011110000000000 b
b1100 R
b1011110000000000 /
b1011110000000000 =
b111001 6
b1011110000000000 |
b111000 5
1,
#1160000
0,
#1165000
1,
#1170000
0,
#1175000
b11010 T
b100 #
b100 t
b1100 '
b1100 p
b110 *
b110 l
b110100000000 <
b110100000000 _
b11010 S
b1011110100000000 9
b1011110100000000 b
b1101 R
b1011110100000000 /
b1011110100000000 =
b111010 6
b1011110100000000 |
b111001 5
1,
#1180000
0,
#1185000
1,
#1190000
0,
#1195000
0;
0>
b0 T
b0 #
b0 t
b1101 '
b1101 p
b0 *
b0 l
b1100 I
b1100 X
b0 <
b0 _
b0 S
b1100000000000000 9
b1100000000000000 b
b0 R
b1100000000000000 /
b1100000000000000 =
b1101 7
b111011 6
b1101 }
b1101 {
b1100000000000000 |
b111010 5
1,
#1200000
0,
#1205000
1,
#1210000
0,
#1215000
b10000 T
b1101 '
b1101 p
b0 *
b0 l
b100000000000 <
b100000000000 _
b10000 S
b1100100000000000 9
b1100100000000000 b
b1000 R
b1100100000000000 /
b1100100000000000 =
b111100 6
b1100100000000000 |
b111011 5
1,
#1220000
0,
#1225000
1,
#1230000
0,
#1235000
b0 T
b1110 '
b1110 p
b0 *
b0 l
b1101 I
b1101 X
b0 <
b0 _
b0 S
b1101000000000000 9
b1101000000000000 b
b0 R
b1101000000000000 /
b1101000000000000 =
b1110 7
b111101 6
b1110 }
b1110 {
b1101000000000000 |
b111100 5
1,
#1240000
0,
#1245000
1,
#1250000
0,
#1255000
b10 T
b100 #
b100 t
b1110 '
b1110 p
b0 *
b0 l
b100000000 <
b100000000 _
b10 S
b1101000100000000 9
b1101000100000000 b
b1 R
b1101000100000000 /
b1101000100000000 =
b111110 6
b1101000100000000 |
b111101 5
1,
#1260000
0,
#1265000
1,
#1270000
0,
#1275000
b100 T
b0 #
b0 t
b1110 '
b1110 p
b0 *
b0 l
b1000000000 <
b1000000000 _
b100 S
b1101001000000000 9
b1101001000000000 b
b10 R
b1101001000000000 /
b1101001000000000 =
b111111 6
b1101001000000000 |
b111110 5
1,
#1280000
0,
#1285000
1,
#1290000
0,
#1295000
b11110 T
b100 #
b100 t
b10010 '
b10010 p
b0 *
b0 l
b111100000000 <
b111100000000 _
b11110 S
b1101111100000000 9
b1101111100000000 b
b1111 R
b1101111100000000 /
b1101111100000000 =
b10010 7
b1000000 6
b10010 }
b10010 {
b1101111100000000 |
b111111 5
1,
#1300000
0,
#1305000
1,
#1310000
0,
#1315000
1>
b0 T
b0 #
b0 t
b1111 '
b1111 p
b1000 *
b1000 l
b1110 I
b1110 X
b0 <
b0 _
b0 S
b1110000000000000 9
b1110000000000000 b
b0 R
b1110000000000000 /
b1110000000000000 =
b1111 7
b1000001 6
b1111 }
b1111 {
b1110000000000000 |
b1000000 5
1,
#1320000
0,
#1325000
1,
#1330000
0,
#1335000
b1111 T
b11111111111 &
b11111111111 q
b111 #
b111 t
b111 "
b111 u
b111 $
b111 s
b1111 '
b1111 p
b1000 *
b1000 l
b1111 J
b1111 W
b11111111111 <
b11111111111 _
b11 N
b11 Q
b1111 S
b1110011111111111 9
b1110011111111111 b
b111 R
b1110011111111111 /
b1110011111111111 =
b1000010 6
b1110011111111111 |
b1000001 5
1,
#1340000
0,
#1345000
1,
#1350000
0,
#1355000
0>
b0 T
b0 &
b0 q
b0 #
b0 t
b0 "
b0 u
b0 $
b0 s
b10000 '
b10000 p
1^
b1001 *
b1001 l
b1111 I
b1111 X
b0 J
b0 W
b0 <
b0 _
b0 N
b0 Q
b0 S
b1111000000000000 9
b1111000000000000 b
b0 R
b1111000000000000 /
b1111000000000000 =
b10000 7
b1000011 6
b10000 }
b10000 {
b1111000000000000 |
b1000010 5
1,
#1360000
0,
#1365000
1,
#1370000
0,
#1375000
b10000 T
b10001 '
b10001 p
1^
b1001 *
b1001 l
b100000000000 <
b100000000000 _
b10000 S
b1111100000000000 9
b1111100000000000 b
b1000 R
b1111100000000000 /
b1111100000000000 =
b10001 7
b1000100 6
b10001 }
b10001 {
b1111100000000000 |
b1000011 5
1,
#1380000
0,
#1385000
1,
#1390000
0,
#1395000
b1000100 5
1,
